8|rs12354060|CNVanalysis-hg18:1:10004|CNVanalysis-hg19:1:20141
8|rs16825336|CNVanalysis-hg18:1:1735586|CNVanalysis-hg19:1:1745726
8|rs7528782|CNVanalysis-hg18:1:1635226|CNVanalysis-hg19:1:1645366
8|rs35511469|CNVanalysis-hg18:1:1792509|CNVanalysis-hg19:1:1802649
8|rs11466691|CNVanalysis-hg18:1:1129725|CNVanalysis-hg19:1:1139862
8|rs873927|CNVanalysis-hg18:1:1356693|CNVanalysis-hg19:1:1366830
8|rs35371819|CNVanalysis-hg18:1:1809844|CNVanalysis-hg19:1:1819984
8|rs28736676|CNVanalysis-hg18:1:963630|CNVanalysis-hg19:1:973767
8|cnvi0007390|CNVanalysis-hg18:1:444511|CNVanalysis-hg19:1:454648
8|rs2297864|CNVanalysis-hg18:1:1167493|CNVanalysis-hg19:1:1177630
8|GA018368|CNVanalysis-hg18:1:974834|CNVanalysis-hg19:1:984971
8|rs6687776|CNVanalysis-hg18:1:1020428|CNVanalysis-hg19:1:1030565
8|rs2803348|CNVanalysis-hg18:1:1843969|CNVanalysis-hg19:1:1854109
8|cnvi0007392|CNVanalysis-hg18:1:328097|CNVanalysis-hg19:1:338234
8|GA000084|CNVanalysis-hg18:1:1563724|CNVanalysis-hg19:1:1573861
8|rs6694982|CNVanalysis-hg18:1:847691|CNVanalysis-hg19:1:857828
8|rs13302925|CNVanalysis-hg18:1:893896|CNVanalysis-hg19:1:904033
8|rs2474460|CNVanalysis-hg18:1:1833906|CNVanalysis-hg19:1:1844046
8|rs1884454|CNVanalysis-hg18:1:1843148|CNVanalysis-hg19:1:1853288
8|cnvi0019141|CNVanalysis-hg18:1:373501|CNVanalysis-hg19:1:383638
8|rs2765022|CNVanalysis-hg18:1:1286934|CNVanalysis-hg19:1:1297071
8|rs12748433|CNVanalysis-hg18:1:1549834|CNVanalysis-hg19:1:1559971
8|rs28637822|CNVanalysis-hg18:1:1851885|CNVanalysis-hg19:1:1862025
8|rs6604983|CNVanalysis-hg18:1:1511458|CNVanalysis-hg19:1:1521595
8|rs4442317|CNVanalysis-hg18:1:1096647|CNVanalysis-hg19:1:1106784
8|rs1240702|CNVanalysis-hg18:1:1358510|CNVanalysis-hg19:1:1368647
8|rs12184279|CNVanalysis-hg18:1:707348|CNVanalysis-hg19:1:717485
8|rs8179466|CNVanalysis-hg18:1:224176|CNVanalysis-hg19:1:234313
8|rs3855955|CNVanalysis-hg18:1:1265940|CNVanalysis-hg19:1:1276077
8|GA000088|CNVanalysis-hg18:1:1586883|CNVanalysis-hg19:1:1597020
8|GA000031|CNVanalysis-hg18:1:980243|CNVanalysis-hg19:1:990380
8|rs28635343|CNVanalysis-hg18:1:1549966|CNVanalysis-hg19:1:1560103
8|rs7407|CNVanalysis-hg18:1:1674332|CNVanalysis-hg19:1:1684472
8|rs6687029|CNVanalysis-hg18:1:1508931|CNVanalysis-hg19:1:1519068
8|rs28487995|CNVanalysis-hg18:1:1609404|CNVanalysis-hg19:1:1619541
8|cnvi0043819|CNVanalysis-hg18:1:957451|CNVanalysis-hg19:1:967588
8|rs28609065|CNVanalysis-hg18:1:1590881|CNVanalysis-hg19:1:1601018
8|rs6694375|CNVanalysis-hg18:1:1814795|CNVanalysis-hg19:1:1824935
8|rs4275402|CNVanalysis-hg18:1:980143|CNVanalysis-hg19:1:990280
8|rs6603793|CNVanalysis-hg18:1:1495118|CNVanalysis-hg19:1:1505255
8|GA018355|CNVanalysis-hg18:1:887427|CNVanalysis-hg19:1:897564
8|rs6671356|CNVanalysis-hg18:1:1029889|CNVanalysis-hg19:1:1040026
8|rs2748987|CNVanalysis-hg18:1:1836442|CNVanalysis-hg19:1:1846582
8|rs1153103|CNVanalysis-hg18:1:1404875|CNVanalysis-hg19:1:1415012
8|rs7547323|CNVanalysis-hg18:1:1707890|CNVanalysis-hg19:1:1718030
8|rs4534327|CNVanalysis-hg18:1:1279624|CNVanalysis-hg19:1:1289761
8|rs34876581|CNVanalysis-hg18:1:1285266|CNVanalysis-hg19:1:1295403
8|rs3737628|CNVanalysis-hg18:1:1712792|CNVanalysis-hg19:1:1722932
8|rs28670388|CNVanalysis-hg18:1:1849418|CNVanalysis-hg19:1:1859558
8|rs12403351|CNVanalysis-hg18:1:1769090|CNVanalysis-hg19:1:1779230
8|rs9970652|CNVanalysis-hg18:1:1715486|CNVanalysis-hg19:1:1725626
8|cnvi0036828|CNVanalysis-hg18:1:1399118|CNVanalysis-hg19:1:1409255
8|cnvi0005640|CNVanalysis-hg18:1:1849509|CNVanalysis-hg19:1:1859649
8|rs1014988|CNVanalysis-hg18:1:1670079|CNVanalysis-hg19:1:1680219
8|rs16824508|CNVanalysis-hg18:1:1789051|CNVanalysis-hg19:1:1799191
8|rs1887284|CNVanalysis-hg18:1:1476922|CNVanalysis-hg19:1:1487059
8|GA018382|CNVanalysis-hg18:1:1142780|CNVanalysis-hg19:1:1152917
8|rs9439440|CNVanalysis-hg18:1:1441632|CNVanalysis-hg19:1:1451769
8|GA000097|CNVanalysis-hg18:1:1675900|CNVanalysis-hg19:1:1686040
8|rs2490548|CNVanalysis-hg18:1:1841994|CNVanalysis-hg19:1:1852134
8|rs13302982|CNVanalysis-hg18:1:851671|CNVanalysis-hg19:1:861808
8|cnvi0020673|CNVanalysis-hg18:1:683645|CNVanalysis-hg19:1:693782
8|GA000029|CNVanalysis-hg18:1:976594|CNVanalysis-hg19:1:986731
8|rs28710181|CNVanalysis-hg18:1:1837391|CNVanalysis-hg19:1:1847531
8|rs7553429|CNVanalysis-hg18:1:1080420|CNVanalysis-hg19:1:1090557
8|rs34389364|CNVanalysis-hg18:1:1285186|CNVanalysis-hg19:1:1295323
8|rs12077700|CNVanalysis-hg18:1:1209638|CNVanalysis-hg19:1:1219775
8|rs9439458|CNVanalysis-hg18:1:1441243|CNVanalysis-hg19:1:1451380
8|cnvi0007383|CNVanalysis-hg18:1:369088|CNVanalysis-hg19:1:379225
8|rs4040604|CNVanalysis-hg18:1:852987|CNVanalysis-hg19:1:863124
8|rs2262190|CNVanalysis-hg18:1:1865127|CNVanalysis-hg19:1:1875267
8|rs12072310|CNVanalysis-hg18:1:1183586|CNVanalysis-hg19:1:1193723
8|cnvi0004955|CNVanalysis-hg18:1:1065697|CNVanalysis-hg19:1:1075834
8|cnvi0020678|CNVanalysis-hg18:1:617622|CNVanalysis-hg19:1:627759
8|rs34945898|CNVanalysis-hg18:1:1136887|CNVanalysis-hg19:1:1147024
8|rs2180311|CNVanalysis-hg18:1:1738594|CNVanalysis-hg19:1:1748734
8|rs9442373|CNVanalysis-hg18:1:1052501|CNVanalysis-hg19:1:1062638
8|rs11260562|CNVanalysis-hg18:1:1155173|CNVanalysis-hg19:1:1165310
8|rs1320571|CNVanalysis-hg18:1:1110294|CNVanalysis-hg19:1:1120431
8|rs1739855|CNVanalysis-hg18:1:1223804|CNVanalysis-hg19:1:1233941
8|cnvi0005318|CNVanalysis-hg18:1:1315540|CNVanalysis-hg19:1:1325677
8|rs35940137|CNVanalysis-hg18:1:930066|CNVanalysis-hg19:1:940203
8|rs7540231|CNVanalysis-hg18:1:1495898|CNVanalysis-hg19:1:1506035
8|rs2803316|CNVanalysis-hg18:1:1855158|CNVanalysis-hg19:1:1865298
8|rs12041925|CNVanalysis-hg18:1:1697600|CNVanalysis-hg19:1:1707740
8|rs12036216|CNVanalysis-hg18:1:1142976|CNVanalysis-hg19:1:1153113
8|rs1126573|CNVanalysis-hg18:1:939233|CNVanalysis-hg19:1:949370
8|rs1891906|CNVanalysis-hg18:1:940106|CNVanalysis-hg19:1:950243
8|rs11586188|CNVanalysis-hg18:1:1227692|CNVanalysis-hg19:1:1237829
8|rs7524470|CNVanalysis-hg18:1:1182378|CNVanalysis-hg19:1:1192515
8|rs9442387|CNVanalysis-hg18:1:1100449|CNVanalysis-hg19:1:1110586
8|cnvi0021553|CNVanalysis-hg18:1:346906|CNVanalysis-hg19:1:357043
8|rs9777939|CNVanalysis-hg18:1:919053|CNVanalysis-hg19:1:929190
8|rs36044796|CNVanalysis-hg18:1:1378131|CNVanalysis-hg19:1:1388268
8|rs34238514|CNVanalysis-hg18:1:1696595|CNVanalysis-hg19:1:1706735
8|rs9651273|CNVanalysis-hg18:1:1021403|CNVanalysis-hg19:1:1031540
8|rs2748984|CNVanalysis-hg18:1:1849156|CNVanalysis-hg19:1:1859296
8|rs6667923|CNVanalysis-hg18:1:1196206|CNVanalysis-hg19:1:1206343
8|rs28659907|CNVanalysis-hg18:1:1831675|CNVanalysis-hg19:1:1841815
8|rs3855956|CNVanalysis-hg18:1:1266273|CNVanalysis-hg19:1:1276410
5|rs12354060|CNVanalysis-hg18:1:10004|CNVanalysis-hg19:1:20141
5|rs16825336|CNVanalysis-hg18:1:1735586|CNVanalysis-hg19:1:1745726
5|rs7528782|CNVanalysis-hg18:1:1635226|CNVanalysis-hg19:1:1645366
5|cnvi0008317|CNVanalysis-hg18:1:3206359|CNVanalysis-hg19:1:3216499
5|cnvi0007390|CNVanalysis-hg18:1:444511|CNVanalysis-hg19:1:454648
5|rs2483286|CNVanalysis-hg18:1:3249229|CNVanalysis-hg19:1:3259369
5|rs6687776|CNVanalysis-hg18:1:1020428|CNVanalysis-hg19:1:1030565
5|rs947344|CNVanalysis-hg18:1:3413327|CNVanalysis-hg19:1:3423467
5|rs884080|CNVanalysis-hg18:1:2016609|CNVanalysis-hg19:1:2026749
5|cnvi0007392|CNVanalysis-hg18:1:328097|CNVanalysis-hg19:1:338234
5|rs2474460|CNVanalysis-hg18:1:1833906|CNVanalysis-hg19:1:1844046
5|rs16823103|CNVanalysis-hg18:1:2782661|CNVanalysis-hg19:1:2792801
5|rs4310388|CNVanalysis-hg18:1:2497275|CNVanalysis-hg19:1:2507415
5|cnvi0019141|CNVanalysis-hg18:1:373501|CNVanalysis-hg19:1:383638
5|rs2235176|CNVanalysis-hg18:1:3043966|CNVanalysis-hg19:1:3054106
5|rs2842909|CNVanalysis-hg18:1:2849584|CNVanalysis-hg19:1:2859724
5|rs10909852|CNVanalysis-hg18:1:2895465|CNVanalysis-hg19:1:2905605
5|rs6684917|CNVanalysis-hg18:1:3194136|CNVanalysis-hg19:1:3204276
5|rs12135062|CNVanalysis-hg18:1:3093172|CNVanalysis-hg19:1:3103312
5|rs12184279|CNVanalysis-hg18:1:707348|CNVanalysis-hg19:1:717485
5|rs8179466|CNVanalysis-hg18:1:224176|CNVanalysis-hg19:1:234313
5|rs10797430|CNVanalysis-hg18:1:2470197|CNVanalysis-hg19:1:2480337
5|rs3128291|CNVanalysis-hg18:1:2047883|CNVanalysis-hg19:1:2058023
5|rs2803310|CNVanalysis-hg18:1:2007157|CNVanalysis-hg19:1:2017297
5|rs7526311|CNVanalysis-hg18:1:2697298|CNVanalysis-hg19:1:2707438
5|rs4648468|CNVanalysis-hg18:1:3200810|CNVanalysis-hg19:1:3210950
5|rs7533362|CNVanalysis-hg18:1:2886595|CNVanalysis-hg19:1:2896735
5|rs6603793|CNVanalysis-hg18:1:1495118|CNVanalysis-hg19:1:1505255
5|rs1333189|CNVanalysis-hg18:1:3279831|CNVanalysis-hg19:1:3289971
5|rs12562637|CNVanalysis-hg18:1:2914526|CNVanalysis-hg19:1:2924666
5|rs28670388|CNVanalysis-hg18:1:1849418|CNVanalysis-hg19:1:1859558
5|rs903916|CNVanalysis-hg18:1:2221323|CNVanalysis-hg19:1:2231463
5|rs12085231|CNVanalysis-hg18:1:3287498|CNVanalysis-hg19:1:3297638
5|rs12024847|CNVanalysis-hg18:1:3310659|CNVanalysis-hg19:1:3320799
5|rs903919|CNVanalysis-hg18:1:2212443|CNVanalysis-hg19:1:2222583
5|rs6659552|CNVanalysis-hg18:1:2869320|CNVanalysis-hg19:1:2879460
5|rs1333190|CNVanalysis-hg18:1:3279589|CNVanalysis-hg19:1:3289729
5|rs12119470|CNVanalysis-hg18:1:2207960|CNVanalysis-hg19:1:2218100
5|cnvi0005640|CNVanalysis-hg18:1:1849509|CNVanalysis-hg19:1:1859649
5|rs903914|CNVanalysis-hg18:1:2279181|CNVanalysis-hg19:1:2289321
5|rs16823228|CNVanalysis-hg18:1:2843619|CNVanalysis-hg19:1:2853759
5|rs12749547|CNVanalysis-hg18:1:3472448|CNVanalysis-hg19:1:3482588
5|rs2483266|CNVanalysis-hg18:1:3225901|CNVanalysis-hg19:1:3236041
5|rs2651899|CNVanalysis-hg18:1:3073572|CNVanalysis-hg19:1:3083712
5|rs897615|CNVanalysis-hg18:1:2776953|CNVanalysis-hg19:1:2787093
5|rs2493314|CNVanalysis-hg18:1:3390154|CNVanalysis-hg19:1:3400294
5|rs905135|CNVanalysis-hg18:1:3189344|CNVanalysis-hg19:1:3199484
5|cnvi0020673|CNVanalysis-hg18:1:683645|CNVanalysis-hg19:1:693782
5|rs4648390|CNVanalysis-hg18:1:2690232|CNVanalysis-hg19:1:2700372
5|rs7553429|CNVanalysis-hg18:1:1080420|CNVanalysis-hg19:1:1090557
5|rs7544357|CNVanalysis-hg18:1:3501155|CNVanalysis-hg19:1:3511295
5|cnvi0007383|CNVanalysis-hg18:1:369088|CNVanalysis-hg19:1:379225
5|rs654483|CNVanalysis-hg18:1:2063411|CNVanalysis-hg19:1:2073551
5|rs6683516|CNVanalysis-hg18:1:2911769|CNVanalysis-hg19:1:2921909
5|rs3820011|CNVanalysis-hg18:1:1878053|CNVanalysis-hg19:1:1888193
5|rs6680471|CNVanalysis-hg18:1:2744372|CNVanalysis-hg19:1:2754512
5|rs2645085|CNVanalysis-hg18:1:2277476|CNVanalysis-hg19:1:2287616
5|rs3795263|CNVanalysis-hg18:1:2928849|CNVanalysis-hg19:1:2938989
5|cnvi0008691|CNVanalysis-hg18:1:3399617|CNVanalysis-hg19:1:3409757
5|cnvi0004955|CNVanalysis-hg18:1:1065697|CNVanalysis-hg19:1:1075834
5|cnvi0020678|CNVanalysis-hg18:1:617622|CNVanalysis-hg19:1:627759
5|rs2180311|CNVanalysis-hg18:1:1738594|CNVanalysis-hg19:1:1748734
5|rs9442373|CNVanalysis-hg18:1:1052501|CNVanalysis-hg19:1:1062638
5|cnvi0005318|CNVanalysis-hg18:1:1315540|CNVanalysis-hg19:1:1325677
5|rs6685801|CNVanalysis-hg18:1:3454311|CNVanalysis-hg19:1:3464451
5|rs10909903|CNVanalysis-hg18:1:3131321|CNVanalysis-hg19:1:3141461
5|rs10910078|CNVanalysis-hg18:1:2380448|CNVanalysis-hg19:1:2390588
5|rs7524470|CNVanalysis-hg18:1:1182378|CNVanalysis-hg19:1:1192515
5|cnvi0021553|CNVanalysis-hg18:1:346906|CNVanalysis-hg19:1:357043
5|rs2817178|CNVanalysis-hg18:1:3037112|CNVanalysis-hg19:1:3047252
5|rs9651273|CNVanalysis-hg18:1:1021403|CNVanalysis-hg19:1:1031540
5|rs10910019|CNVanalysis-hg18:1:2778968|CNVanalysis-hg19:1:2789108
5|rs2257182|CNVanalysis-hg18:1:2072426|CNVanalysis-hg19:1:2082566
5|rs2977656|CNVanalysis-hg18:1:719811|CNVanalysis-hg19:1:729948
5|cnvi0007379|CNVanalysis-hg18:1:311662|CNVanalysis-hg19:1:321799
5|cnvi0012193|CNVanalysis-hg18:1:797090|CNVanalysis-hg19:1:807227
5|rs12029736|CNVanalysis-hg18:1:696231|CNVanalysis-hg19:1:706368
5|cnvi0019140|CNVanalysis-hg18:1:314893|CNVanalysis-hg19:1:325030
5|rs10910034|CNVanalysis-hg18:1:2165898|CNVanalysis-hg19:1:2176038
5|rs3748816|CNVanalysis-hg18:1:2516606|CNVanalysis-hg19:1:2526746
5|rs12030066|CNVanalysis-hg18:1:3194003|CNVanalysis-hg19:1:3204143
5|rs1126625|CNVanalysis-hg18:1:939331|CNVanalysis-hg19:1:949468
5|rs9628616|CNVanalysis-hg18:1:3463205|CNVanalysis-hg19:1:3473345
5|rs2055204|CNVanalysis-hg18:1:2270521|CNVanalysis-hg19:1:2280661
5|rs7535528|CNVanalysis-hg18:1:2434274|CNVanalysis-hg19:1:2444414
5|rs1108600|CNVanalysis-hg18:1:3230995|CNVanalysis-hg19:1:3241135
5|rs908742|CNVanalysis-hg18:1:2023116|CNVanalysis-hg19:1:2033256
5|rs6603779|CNVanalysis-hg18:1:227744|CNVanalysis-hg19:1:237881
5|rs11585362|CNVanalysis-hg18:1:3418468|CNVanalysis-hg19:1:3428608
5|rs4648524|CNVanalysis-hg18:1:3446452|CNVanalysis-hg19:1:3456592
5|rs6697749|CNVanalysis-hg18:1:3500493|CNVanalysis-hg19:1:3510633
5|rs884941|CNVanalysis-hg18:1:2213505|CNVanalysis-hg19:1:2223645
5|rs2606411|CNVanalysis-hg18:1:2837348|CNVanalysis-hg19:1:2847488
5|rs6690515|CNVanalysis-hg18:1:1437188|CNVanalysis-hg19:1:1447325
5|rs4648392|CNVanalysis-hg18:1:3436673|CNVanalysis-hg19:1:3446813
5|cnvi0004843|CNVanalysis-hg18:1:1033923|CNVanalysis-hg19:1:1044060
5|rs12726255|CNVanalysis-hg18:1:1039813|CNVanalysis-hg19:1:1049950
5|rs4648487|CNVanalysis-hg18:1:3275164|CNVanalysis-hg19:1:3285304
5|cnvi0020674|CNVanalysis-hg18:1:688908|CNVanalysis-hg19:1:699045
5|rs6603811|CNVanalysis-hg18:1:1695996|CNVanalysis-hg19:1:1706136
6|cnvi0072661|CNVanalysis-hg18:1:127537|CNVanalysis-hg19:1:137674
6|cnvi0087122|CNVanalysis-hg18:1:383544|CNVanalysis-hg19:1:393681
6|cnvi0072652|CNVanalysis-hg18:1:126806|CNVanalysis-hg19:1:136943
6|cnvi0077475|CNVanalysis-hg18:1:402270|CNVanalysis-hg19:1:412407
6|cnvi0094406|CNVanalysis-hg18:1:311683|CNVanalysis-hg19:1:321820
6|cnvi0060955|CNVanalysis-hg18:1:416075|CNVanalysis-hg19:1:426212
6|cnvi0094419|CNVanalysis-hg18:1:336989|CNVanalysis-hg19:1:347126
6|rs6670732|CNVanalysis-hg18:1:228130|CNVanalysis-hg19:1:238267
6|cnvi0090870|CNVanalysis-hg18:1:232570|CNVanalysis-hg19:1:242707
6|rs2462492|CNVanalysis-hg18:1:44539|CNVanalysis-hg19:1:54676
6|cnvi0087838|CNVanalysis-hg18:1:439499|CNVanalysis-hg19:1:449636
6|cnvi0090872|CNVanalysis-hg18:1:237244|CNVanalysis-hg19:1:247381
6|cnvi0060964|CNVanalysis-hg18:1:433928|CNVanalysis-hg19:1:444065
6|cnvi0094417|CNVanalysis-hg18:1:333514|CNVanalysis-hg19:1:343651
6|cnvi0087839|CNVanalysis-hg18:1:439552|CNVanalysis-hg19:1:449689
6|cnvi0077474|CNVanalysis-hg18:1:401553|CNVanalysis-hg19:1:411690
6|cnvi0077478|CNVanalysis-hg18:1:404470|CNVanalysis-hg19:1:414607
6|cnvi0052555|CNVanalysis-hg18:1:14343|CNVanalysis-hg19:1:24480
6|cnvi0094405|CNVanalysis-hg18:1:309697|CNVanalysis-hg19:1:319834
6|cnvi0087843|CNVanalysis-hg18:1:439918|CNVanalysis-hg19:1:450055
6|cnvi0077463|CNVanalysis-hg18:1:394009|CNVanalysis-hg19:1:404146
6|cnvi0116036|CNVanalysis-hg18:1:59415|CNVanalysis-hg19:1:69552
6|rs3878915|CNVanalysis-hg18:1:70249|CNVanalysis-hg19:1:80386
6|cnvi0087841|CNVanalysis-hg18:1:439758|CNVanalysis-hg19:1:449895
6|cnvi0090881|CNVanalysis-hg18:1:257376|CNVanalysis-hg19:1:267513
6|cnvi0090879|CNVanalysis-hg18:1:253415|CNVanalysis-hg19:1:263552
6|cnvi0090871|CNVanalysis-hg18:1:234932|CNVanalysis-hg19:1:245069
6|cnvi0094408|CNVanalysis-hg18:1:315687|CNVanalysis-hg19:1:325824
6|cnvi0087114|CNVanalysis-hg18:1:359568|CNVanalysis-hg19:1:369705
6|cnvi0060961|CNVanalysis-hg18:1:428200|CNVanalysis-hg19:1:438337
6|cnvi0094410|CNVanalysis-hg18:1:319641|CNVanalysis-hg19:1:329778
6|cnvi0090873|CNVanalysis-hg18:1:239615|CNVanalysis-hg19:1:249752
6|cnvi0087846|CNVanalysis-hg18:1:440081|CNVanalysis-hg19:1:450218
6|cnvi0087110|CNVanalysis-hg18:1:347661|CNVanalysis-hg19:1:357798
6|cnvi0087125|CNVanalysis-hg18:1:391554|CNVanalysis-hg19:1:401691
6|cnvi0077473|CNVanalysis-hg18:1:400755|CNVanalysis-hg19:1:410892
6|cnvi0090878|CNVanalysis-hg18:1:251067|CNVanalysis-hg19:1:261204
6|cnvi0077468|CNVanalysis-hg18:1:397309|CNVanalysis-hg19:1:407446
6|cnvi0052559|CNVanalysis-hg18:1:31057|CNVanalysis-hg19:1:41194
6|cnvi0052560|CNVanalysis-hg18:1:35394|CNVanalysis-hg19:1:45531
6|rs2462495|CNVanalysis-hg18:1:68896|CNVanalysis-hg19:1:79033
6|cnvi0072653|CNVanalysis-hg18:1:126912|CNVanalysis-hg19:1:137049
6|cnvi0060959|CNVanalysis-hg18:1:424077|CNVanalysis-hg19:1:434214
6|cnvi0060965|CNVanalysis-hg18:1:435738|CNVanalysis-hg19:1:445875
6|cnvi0090880|CNVanalysis-hg18:1:255322|CNVanalysis-hg19:1:265459
6|cnvi0077469|CNVanalysis-hg18:1:397887|CNVanalysis-hg19:1:408024
6|cnvi0060951|CNVanalysis-hg18:1:408124|CNVanalysis-hg19:1:418261
6|cnvi0094412|CNVanalysis-hg18:1:323733|CNVanalysis-hg19:1:333870
6|cnvi0094418|CNVanalysis-hg18:1:335249|CNVanalysis-hg19:1:345386
6|cnvi0072654|CNVanalysis-hg18:1:126973|CNVanalysis-hg19:1:137110
6|cnvi0087111|CNVanalysis-hg18:1:350656|CNVanalysis-hg19:1:360793
6|cnvi0094407|CNVanalysis-hg18:1:313661|CNVanalysis-hg19:1:323798
6|cnvi0072645|CNVanalysis-hg18:1:126116|CNVanalysis-hg19:1:136253
6|cnvi0052558|CNVanalysis-hg18:1:26839|CNVanalysis-hg19:1:36976
6|cnvi0094411|CNVanalysis-hg18:1:321661|CNVanalysis-hg19:1:331798
6|rs10399793|CNVanalysis-hg18:1:39161|CNVanalysis-hg19:1:49298
6|cnvi0060958|CNVanalysis-hg18:1:422028|CNVanalysis-hg19:1:432165
6|cnvi0090877|CNVanalysis-hg18:1:248753|CNVanalysis-hg19:1:258890
6|cnvi0060966|CNVanalysis-hg18:1:437620|CNVanalysis-hg19:1:447757
6|cnvi0077477|CNVanalysis-hg18:1:403741|CNVanalysis-hg19:1:413878
6|cnvi0087848|CNVanalysis-hg18:1:440199|CNVanalysis-hg19:1:450336
6|cnvi0094414|CNVanalysis-hg18:1:328502|CNVanalysis-hg19:1:338639
6|cnvi0072647|CNVanalysis-hg18:1:126326|CNVanalysis-hg19:1:136463
6|cnvi0052556|CNVanalysis-hg18:1:18570|CNVanalysis-hg19:1:28707
6|cnvi0052562|CNVanalysis-hg18:1:53324|CNVanalysis-hg19:1:63461
6|cnvi0087840|CNVanalysis-hg18:1:439654|CNVanalysis-hg19:1:449791
6|cnvi0087126|CNVanalysis-hg18:1:393881|CNVanalysis-hg19:1:404018
6|cnvi0072655|CNVanalysis-hg18:1:127043|CNVanalysis-hg19:1:137180
6|cnvi0072659|CNVanalysis-hg18:1:127419|CNVanalysis-hg19:1:137556
6|cnvi0087834|CNVanalysis-hg18:1:439179|CNVanalysis-hg19:1:449316
6|cnvi0090867|CNVanalysis-hg18:1:225432|CNVanalysis-hg19:1:235569
6|cnvi0060967|CNVanalysis-hg18:1:438533|CNVanalysis-hg19:1:448670
6|cnvi0077472|CNVanalysis-hg18:1:400092|CNVanalysis-hg19:1:410229
6|cnvi0087112|CNVanalysis-hg18:1:353483|CNVanalysis-hg19:1:363620
6|cnvi0077471|CNVanalysis-hg18:1:399373|CNVanalysis-hg19:1:409510
6|cnvi0090876|CNVanalysis-hg18:1:246453|CNVanalysis-hg19:1:256590
6|cnvi0087835|CNVanalysis-hg18:1:439233|CNVanalysis-hg19:1:449370
6|cnvi0052557|CNVanalysis-hg18:1:22606|CNVanalysis-hg19:1:32743
6|cnvi0060952|CNVanalysis-hg18:1:410105|CNVanalysis-hg19:1:420242
6|cnvi0060957|CNVanalysis-hg18:1:420032|CNVanalysis-hg19:1:430169
6|cnvi0094415|CNVanalysis-hg18:1:330495|CNVanalysis-hg19:1:340632
6|cnvi0094421|CNVanalysis-hg18:1:340672|CNVanalysis-hg19:1:350809
6|cnvi0094409|CNVanalysis-hg18:1:317689|CNVanalysis-hg19:1:327826
6|cnvi0087117|CNVanalysis-hg18:1:368408|CNVanalysis-hg19:1:378545
6|cnvi0077467|CNVanalysis-hg18:1:396603|CNVanalysis-hg19:1:406740
6|cnvi0072656|CNVanalysis-hg18:1:127147|CNVanalysis-hg19:1:137284
6|cnvi0087836|CNVanalysis-hg18:1:439336|CNVanalysis-hg19:1:449473
6|cnvi0087113|CNVanalysis-hg18:1:356614|CNVanalysis-hg19:1:366751
6|cnvi0052561|CNVanalysis-hg18:1:48837|CNVanalysis-hg19:1:58974
6|cnvi0090875|CNVanalysis-hg18:1:244156|CNVanalysis-hg19:1:254293
6|cnvi0090868|CNVanalysis-hg18:1:225507|CNVanalysis-hg19:1:235644
6|cnvi0094413|CNVanalysis-hg18:1:325704|CNVanalysis-hg19:1:335841
6|cnvi0087118|CNVanalysis-hg18:1:371429|CNVanalysis-hg19:1:381566
6|rs3107975|CNVanalysis-hg18:1:45189|CNVanalysis-hg19:1:55326
6|cnvi0072650|CNVanalysis-hg18:1:126597|CNVanalysis-hg19:1:136734
6|cnvi0094416|CNVanalysis-hg18:1:332447|CNVanalysis-hg19:1:342584
6|cnvi0094404|CNVanalysis-hg18:1:307664|CNVanalysis-hg19:1:317801
6|cnvi0060953|CNVanalysis-hg18:1:412106|CNVanalysis-hg19:1:422243
6|cnvi0077479|CNVanalysis-hg18:1:405177|CNVanalysis-hg19:1:415314
6|cnvi0072648|CNVanalysis-hg18:1:126434|CNVanalysis-hg19:1:136571
1|rs12354060|CNVanalysis-hg18:1:10004|CNVanalysis-hg19:1:20141
1|rs349394|CNVanalysis-hg18:1:4319314|CNVanalysis-hg19:1:4419454
1|rs11800462|CNVanalysis-hg18:1:6447088|CNVanalysis-hg19:1:6524501
1|rs10489136|CNVanalysis-hg18:1:4833095|CNVanalysis-hg19:1:4933235
1|rs938962|CNVanalysis-hg18:1:5183802|CNVanalysis-hg19:1:5283942
1|cnv65p4|CNVanalysis-hg18:1:5294483|CNVanalysis-hg19:1:5394623
1|rs2483286|CNVanalysis-hg18:1:3249229|CNVanalysis-hg19:1:3259369
1|rs6687776|CNVanalysis-hg18:1:1020428|CNVanalysis-hg19:1:1030565
1|rs947344|CNVanalysis-hg18:1:3413327|CNVanalysis-hg19:1:3423467
1|rs2898853|CNVanalysis-hg18:1:4892064|CNVanalysis-hg19:1:4992204
1|rs1181888|CNVanalysis-hg18:1:3661651|CNVanalysis-hg19:1:3671791
1|rs884080|CNVanalysis-hg18:1:2016609|CNVanalysis-hg19:1:2026749
1|rs2474460|CNVanalysis-hg18:1:1833906|CNVanalysis-hg19:1:1844046
1|rs4310388|CNVanalysis-hg18:1:2497275|CNVanalysis-hg19:1:2507415
1|cnv3p637|CNVanalysis-hg18:1:456464|CNVanalysis-hg19:1:466601
1|rs10915406|CNVanalysis-hg18:1:5249476|CNVanalysis-hg19:1:5349616
1|rs4654454|CNVanalysis-hg18:1:4608022|CNVanalysis-hg19:1:4708162
1|rs2235176|CNVanalysis-hg18:1:3043966|CNVanalysis-hg19:1:3054106
1|rs1476047|CNVanalysis-hg18:1:7234759|CNVanalysis-hg19:1:7312172
1|rs2842909|CNVanalysis-hg18:1:2849584|CNVanalysis-hg19:1:2859724
1|cnv62PP6|CNVanalysis-hg18:1:4037825|CNVanalysis-hg19:1:4137965
1|rs12141954|CNVanalysis-hg18:1:5242155|CNVanalysis-hg19:1:5342295
1|rs10909852|CNVanalysis-hg18:1:2895465|CNVanalysis-hg19:1:2905605
1|rs2187901|CNVanalysis-hg18:1:7065931|CNVanalysis-hg19:1:7143344
1|rs811400|CNVanalysis-hg18:1:6809236|CNVanalysis-hg19:1:6886649
1|rs6684917|CNVanalysis-hg18:1:3194136|CNVanalysis-hg19:1:3204276
1|rs12135062|CNVanalysis-hg18:1:3093172|CNVanalysis-hg19:1:3103312
1|cnv35p4|CNVanalysis-hg18:1:2111438|CNVanalysis-hg19:1:2121578
1|rs12184279|CNVanalysis-hg18:1:707348|CNVanalysis-hg19:1:717485
1|rs780983|CNVanalysis-hg18:1:4486466|CNVanalysis-hg19:1:4586606
1|rs8179466|CNVanalysis-hg18:1:224176|CNVanalysis-hg19:1:234313
1|rs12132422|CNVanalysis-hg18:1:4195164|CNVanalysis-hg19:1:4295304
1|cnvGap_CNV_4p382|CNVanalysis-hg18:1:688690|CNVanalysis-hg19:1:698827
1|rs3765770|CNVanalysis-hg18:1:3625841|CNVanalysis-hg19:1:3635981
1|rs10797430|CNVanalysis-hg18:1:2470197|CNVanalysis-hg19:1:2480337
1|rs3128291|CNVanalysis-hg18:1:2047883|CNVanalysis-hg19:1:2058023
1|rs806111|CNVanalysis-hg18:1:5976217|CNVanalysis-hg19:1:6053630
1|rs2803310|CNVanalysis-hg18:1:2007157|CNVanalysis-hg19:1:2017297
1|rs677735|CNVanalysis-hg18:1:5195036|CNVanalysis-hg19:1:5295176
1|rs7526311|CNVanalysis-hg18:1:2697298|CNVanalysis-hg19:1:2707438
1|rs742394|CNVanalysis-hg18:1:6612727|CNVanalysis-hg19:1:6690140
1|rs7533362|CNVanalysis-hg18:1:2886595|CNVanalysis-hg19:1:2896735
1|rs17429690|CNVanalysis-hg18:1:5736722|CNVanalysis-hg19:1:5814135
1|rs6692780|CNVanalysis-hg18:1:4914443|CNVanalysis-hg19:1:5014583
1|rs4908446|CNVanalysis-hg18:1:7168256|CNVanalysis-hg19:1:7245669
1|rs9439506|CNVanalysis-hg18:1:5096599|CNVanalysis-hg19:1:5196739
1|rs6603793|CNVanalysis-hg18:1:1495118|CNVanalysis-hg19:1:1505255
1|cnv33p2|CNVanalysis-hg18:1:2063521|CNVanalysis-hg19:1:2073661
1|rs10779685|CNVanalysis-hg18:1:5961841|CNVanalysis-hg19:1:6039254
1|rs1295107|CNVanalysis-hg18:1:6001979|CNVanalysis-hg19:1:6079392
1|rs1333189|CNVanalysis-hg18:1:3279831|CNVanalysis-hg19:1:3289971
1|rs28670388|CNVanalysis-hg18:1:1849418|CNVanalysis-hg19:1:1859558
1|rs903916|CNVanalysis-hg18:1:2221323|CNVanalysis-hg19:1:2231463
1|rs2290849|CNVanalysis-hg18:1:5051105|CNVanalysis-hg19:1:5151245
1|rs12128230|CNVanalysis-hg18:1:4401771|CNVanalysis-hg19:1:4501911
1|rs551207|CNVanalysis-hg18:1:5930033|CNVanalysis-hg19:1:6007446
1|rs490606|CNVanalysis-hg18:1:5237704|CNVanalysis-hg19:1:5337844
1|cnv49p3|CNVanalysis-hg18:1:3210565|CNVanalysis-hg19:1:3220705
1|rs241250|CNVanalysis-hg18:1:4513093|CNVanalysis-hg19:1:4613233
1|cnv18p2|CNVanalysis-hg18:1:1110022|CNVanalysis-hg19:1:1120159
1|rs4648553|CNVanalysis-hg18:1:3638739|CNVanalysis-hg19:1:3648879
1|rs9439587|CNVanalysis-hg18:1:5602395|CNVanalysis-hg19:1:5679808
1|rs705685|CNVanalysis-hg18:1:4410700|CNVanalysis-hg19:1:4510840
1|rs903914|CNVanalysis-hg18:1:2279181|CNVanalysis-hg19:1:2289321
1|cnv14p12|CNVanalysis-hg18:1:1002388|CNVanalysis-hg19:1:1012525
1|rs2483266|CNVanalysis-hg18:1:3225901|CNVanalysis-hg19:1:3236041
1|rs2334259|CNVanalysis-hg18:1:4981880|CNVanalysis-hg19:1:5082020
1|rs2651899|CNVanalysis-hg18:1:3073572|CNVanalysis-hg19:1:3083712
1|rs4433399|CNVanalysis-hg18:1:5733711|CNVanalysis-hg19:1:5811124
1|rs6577401|CNVanalysis-hg18:1:6993776|CNVanalysis-hg19:1:7071189
1|rs897615|CNVanalysis-hg18:1:2776953|CNVanalysis-hg19:1:2787093
1|rs4654598|CNVanalysis-hg18:1:4704202|CNVanalysis-hg19:1:4804342
1|rs10915330|CNVanalysis-hg18:1:5017275|CNVanalysis-hg19:1:5117415
1|rs16838750|CNVanalysis-hg18:1:4304204|CNVanalysis-hg19:1:4404344
1|rs2493314|CNVanalysis-hg18:1:3390154|CNVanalysis-hg19:1:3400294
1|rs4654493|CNVanalysis-hg18:1:3916794|CNVanalysis-hg19:1:4016934
1|cnv59p7|CNVanalysis-hg18:1:3799057|CNVanalysis-hg19:1:3809197
1|rs6658098|CNVanalysis-hg18:1:4626946|CNVanalysis-hg19:1:4727086
1|rs2843493|CNVanalysis-hg18:1:6106679|CNVanalysis-hg19:1:6184092
1|rs13513|CNVanalysis-hg18:1:6508391|CNVanalysis-hg19:1:6585804
1|cnv3p583|CNVanalysis-hg18:1:444511|CNVanalysis-hg19:1:454648
1|rs350165|CNVanalysis-hg18:1:4464544|CNVanalysis-hg19:1:4564684
1|rs4648390|CNVanalysis-hg18:1:2690232|CNVanalysis-hg19:1:2700372
1|rs7543711|CNVanalysis-hg18:1:7301785|CNVanalysis-hg19:1:7379198
1|cnv73p3|CNVanalysis-hg18:1:6186997|CNVanalysis-hg19:1:6264410
1|rs1295087|CNVanalysis-hg18:1:6022900|CNVanalysis-hg19:1:6100313
1|rs11260671|CNVanalysis-hg18:1:5639975|CNVanalysis-hg19:1:5717388
1|rs654483|CNVanalysis-hg18:1:2063411|CNVanalysis-hg19:1:2073551
1|rs423285|CNVanalysis-hg18:1:4730936|CNVanalysis-hg19:1:4831076
1|rs12062122|CNVanalysis-hg18:1:4113891|CNVanalysis-hg19:1:4214031
1|rs3820011|CNVanalysis-hg18:1:1878053|CNVanalysis-hg19:1:1888193
1|rs2025378|CNVanalysis-hg18:1:4791596|CNVanalysis-hg19:1:4891736
1|rs3795263|CNVanalysis-hg18:1:2928849|CNVanalysis-hg19:1:2938989
1|cnv3p12|CNVanalysis-hg18:1:311662|CNVanalysis-hg19:1:321799
1|rs7527078|CNVanalysis-hg18:1:4590753|CNVanalysis-hg19:1:4690893
1|rs11121611|CNVanalysis-hg18:1:6289806|CNVanalysis-hg19:1:6367219
1|rs6683156|CNVanalysis-hg18:1:3756301|CNVanalysis-hg19:1:3766441
1|rs4908591|CNVanalysis-hg18:1:7033097|CNVanalysis-hg19:1:7110510
1|rs3765736|CNVanalysis-hg18:1:3606461|CNVanalysis-hg19:1:3616601
1|rs12047764|CNVanalysis-hg18:1:4977412|CNVanalysis-hg19:1:5077552
2|rs12354060|CNVanalysis-hg18:1:10004|CNVanalysis-hg19:1:20141
2|cnvi0008317|CNVanalysis-hg18:1:3206359|CNVanalysis-hg19:1:3216499
2|rs2483286|CNVanalysis-hg18:1:3249229|CNVanalysis-hg19:1:3259369
2|cnvi0007390|CNVanalysis-hg18:1:444511|CNVanalysis-hg19:1:454648
2|rs6687776|CNVanalysis-hg18:1:1020428|CNVanalysis-hg19:1:1030565
2|rs947344|CNVanalysis-hg18:1:3413327|CNVanalysis-hg19:1:3423467
2|rs1181888|CNVanalysis-hg18:1:3661651|CNVanalysis-hg19:1:3671791
2|rs884080|CNVanalysis-hg18:1:2016609|CNVanalysis-hg19:1:2026749
2|cnvi0007392|CNVanalysis-hg18:1:328097|CNVanalysis-hg19:1:338234
2|rs2474460|CNVanalysis-hg18:1:1833906|CNVanalysis-hg19:1:1844046
2|rs4310388|CNVanalysis-hg18:1:2497275|CNVanalysis-hg19:1:2507415
2|cnvi0019141|CNVanalysis-hg18:1:373501|CNVanalysis-hg19:1:383638
2|rs2235176|CNVanalysis-hg18:1:3043966|CNVanalysis-hg19:1:3054106
2|rs2842909|CNVanalysis-hg18:1:2849584|CNVanalysis-hg19:1:2859724
2|rs10909852|CNVanalysis-hg18:1:2895465|CNVanalysis-hg19:1:2905605
2|rs6684917|CNVanalysis-hg18:1:3194136|CNVanalysis-hg19:1:3204276
2|rs12135062|CNVanalysis-hg18:1:3093172|CNVanalysis-hg19:1:3103312
2|rs12184279|CNVanalysis-hg18:1:707348|CNVanalysis-hg19:1:717485
2|rs8179466|CNVanalysis-hg18:1:224176|CNVanalysis-hg19:1:234313
2|rs12132422|CNVanalysis-hg18:1:4195164|CNVanalysis-hg19:1:4295304
2|rs3765770|CNVanalysis-hg18:1:3625841|CNVanalysis-hg19:1:3635981
2|rs10797430|CNVanalysis-hg18:1:2470197|CNVanalysis-hg19:1:2480337
2|rs3128291|CNVanalysis-hg18:1:2047883|CNVanalysis-hg19:1:2058023
2|rs2803310|CNVanalysis-hg18:1:2007157|CNVanalysis-hg19:1:2017297
2|rs7526311|CNVanalysis-hg18:1:2697298|CNVanalysis-hg19:1:2707438
2|rs7533362|CNVanalysis-hg18:1:2886595|CNVanalysis-hg19:1:2896735
2|rs6603793|CNVanalysis-hg18:1:1495118|CNVanalysis-hg19:1:1505255
2|rs1333189|CNVanalysis-hg18:1:3279831|CNVanalysis-hg19:1:3289971
2|rs28670388|CNVanalysis-hg18:1:1849418|CNVanalysis-hg19:1:1859558
2|rs903916|CNVanalysis-hg18:1:2221323|CNVanalysis-hg19:1:2231463
2|rs4648553|CNVanalysis-hg18:1:3638739|CNVanalysis-hg19:1:3648879
2|rs903914|CNVanalysis-hg18:1:2279181|CNVanalysis-hg19:1:2289321
2|cnvi0005640|CNVanalysis-hg18:1:1849509|CNVanalysis-hg19:1:1859649
2|rs2483266|CNVanalysis-hg18:1:3225901|CNVanalysis-hg19:1:3236041
2|rs2651899|CNVanalysis-hg18:1:3073572|CNVanalysis-hg19:1:3083712
2|rs897615|CNVanalysis-hg18:1:2776953|CNVanalysis-hg19:1:2787093
2|rs2493314|CNVanalysis-hg18:1:3390154|CNVanalysis-hg19:1:3400294
2|rs4654493|CNVanalysis-hg18:1:3916794|CNVanalysis-hg19:1:4016934
2|cnvi0020673|CNVanalysis-hg18:1:683645|CNVanalysis-hg19:1:693782
2|rs4648390|CNVanalysis-hg18:1:2690232|CNVanalysis-hg19:1:2700372
2|cnvi0007383|CNVanalysis-hg18:1:369088|CNVanalysis-hg19:1:379225
2|rs654483|CNVanalysis-hg18:1:2063411|CNVanalysis-hg19:1:2073551
2|rs12062122|CNVanalysis-hg18:1:4113891|CNVanalysis-hg19:1:4214031
2|rs3820011|CNVanalysis-hg18:1:1878053|CNVanalysis-hg19:1:1888193
2|rs3795263|CNVanalysis-hg18:1:2928849|CNVanalysis-hg19:1:2938989
2|cnvi0008691|CNVanalysis-hg18:1:3399617|CNVanalysis-hg19:1:3409757
2|cnvi0004955|CNVanalysis-hg18:1:1065697|CNVanalysis-hg19:1:1075834
2|cnvi0020678|CNVanalysis-hg18:1:617622|CNVanalysis-hg19:1:627759
2|rs6683156|CNVanalysis-hg18:1:3756301|CNVanalysis-hg19:1:3766441
2|rs3765736|CNVanalysis-hg18:1:3606461|CNVanalysis-hg19:1:3616601
2|cnvi0005318|CNVanalysis-hg18:1:1315540|CNVanalysis-hg19:1:1325677
2|rs6685801|CNVanalysis-hg18:1:3454311|CNVanalysis-hg19:1:3464451
2|rs10910078|CNVanalysis-hg18:1:2380448|CNVanalysis-hg19:1:2390588
2|rs7524470|CNVanalysis-hg18:1:1182378|CNVanalysis-hg19:1:1192515
2|cnvi0021553|CNVanalysis-hg18:1:346906|CNVanalysis-hg19:1:357043
2|rs2817178|CNVanalysis-hg18:1:3037112|CNVanalysis-hg19:1:3047252
2|rs9651273|CNVanalysis-hg18:1:1021403|CNVanalysis-hg19:1:1031540
2|rs2977656|CNVanalysis-hg18:1:719811|CNVanalysis-hg19:1:729948
2|cnvi0007379|CNVanalysis-hg18:1:311662|CNVanalysis-hg19:1:321799
2|cnvi0012193|CNVanalysis-hg18:1:797090|CNVanalysis-hg19:1:807227
2|rs10915448|CNVanalysis-hg18:1:4107385|CNVanalysis-hg19:1:4207525
2|rs12029736|CNVanalysis-hg18:1:696231|CNVanalysis-hg19:1:706368
2|rs3765731|CNVanalysis-hg18:1:3601752|CNVanalysis-hg19:1:3611892
2|cnvi0019140|CNVanalysis-hg18:1:314893|CNVanalysis-hg19:1:325030
2|rs3748816|CNVanalysis-hg18:1:2516606|CNVanalysis-hg19:1:2526746
2|rs12030066|CNVanalysis-hg18:1:3194003|CNVanalysis-hg19:1:3204143
2|rs1126625|CNVanalysis-hg18:1:939331|CNVanalysis-hg19:1:949468
2|rs3936238|CNVanalysis-hg18:1:4031586|CNVanalysis-hg19:1:4131726
2|rs2055204|CNVanalysis-hg18:1:2270521|CNVanalysis-hg19:1:2280661
2|rs7535528|CNVanalysis-hg18:1:2434274|CNVanalysis-hg19:1:2444414
2|rs1108600|CNVanalysis-hg18:1:3230995|CNVanalysis-hg19:1:3241135
2|rs1181877|CNVanalysis-hg18:1:3670589|CNVanalysis-hg19:1:3680729
2|rs4609397|CNVanalysis-hg18:1:4116722|CNVanalysis-hg19:1:4216862
2|rs908742|CNVanalysis-hg18:1:2023116|CNVanalysis-hg19:1:2033256
2|rs6603779|CNVanalysis-hg18:1:227744|CNVanalysis-hg19:1:237881
2|rs2799182|CNVanalysis-hg18:1:3685860|CNVanalysis-hg19:1:3696000
2|rs4512614|CNVanalysis-hg18:1:4193860|CNVanalysis-hg19:1:4294000
2|rs11585362|CNVanalysis-hg18:1:3418468|CNVanalysis-hg19:1:3428608
2|rs4648524|CNVanalysis-hg18:1:3446452|CNVanalysis-hg19:1:3456592
2|rs6690515|CNVanalysis-hg18:1:1437188|CNVanalysis-hg19:1:1447325
2|rs3753211|CNVanalysis-hg18:1:3622468|CNVanalysis-hg19:1:3632608
2|rs3765705|CNVanalysis-hg18:1:3586877|CNVanalysis-hg19:1:3597017
2|cnvi0004843|CNVanalysis-hg18:1:1033923|CNVanalysis-hg19:1:1044060
2|rs12726255|CNVanalysis-hg18:1:1039813|CNVanalysis-hg19:1:1049950
2|rs7535887|CNVanalysis-hg18:1:3746353|CNVanalysis-hg19:1:3756493
2|cnvi0020674|CNVanalysis-hg18:1:688908|CNVanalysis-hg19:1:699045
2|cnvi0020677|CNVanalysis-hg18:1:615226|CNVanalysis-hg19:1:625363
2|rs3737728|CNVanalysis-hg18:1:1011278|CNVanalysis-hg19:1:1021415
2|rs10909918|CNVanalysis-hg18:1:3198235|CNVanalysis-hg19:1:3208375
2|rs868688|CNVanalysis-hg18:1:3290667|CNVanalysis-hg19:1:3300807
2|rs4431782|CNVanalysis-hg18:1:3480967|CNVanalysis-hg19:1:3491107
2|rs601141|CNVanalysis-hg18:1:1617665|CNVanalysis-hg19:1:1627805
2|cnvi0008692|CNVanalysis-hg18:1:3399728|CNVanalysis-hg19:1:3409868
2|rs3737626|CNVanalysis-hg18:1:1712445|CNVanalysis-hg19:1:1722585
2|rs12089560|CNVanalysis-hg18:1:1346413|CNVanalysis-hg19:1:1356550
2|cnvi0004954|CNVanalysis-hg18:1:1064487|CNVanalysis-hg19:1:1074624
2|rs2477684|CNVanalysis-hg18:1:2490499|CNVanalysis-hg19:1:2500639
2|rs4648344|CNVanalysis-hg18:1:3732992|CNVanalysis-hg19:1:3743132
2|rs3748597|CNVanalysis-hg18:1:878522|CNVanalysis-hg19:1:888659
2|rs947354|CNVanalysis-hg18:1:3476986|CNVanalysis-hg19:1:3487126
3|rs385039|CNVanalysis-hg18:1:2067269|CNVanalysis-hg19:1:2077409
3|rs483344|CNVanalysis-hg18:1:4329322|CNVanalysis-hg19:1:4429462
3|rs4648426|CNVanalysis-hg18:1:3762949|CNVanalysis-hg19:1:3773089
3|rs1018306|CNVanalysis-hg18:1:4467025|CNVanalysis-hg19:1:4567165
3|rs938962|CNVanalysis-hg18:1:5183802|CNVanalysis-hg19:1:5283942
3|rs4648432|CNVanalysis-hg18:1:2829617|CNVanalysis-hg19:1:2839757
3|rs2171985|CNVanalysis-hg18:1:4281113|CNVanalysis-hg19:1:4381253
3|rs6687776|CNVanalysis-hg18:1:1020428|CNVanalysis-hg19:1:1030565
3|rs9426477|CNVanalysis-hg18:1:3923596|CNVanalysis-hg19:1:4023736
3|rs947344|CNVanalysis-hg18:1:3413327|CNVanalysis-hg19:1:3423467
3|rs6603841|CNVanalysis-hg18:1:5450046|CNVanalysis-hg19:1:5527459
3|rs182532|CNVanalysis-hg18:1:1276903|CNVanalysis-hg19:1:1287040
3|rs2898853|CNVanalysis-hg18:1:4892064|CNVanalysis-hg19:1:4992204
3|rs3795272|CNVanalysis-hg18:1:2274055|CNVanalysis-hg19:1:2284195
3|rs1181888|CNVanalysis-hg18:1:3661651|CNVanalysis-hg19:1:3671791
3|rs12401618|CNVanalysis-hg18:1:5100735|CNVanalysis-hg19:1:5200875
3|rs1765720|CNVanalysis-hg18:1:5827570|CNVanalysis-hg19:1:5904983
3|rs884080|CNVanalysis-hg18:1:2016609|CNVanalysis-hg19:1:2026749
3|rs10799237|CNVanalysis-hg18:1:4463867|CNVanalysis-hg19:1:4564007
3|rs12407501|CNVanalysis-hg18:1:4683560|CNVanalysis-hg19:1:4783700
3|rs13302925|CNVanalysis-hg18:1:893896|CNVanalysis-hg19:1:904033
3|rs1884454|CNVanalysis-hg18:1:1843148|CNVanalysis-hg19:1:1853288
3|rs4310388|CNVanalysis-hg18:1:2497275|CNVanalysis-hg19:1:2507415
3|rs6683849|CNVanalysis-hg18:1:4808761|CNVanalysis-hg19:1:4908901
3|rs12748433|CNVanalysis-hg18:1:1549834|CNVanalysis-hg19:1:1559971
3|rs2494607|CNVanalysis-hg18:1:2457624|CNVanalysis-hg19:1:2467764
3|rs35701577|CNVanalysis-hg18:1:3512421|CNVanalysis-hg19:1:3522561
3|rs4654454|CNVanalysis-hg18:1:4608022|CNVanalysis-hg19:1:4708162
3|rs10915406|CNVanalysis-hg18:1:5249476|CNVanalysis-hg19:1:5349616
3|rs34283457|CNVanalysis-hg18:1:3825649|CNVanalysis-hg19:1:3835789
3|rs12141954|CNVanalysis-hg18:1:5242155|CNVanalysis-hg19:1:5342295
3|rs12031275|CNVanalysis-hg18:1:3925928|CNVanalysis-hg19:1:4026068
3|rs1181867|CNVanalysis-hg18:1:3641178|CNVanalysis-hg19:1:3651318
3|rs6604983|CNVanalysis-hg18:1:1511458|CNVanalysis-hg19:1:1521595
3|rs4442317|CNVanalysis-hg18:1:1096647|CNVanalysis-hg19:1:1106784
3|rs2651935|CNVanalysis-hg18:1:3076356|CNVanalysis-hg19:1:3086496
3|rs28437090|CNVanalysis-hg18:1:1948882|CNVanalysis-hg19:1:1959022
3|rs2245754|CNVanalysis-hg18:1:982190|CNVanalysis-hg19:1:992327
3|rs2643902|CNVanalysis-hg18:1:2235299|CNVanalysis-hg19:1:2245439
3|rs10909946|CNVanalysis-hg18:1:3362331|CNVanalysis-hg19:1:3372471
3|rs7513053|CNVanalysis-hg18:1:3699347|CNVanalysis-hg19:1:3709487
3|rs12132422|CNVanalysis-hg18:1:4195164|CNVanalysis-hg19:1:4295304
3|rs7407|CNVanalysis-hg18:1:1674332|CNVanalysis-hg19:1:1684472
3|rs10797430|CNVanalysis-hg18:1:2470197|CNVanalysis-hg19:1:2480337
3|rs10915445|CNVanalysis-hg18:1:4097502|CNVanalysis-hg19:1:4197642
3|rs3128291|CNVanalysis-hg18:1:2047883|CNVanalysis-hg19:1:2058023
3|rs2477707|CNVanalysis-hg18:1:2420917|CNVanalysis-hg19:1:2431057
3|rs806111|CNVanalysis-hg18:1:5976217|CNVanalysis-hg19:1:6053630
3|rs2842258|CNVanalysis-hg18:1:5713085|CNVanalysis-hg19:1:5790498
3|rs34897702|CNVanalysis-hg18:1:2570406|CNVanalysis-hg19:1:2580546
3|rs17429690|CNVanalysis-hg18:1:5736722|CNVanalysis-hg19:1:5814135
3|rs6603793|CNVanalysis-hg18:1:1495118|CNVanalysis-hg19:1:1505255
3|rs6671356|CNVanalysis-hg18:1:1029889|CNVanalysis-hg19:1:1040026
3|rs10779685|CNVanalysis-hg18:1:5961841|CNVanalysis-hg19:1:6039254
3|rs880725|CNVanalysis-hg18:1:2814849|CNVanalysis-hg19:1:2824989
3|rs4534327|CNVanalysis-hg18:1:1279624|CNVanalysis-hg19:1:1289761
3|rs12562637|CNVanalysis-hg18:1:2914526|CNVanalysis-hg19:1:2924666
3|rs12073797|CNVanalysis-hg18:1:4065058|CNVanalysis-hg19:1:4165198
3|rs903919|CNVanalysis-hg18:1:2212443|CNVanalysis-hg19:1:2222583
3|rs4845793|CNVanalysis-hg18:1:5609502|CNVanalysis-hg19:1:5686915
3|rs35837871|CNVanalysis-hg18:1:4148323|CNVanalysis-hg19:1:4248463
3|rs2071990|CNVanalysis-hg18:1:4637918|CNVanalysis-hg19:1:4738058
3|rs4654455|CNVanalysis-hg18:1:4633215|CNVanalysis-hg19:1:4733355
3|rs9970652|CNVanalysis-hg18:1:1715486|CNVanalysis-hg19:1:1725626
3|rs10915509|CNVanalysis-hg18:1:4275719|CNVanalysis-hg19:1:4375859
3|rs12731060|CNVanalysis-hg18:1:4400296|CNVanalysis-hg19:1:4500436
3|rs12083678|CNVanalysis-hg18:1:5943579|CNVanalysis-hg19:1:6020992
3|rs12119470|CNVanalysis-hg18:1:2207960|CNVanalysis-hg19:1:2218100
3|rs10907178|CNVanalysis-hg18:1:1011446|CNVanalysis-hg19:1:1021583
3|rs903914|CNVanalysis-hg18:1:2279181|CNVanalysis-hg19:1:2289321
3|rs16823228|CNVanalysis-hg18:1:2843619|CNVanalysis-hg19:1:2853759
3|rs9439587|CNVanalysis-hg18:1:5602395|CNVanalysis-hg19:1:5679808
3|rs12401883|CNVanalysis-hg18:1:5880188|CNVanalysis-hg19:1:5957601
3|rs1014988|CNVanalysis-hg18:1:1670079|CNVanalysis-hg19:1:1680219
3|rs16824508|CNVanalysis-hg18:1:1789051|CNVanalysis-hg19:1:1799191
3|rs2483266|CNVanalysis-hg18:1:3225901|CNVanalysis-hg19:1:3236041
3|rs2334259|CNVanalysis-hg18:1:4981880|CNVanalysis-hg19:1:5082020
3|rs12030717|CNVanalysis-hg18:1:5471705|CNVanalysis-hg19:1:5549118
3|rs35799953|CNVanalysis-hg18:1:2343729|CNVanalysis-hg19:1:2353869
3|rs17375504|CNVanalysis-hg18:1:5151429|CNVanalysis-hg19:1:5251569
3|rs11576617|CNVanalysis-hg18:1:5916446|CNVanalysis-hg19:1:5993859
3|rs16838750|CNVanalysis-hg18:1:4304204|CNVanalysis-hg19:1:4404344
3|rs9439440|CNVanalysis-hg18:1:1441632|CNVanalysis-hg19:1:1451769
3|rs904534|CNVanalysis-hg18:1:5700044|CNVanalysis-hg19:1:5777457
3|rs17359262|CNVanalysis-hg18:1:1742429|CNVanalysis-hg19:1:1752569
3|rs12119213|CNVanalysis-hg18:1:4377482|CNVanalysis-hg19:1:4477622
3|rs12083573|CNVanalysis-hg18:1:5090026|CNVanalysis-hg19:1:5190166
3|rs10157140|CNVanalysis-hg18:1:1516946|CNVanalysis-hg19:1:1527083
3|rs12047741|CNVanalysis-hg18:1:3373146|CNVanalysis-hg19:1:3383286
3|rs10799236|CNVanalysis-hg18:1:3952816|CNVanalysis-hg19:1:4052956
3|rs35393477|CNVanalysis-hg18:1:5574812|CNVanalysis-hg19:1:5652225
3|rs349401|CNVanalysis-hg18:1:4363445|CNVanalysis-hg19:1:4463585
3|rs12079601|CNVanalysis-hg18:1:5865334|CNVanalysis-hg19:1:5942747
3|rs10799220|CNVanalysis-hg18:1:4222962|CNVanalysis-hg19:1:4323102
3|rs12029673|CNVanalysis-hg18:1:4583950|CNVanalysis-hg19:1:4684090
3|rs12077700|CNVanalysis-hg18:1:1209638|CNVanalysis-hg19:1:1219775
3|rs13303077|CNVanalysis-hg18:1:806480|CNVanalysis-hg19:1:816617
3|rs2651927|CNVanalysis-hg18:1:3091622|CNVanalysis-hg19:1:3101762
3|rs3820252|CNVanalysis-hg18:1:4684416|CNVanalysis-hg19:1:4784556
3|rs1295087|CNVanalysis-hg18:1:6022900|CNVanalysis-hg19:1:6100313
4|rs385039|CNVanalysis-hg18:1:2067269|CNVanalysis-hg19:1:2077409
4|rs483344|CNVanalysis-hg18:1:4329322|CNVanalysis-hg19:1:4429462
4|rs4648426|CNVanalysis-hg18:1:3762949|CNVanalysis-hg19:1:3773089
4|rs1018306|CNVanalysis-hg18:1:4467025|CNVanalysis-hg19:1:4567165
4|rs938962|CNVanalysis-hg18:1:5183802|CNVanalysis-hg19:1:5283942
4|rs4648432|CNVanalysis-hg18:1:2829617|CNVanalysis-hg19:1:2839757
4|rs2171985|CNVanalysis-hg18:1:4281113|CNVanalysis-hg19:1:4381253
4|rs6687776|CNVanalysis-hg18:1:1020428|CNVanalysis-hg19:1:1030565
4|rs9426477|CNVanalysis-hg18:1:3923596|CNVanalysis-hg19:1:4023736
4|rs947344|CNVanalysis-hg18:1:3413327|CNVanalysis-hg19:1:3423467
4|rs6603841|CNVanalysis-hg18:1:5450046|CNVanalysis-hg19:1:5527459
4|rs182532|CNVanalysis-hg18:1:1276903|CNVanalysis-hg19:1:1287040
4|rs2898853|CNVanalysis-hg18:1:4892064|CNVanalysis-hg19:1:4992204
4|rs3795272|CNVanalysis-hg18:1:2274055|CNVanalysis-hg19:1:2284195
4|rs1181888|CNVanalysis-hg18:1:3661651|CNVanalysis-hg19:1:3671791
4|rs12401618|CNVanalysis-hg18:1:5100735|CNVanalysis-hg19:1:5200875
4|rs1765720|CNVanalysis-hg18:1:5827570|CNVanalysis-hg19:1:5904983
4|rs884080|CNVanalysis-hg18:1:2016609|CNVanalysis-hg19:1:2026749
4|rs10799237|CNVanalysis-hg18:1:4463867|CNVanalysis-hg19:1:4564007
4|rs12407501|CNVanalysis-hg18:1:4683560|CNVanalysis-hg19:1:4783700
4|rs13302925|CNVanalysis-hg18:1:893896|CNVanalysis-hg19:1:904033
4|rs1884454|CNVanalysis-hg18:1:1843148|CNVanalysis-hg19:1:1853288
4|rs4310388|CNVanalysis-hg18:1:2497275|CNVanalysis-hg19:1:2507415
4|rs6683849|CNVanalysis-hg18:1:4808761|CNVanalysis-hg19:1:4908901
4|rs12748433|CNVanalysis-hg18:1:1549834|CNVanalysis-hg19:1:1559971
4|rs2494607|CNVanalysis-hg18:1:2457624|CNVanalysis-hg19:1:2467764
4|rs35701577|CNVanalysis-hg18:1:3512421|CNVanalysis-hg19:1:3522561
4|rs4654454|CNVanalysis-hg18:1:4608022|CNVanalysis-hg19:1:4708162
4|rs10915406|CNVanalysis-hg18:1:5249476|CNVanalysis-hg19:1:5349616
4|rs34283457|CNVanalysis-hg18:1:3825649|CNVanalysis-hg19:1:3835789
4|rs12141954|CNVanalysis-hg18:1:5242155|CNVanalysis-hg19:1:5342295
4|rs12031275|CNVanalysis-hg18:1:3925928|CNVanalysis-hg19:1:4026068
4|rs1181867|CNVanalysis-hg18:1:3641178|CNVanalysis-hg19:1:3651318
4|rs6604983|CNVanalysis-hg18:1:1511458|CNVanalysis-hg19:1:1521595
4|rs4442317|CNVanalysis-hg18:1:1096647|CNVanalysis-hg19:1:1106784
4|rs2651935|CNVanalysis-hg18:1:3076356|CNVanalysis-hg19:1:3086496
4|rs28437090|CNVanalysis-hg18:1:1948882|CNVanalysis-hg19:1:1959022
4|rs2245754|CNVanalysis-hg18:1:982190|CNVanalysis-hg19:1:992327
4|rs2643902|CNVanalysis-hg18:1:2235299|CNVanalysis-hg19:1:2245439
4|rs10909946|CNVanalysis-hg18:1:3362331|CNVanalysis-hg19:1:3372471
4|rs7513053|CNVanalysis-hg18:1:3699347|CNVanalysis-hg19:1:3709487
4|rs12132422|CNVanalysis-hg18:1:4195164|CNVanalysis-hg19:1:4295304
4|rs7407|CNVanalysis-hg18:1:1674332|CNVanalysis-hg19:1:1684472
4|rs10797430|CNVanalysis-hg18:1:2470197|CNVanalysis-hg19:1:2480337
4|rs10915445|CNVanalysis-hg18:1:4097502|CNVanalysis-hg19:1:4197642
4|rs3128291|CNVanalysis-hg18:1:2047883|CNVanalysis-hg19:1:2058023
4|rs2477707|CNVanalysis-hg18:1:2420917|CNVanalysis-hg19:1:2431057
4|rs806111|CNVanalysis-hg18:1:5976217|CNVanalysis-hg19:1:6053630
4|rs2842258|CNVanalysis-hg18:1:5713085|CNVanalysis-hg19:1:5790498
4|rs34897702|CNVanalysis-hg18:1:2570406|CNVanalysis-hg19:1:2580546
4|rs17429690|CNVanalysis-hg18:1:5736722|CNVanalysis-hg19:1:5814135
4|rs6603793|CNVanalysis-hg18:1:1495118|CNVanalysis-hg19:1:1505255
4|rs6671356|CNVanalysis-hg18:1:1029889|CNVanalysis-hg19:1:1040026
4|rs10779685|CNVanalysis-hg18:1:5961841|CNVanalysis-hg19:1:6039254
4|rs880725|CNVanalysis-hg18:1:2814849|CNVanalysis-hg19:1:2824989
4|rs4534327|CNVanalysis-hg18:1:1279624|CNVanalysis-hg19:1:1289761
4|rs12562637|CNVanalysis-hg18:1:2914526|CNVanalysis-hg19:1:2924666
4|rs12073797|CNVanalysis-hg18:1:4065058|CNVanalysis-hg19:1:4165198
4|rs903919|CNVanalysis-hg18:1:2212443|CNVanalysis-hg19:1:2222583
4|rs4845793|CNVanalysis-hg18:1:5609502|CNVanalysis-hg19:1:5686915
4|rs35837871|CNVanalysis-hg18:1:4148323|CNVanalysis-hg19:1:4248463
4|rs2071990|CNVanalysis-hg18:1:4637918|CNVanalysis-hg19:1:4738058
4|rs4654455|CNVanalysis-hg18:1:4633215|CNVanalysis-hg19:1:4733355
4|rs9970652|CNVanalysis-hg18:1:1715486|CNVanalysis-hg19:1:1725626
4|rs10915509|CNVanalysis-hg18:1:4275719|CNVanalysis-hg19:1:4375859
4|rs12731060|CNVanalysis-hg18:1:4400296|CNVanalysis-hg19:1:4500436
4|rs12083678|CNVanalysis-hg18:1:5943579|CNVanalysis-hg19:1:6020992
4|rs12119470|CNVanalysis-hg18:1:2207960|CNVanalysis-hg19:1:2218100
4|rs10907178|CNVanalysis-hg18:1:1011446|CNVanalysis-hg19:1:1021583
4|rs903914|CNVanalysis-hg18:1:2279181|CNVanalysis-hg19:1:2289321
4|rs16823228|CNVanalysis-hg18:1:2843619|CNVanalysis-hg19:1:2853759
4|rs9439587|CNVanalysis-hg18:1:5602395|CNVanalysis-hg19:1:5679808
4|rs12401883|CNVanalysis-hg18:1:5880188|CNVanalysis-hg19:1:5957601
4|rs1014988|CNVanalysis-hg18:1:1670079|CNVanalysis-hg19:1:1680219
4|rs16824508|CNVanalysis-hg18:1:1789051|CNVanalysis-hg19:1:1799191
4|rs2483266|CNVanalysis-hg18:1:3225901|CNVanalysis-hg19:1:3236041
4|rs2334259|CNVanalysis-hg18:1:4981880|CNVanalysis-hg19:1:5082020
4|rs12030717|CNVanalysis-hg18:1:5471705|CNVanalysis-hg19:1:5549118
4|rs35799953|CNVanalysis-hg18:1:2343729|CNVanalysis-hg19:1:2353869
4|rs17375504|CNVanalysis-hg18:1:5151429|CNVanalysis-hg19:1:5251569
4|rs11576617|CNVanalysis-hg18:1:5916446|CNVanalysis-hg19:1:5993859
4|rs16838750|CNVanalysis-hg18:1:4304204|CNVanalysis-hg19:1:4404344
4|rs9439440|CNVanalysis-hg18:1:1441632|CNVanalysis-hg19:1:1451769
4|rs904534|CNVanalysis-hg18:1:5700044|CNVanalysis-hg19:1:5777457
4|rs17359262|CNVanalysis-hg18:1:1742429|CNVanalysis-hg19:1:1752569
4|rs12119213|CNVanalysis-hg18:1:4377482|CNVanalysis-hg19:1:4477622
4|rs12083573|CNVanalysis-hg18:1:5090026|CNVanalysis-hg19:1:5190166
4|rs10157140|CNVanalysis-hg18:1:1516946|CNVanalysis-hg19:1:1527083
4|rs12047741|CNVanalysis-hg18:1:3373146|CNVanalysis-hg19:1:3383286
4|rs10799236|CNVanalysis-hg18:1:3952816|CNVanalysis-hg19:1:4052956
4|rs35393477|CNVanalysis-hg18:1:5574812|CNVanalysis-hg19:1:5652225
4|rs349401|CNVanalysis-hg18:1:4363445|CNVanalysis-hg19:1:4463585
4|rs12079601|CNVanalysis-hg18:1:5865334|CNVanalysis-hg19:1:5942747
4|rs11485227|CNVanalysis-hg18:1:6396595|CNVanalysis-hg19:1:6474008
4|rs10799220|CNVanalysis-hg18:1:4222962|CNVanalysis-hg19:1:4323102
4|rs12029673|CNVanalysis-hg18:1:4583950|CNVanalysis-hg19:1:4684090
4|rs12077700|CNVanalysis-hg18:1:1209638|CNVanalysis-hg19:1:1219775
4|rs13303077|CNVanalysis-hg18:1:806480|CNVanalysis-hg19:1:816617
4|rs2651927|CNVanalysis-hg18:1:3091622|CNVanalysis-hg19:1:3101762
4|rs3820252|CNVanalysis-hg18:1:4684416|CNVanalysis-hg19:1:4784556
10|rs385039|CNVanalysis-hg18:1:2067269|CNVanalysis-hg19:1:2077409
10|rs483344|CNVanalysis-hg18:1:4329322|CNVanalysis-hg19:1:4429462
10|rs4648426|CNVanalysis-hg18:1:3762949|CNVanalysis-hg19:1:3773089
10|rs1018306|CNVanalysis-hg18:1:4467025|CNVanalysis-hg19:1:4567165
10|rs938962|CNVanalysis-hg18:1:5183802|CNVanalysis-hg19:1:5283942
10|cnvi23177621|CNVanalysis-hg18:1:1267300|CNVanalysis-hg19:1:1277437
10|rs4648432|CNVanalysis-hg18:1:2829617|CNVanalysis-hg19:1:2839757
10|rs2171985|CNVanalysis-hg18:1:4281113|CNVanalysis-hg19:1:4381253
10|rs6687776|CNVanalysis-hg18:1:1020428|CNVanalysis-hg19:1:1030565
10|rs9426477|CNVanalysis-hg18:1:3923596|CNVanalysis-hg19:1:4023736
10|rs947344|CNVanalysis-hg18:1:3413327|CNVanalysis-hg19:1:3423467
10|rs6603841|CNVanalysis-hg18:1:5450046|CNVanalysis-hg19:1:5527459
10|rs182532|CNVanalysis-hg18:1:1276903|CNVanalysis-hg19:1:1287040
10|rs2898853|CNVanalysis-hg18:1:4892064|CNVanalysis-hg19:1:4992204
10|rs3795272|CNVanalysis-hg18:1:2274055|CNVanalysis-hg19:1:2284195
10|rs1181888|CNVanalysis-hg18:1:3661651|CNVanalysis-hg19:1:3671791
10|rs12401618|CNVanalysis-hg18:1:5100735|CNVanalysis-hg19:1:5200875
10|rs1765720|CNVanalysis-hg18:1:5827570|CNVanalysis-hg19:1:5904983
10|rs884080|CNVanalysis-hg18:1:2016609|CNVanalysis-hg19:1:2026749
10|rs10799237|CNVanalysis-hg18:1:4463867|CNVanalysis-hg19:1:4564007
10|rs12407501|CNVanalysis-hg18:1:4683560|CNVanalysis-hg19:1:4783700
10|rs13302925|CNVanalysis-hg18:1:893896|CNVanalysis-hg19:1:904033
10|rs1884454|CNVanalysis-hg18:1:1843148|CNVanalysis-hg19:1:1853288
10|rs4310388|CNVanalysis-hg18:1:2497275|CNVanalysis-hg19:1:2507415
10|rs6683849|CNVanalysis-hg18:1:4808761|CNVanalysis-hg19:1:4908901
10|rs12748433|CNVanalysis-hg18:1:1549834|CNVanalysis-hg19:1:1559971
10|rs2494607|CNVanalysis-hg18:1:2457624|CNVanalysis-hg19:1:2467764
10|rs35701577|CNVanalysis-hg18:1:3512421|CNVanalysis-hg19:1:3522561
10|rs4654454|CNVanalysis-hg18:1:4608022|CNVanalysis-hg19:1:4708162
10|rs10915406|CNVanalysis-hg18:1:5249476|CNVanalysis-hg19:1:5349616
10|rs34283457|CNVanalysis-hg18:1:3825649|CNVanalysis-hg19:1:3835789
10|rs12141954|CNVanalysis-hg18:1:5242155|CNVanalysis-hg19:1:5342295
10|rs12031275|CNVanalysis-hg18:1:3925928|CNVanalysis-hg19:1:4026068
10|rs1181867|CNVanalysis-hg18:1:3641178|CNVanalysis-hg19:1:3651318
10|rs6604983|CNVanalysis-hg18:1:1511458|CNVanalysis-hg19:1:1521595
10|rs4442317|CNVanalysis-hg18:1:1096647|CNVanalysis-hg19:1:1106784
10|rs2651935|CNVanalysis-hg18:1:3076356|CNVanalysis-hg19:1:3086496
10|rs28437090|CNVanalysis-hg18:1:1948882|CNVanalysis-hg19:1:1959022
10|rs2245754|CNVanalysis-hg18:1:982190|CNVanalysis-hg19:1:992327
10|rs2643902|CNVanalysis-hg18:1:2235299|CNVanalysis-hg19:1:2245439
10|rs10909946|CNVanalysis-hg18:1:3362331|CNVanalysis-hg19:1:3372471
10|rs3855955|CNVanalysis-hg18:1:1265940|CNVanalysis-hg19:1:1276077
10|rs7513053|CNVanalysis-hg18:1:3699347|CNVanalysis-hg19:1:3709487
10|rs12132422|CNVanalysis-hg18:1:4195164|CNVanalysis-hg19:1:4295304
10|cnvi23177506|CNVanalysis-hg18:1:1261550|CNVanalysis-hg19:1:1271687
10|rs7407|CNVanalysis-hg18:1:1674332|CNVanalysis-hg19:1:1684472
10|rs10797430|CNVanalysis-hg18:1:2470197|CNVanalysis-hg19:1:2480337
10|rs10915445|CNVanalysis-hg18:1:4097502|CNVanalysis-hg19:1:4197642
10|rs3128291|CNVanalysis-hg18:1:2047883|CNVanalysis-hg19:1:2058023
10|rs2477707|CNVanalysis-hg18:1:2420917|CNVanalysis-hg19:1:2431057
10|rs806111|CNVanalysis-hg18:1:5976217|CNVanalysis-hg19:1:6053630
10|rs2842258|CNVanalysis-hg18:1:5713085|CNVanalysis-hg19:1:5790498
10|rs34897702|CNVanalysis-hg18:1:2570406|CNVanalysis-hg19:1:2580546
10|rs17429690|CNVanalysis-hg18:1:5736722|CNVanalysis-hg19:1:5814135
10|rs6603793|CNVanalysis-hg18:1:1495118|CNVanalysis-hg19:1:1505255
10|rs6671356|CNVanalysis-hg18:1:1029889|CNVanalysis-hg19:1:1040026
10|rs10779685|CNVanalysis-hg18:1:5961841|CNVanalysis-hg19:1:6039254
10|rs880725|CNVanalysis-hg18:1:2814849|CNVanalysis-hg19:1:2824989
10|rs4534327|CNVanalysis-hg18:1:1279624|CNVanalysis-hg19:1:1289761
10|rs12562637|CNVanalysis-hg18:1:2914526|CNVanalysis-hg19:1:2924666
10|rs12073797|CNVanalysis-hg18:1:4065058|CNVanalysis-hg19:1:4165198
10|rs903919|CNVanalysis-hg18:1:2212443|CNVanalysis-hg19:1:2222583
10|rs4845793|CNVanalysis-hg18:1:5609502|CNVanalysis-hg19:1:5686915
10|rs35837871|CNVanalysis-hg18:1:4148323|CNVanalysis-hg19:1:4248463
10|rs4654455|CNVanalysis-hg18:1:4633215|CNVanalysis-hg19:1:4733355
10|rs2071990|CNVanalysis-hg18:1:4637918|CNVanalysis-hg19:1:4738058
10|rs9970652|CNVanalysis-hg18:1:1715486|CNVanalysis-hg19:1:1725626
10|rs10915509|CNVanalysis-hg18:1:4275719|CNVanalysis-hg19:1:4375859
10|rs12731060|CNVanalysis-hg18:1:4400296|CNVanalysis-hg19:1:4500436
10|rs12119470|CNVanalysis-hg18:1:2207960|CNVanalysis-hg19:1:2218100
10|rs10907178|CNVanalysis-hg18:1:1011446|CNVanalysis-hg19:1:1021583
10|rs903914|CNVanalysis-hg18:1:2279181|CNVanalysis-hg19:1:2289321
10|rs16823228|CNVanalysis-hg18:1:2843619|CNVanalysis-hg19:1:2853759
10|rs9439587|CNVanalysis-hg18:1:5602395|CNVanalysis-hg19:1:5679808
10|rs12401883|CNVanalysis-hg18:1:5880188|CNVanalysis-hg19:1:5957601
10|rs1014988|CNVanalysis-hg18:1:1670079|CNVanalysis-hg19:1:1680219
10|rs16824508|CNVanalysis-hg18:1:1789051|CNVanalysis-hg19:1:1799191
10|rs2483266|CNVanalysis-hg18:1:3225901|CNVanalysis-hg19:1:3236041
10|rs2334259|CNVanalysis-hg18:1:4981880|CNVanalysis-hg19:1:5082020
10|rs12030717|CNVanalysis-hg18:1:5471705|CNVanalysis-hg19:1:5549118
10|rs35799953|CNVanalysis-hg18:1:2343729|CNVanalysis-hg19:1:2353869
10|rs17375504|CNVanalysis-hg18:1:5151429|CNVanalysis-hg19:1:5251569
10|rs11576617|CNVanalysis-hg18:1:5916446|CNVanalysis-hg19:1:5993859
10|rs16838750|CNVanalysis-hg18:1:4304204|CNVanalysis-hg19:1:4404344
10|rs9439440|CNVanalysis-hg18:1:1441632|CNVanalysis-hg19:1:1451769
10|rs904534|CNVanalysis-hg18:1:5700044|CNVanalysis-hg19:1:5777457
10|rs17359262|CNVanalysis-hg18:1:1742429|CNVanalysis-hg19:1:1752569
10|rs12119213|CNVanalysis-hg18:1:4377482|CNVanalysis-hg19:1:4477622
10|rs12083573|CNVanalysis-hg18:1:5090026|CNVanalysis-hg19:1:5190166
10|rs10157140|CNVanalysis-hg18:1:1516946|CNVanalysis-hg19:1:1527083
10|rs12047741|CNVanalysis-hg18:1:3373146|CNVanalysis-hg19:1:3383286
10|rs10799236|CNVanalysis-hg18:1:3952816|CNVanalysis-hg19:1:4052956
10|rs35393477|CNVanalysis-hg18:1:5574812|CNVanalysis-hg19:1:5652225
10|rs349401|CNVanalysis-hg18:1:4363445|CNVanalysis-hg19:1:4463585
10|rs12079601|CNVanalysis-hg18:1:5865334|CNVanalysis-hg19:1:5942747
10|rs10799220|CNVanalysis-hg18:1:4222962|CNVanalysis-hg19:1:4323102
10|rs12029673|CNVanalysis-hg18:1:4583950|CNVanalysis-hg19:1:4684090
10|rs12077700|CNVanalysis-hg18:1:1209638|CNVanalysis-hg19:1:1219775
10|rs13303077|CNVanalysis-hg18:1:806480|CNVanalysis-hg19:1:816617
10|rs2651927|CNVanalysis-hg18:1:3091622|CNVanalysis-hg19:1:3101762
9|cnvi0072661|CNVanalysis-hg18:1:127537|CNVanalysis-hg19:1:137674
9|rs2691311|CNVanalysis-hg18:1:46896|CNVanalysis-hg19:1:57033
9|cnvi0007392|CNVanalysis-hg18:1:328097|CNVanalysis-hg19:1:338234
9|cnvi0087122|CNVanalysis-hg18:1:383544|CNVanalysis-hg19:1:393681
9|cnvi0072652|CNVanalysis-hg18:1:126806|CNVanalysis-hg19:1:136943
9|rs8179466|CNVanalysis-hg18:1:224176|CNVanalysis-hg19:1:234313
9|cnvi0077475|CNVanalysis-hg18:1:402270|CNVanalysis-hg19:1:412407
9|cnvi0121626|CNVanalysis-hg18:1:438252|CNVanalysis-hg19:1:448389
9|cnvi0146631|CNVanalysis-hg18:1:223076|CNVanalysis-hg19:1:233213
9|cnvi0132486|CNVanalysis-hg18:1:458786|CNVanalysis-hg19:1:468923
9|cnvi0060955|CNVanalysis-hg18:1:416075|CNVanalysis-hg19:1:426212
9|cnvi0146632|CNVanalysis-hg18:1:361738|CNVanalysis-hg19:1:371875
9|cnvi0117867|CNVanalysis-hg18:1:315108|CNVanalysis-hg19:1:325245
9|cnvi0130255|CNVanalysis-hg18:1:316869|CNVanalysis-hg19:1:327006
9|cnvi0007383|CNVanalysis-hg18:1:369088|CNVanalysis-hg19:1:379225
9|cnvi0087838|CNVanalysis-hg18:1:439499|CNVanalysis-hg19:1:449636
9|cnvi0147298|CNVanalysis-hg18:1:88085|CNVanalysis-hg19:1:98222
9|cnvi0146180|CNVanalysis-hg18:1:319735|CNVanalysis-hg19:1:329872
9|cnvi0140989|CNVanalysis-hg18:1:433278|CNVanalysis-hg19:1:443415
9|cnvi0123129|CNVanalysis-hg18:1:78321|CNVanalysis-hg19:1:88458
9|cnvi0146177|CNVanalysis-hg18:1:317206|CNVanalysis-hg19:1:327343
9|cnvi0146911|CNVanalysis-hg18:1:426078|CNVanalysis-hg19:1:436215
9|cnvi0126042|CNVanalysis-hg18:1:316713|CNVanalysis-hg19:1:326850
9|cnvi0129962|CNVanalysis-hg18:1:308854|CNVanalysis-hg19:1:318991
9|cnvi0134627|CNVanalysis-hg18:1:451369|CNVanalysis-hg19:1:461506
9|cnvi0087839|CNVanalysis-hg18:1:439552|CNVanalysis-hg19:1:449689
9|cnvi0007379|CNVanalysis-hg18:1:311662|CNVanalysis-hg19:1:321799
9|cnvi0087843|CNVanalysis-hg18:1:439918|CNVanalysis-hg19:1:450055
9|cnvi0147458|CNVanalysis-hg18:1:456859|CNVanalysis-hg19:1:466996
9|cnvi0123892|CNVanalysis-hg18:1:452081|CNVanalysis-hg19:1:462218
9|rs6603779|CNVanalysis-hg18:1:227744|CNVanalysis-hg19:1:237881
9|cnvi0147451|CNVanalysis-hg18:1:55314|CNVanalysis-hg19:1:65451
9|rs6702460|CNVanalysis-hg18:1:81399|CNVanalysis-hg19:1:91536
9|rs6680825|CNVanalysis-hg18:1:81335|CNVanalysis-hg19:1:91472
9|rs3878915|CNVanalysis-hg18:1:70249|CNVanalysis-hg19:1:80386
9|cnvi0087841|CNVanalysis-hg18:1:439758|CNVanalysis-hg19:1:449895
9|cnvi0090881|CNVanalysis-hg18:1:257376|CNVanalysis-hg19:1:267513
9|cnvi0140988|CNVanalysis-hg18:1:431278|CNVanalysis-hg19:1:441415
9|cnvi0090873|CNVanalysis-hg18:1:239615|CNVanalysis-hg19:1:249752
9|cnvi0139364|CNVanalysis-hg18:1:314958|CNVanalysis-hg19:1:325095
9|cnvi0007385|CNVanalysis-hg18:1:401117|CNVanalysis-hg19:1:411254
9|cnvi0146132|CNVanalysis-hg18:1:456269|CNVanalysis-hg19:1:466406
9|cnvi0087125|CNVanalysis-hg18:1:391554|CNVanalysis-hg19:1:401691
9|rs4477212|CNVanalysis-hg18:1:72017|CNVanalysis-hg19:1:82154
9|cnvi0121318|CNVanalysis-hg18:1:77801|CNVanalysis-hg19:1:87938
9|cnvi0147309|CNVanalysis-hg18:1:402787|CNVanalysis-hg19:1:412924
9|cnvi0077468|CNVanalysis-hg18:1:397309|CNVanalysis-hg19:1:407446
9|cnvi0111254|CNVanalysis-hg18:1:438072|CNVanalysis-hg19:1:448209
9|rs4096712|CNVanalysis-hg18:1:98156|CNVanalysis-hg19:1:108293
9|cnvi0146900|CNVanalysis-hg18:1:400387|CNVanalysis-hg19:1:410524
9|cnvi0146646|CNVanalysis-hg18:1:96085|CNVanalysis-hg19:1:106222
9|cnvi0146654|CNVanalysis-hg18:1:37714|CNVanalysis-hg19:1:47851
9|cnvi0147528|CNVanalysis-hg18:1:455089|CNVanalysis-hg19:1:465226
9|cnvi0072653|CNVanalysis-hg18:1:126912|CNVanalysis-hg19:1:137049
9|cnvi0122509|CNVanalysis-hg18:1:316401|CNVanalysis-hg19:1:326538
9|cnvi0133105|CNVanalysis-hg18:1:316193|CNVanalysis-hg19:1:326330
9|cnvi0135911|CNVanalysis-hg18:1:80763|CNVanalysis-hg19:1:90900
9|cnvi0132854|CNVanalysis-hg18:1:459982|CNVanalysis-hg19:1:470119
9|cnvi0007393|CNVanalysis-hg18:1:389687|CNVanalysis-hg19:1:399824
9|cnvi0135437|CNVanalysis-hg18:1:459878|CNVanalysis-hg19:1:470015
9|cnvi0146645|CNVanalysis-hg18:1:106085|CNVanalysis-hg19:1:116222
9|cnvi0126972|CNVanalysis-hg18:1:77541|CNVanalysis-hg19:1:87678
9|cnvi0094412|CNVanalysis-hg18:1:323733|CNVanalysis-hg19:1:333870
9|cnvi0147539|CNVanalysis-hg18:1:421278|CNVanalysis-hg19:1:431415
9|cnvi0072645|CNVanalysis-hg18:1:126116|CNVanalysis-hg19:1:136253
9|cnvi0007391|CNVanalysis-hg18:1:456464|CNVanalysis-hg19:1:466601
9|cnvi0159124|CNVanalysis-hg18:1:45201|CNVanalysis-hg19:1:55338
9|cnvi0146634|CNVanalysis-hg18:1:368938|CNVanalysis-hg19:1:379075
9|cnvi0147387|CNVanalysis-hg18:1:451844|CNVanalysis-hg19:1:461981
9|cnvi0090877|CNVanalysis-hg18:1:248753|CNVanalysis-hg19:1:258890
9|cnvi0077477|CNVanalysis-hg18:1:403741|CNVanalysis-hg19:1:413878
9|cnvi0007387|CNVanalysis-hg18:1:428408|CNVanalysis-hg19:1:438545
9|cnvi0072647|CNVanalysis-hg18:1:126326|CNVanalysis-hg19:1:136463
9|cnvi0087840|CNVanalysis-hg18:1:439654|CNVanalysis-hg19:1:449791
9|cnvi0087126|CNVanalysis-hg18:1:393881|CNVanalysis-hg19:1:404018
9|cnvi0139372|CNVanalysis-hg18:1:319454|CNVanalysis-hg19:1:329591
9|cnvi0153535|CNVanalysis-hg18:1:140451|CNVanalysis-hg19:1:150588
9|rs28375825|CNVanalysis-hg18:1:56724|CNVanalysis-hg19:1:66861
9|cnvi0135938|CNVanalysis-hg18:1:459566|CNVanalysis-hg19:1:469703
9|cnvi0151530|CNVanalysis-hg18:1:41801|CNVanalysis-hg19:1:51938
9|cnvi0132916|CNVanalysis-hg18:1:81330|CNVanalysis-hg19:1:91467
9|cnvi0147530|CNVanalysis-hg18:1:103285|CNVanalysis-hg19:1:113422
9|cnvi0072655|CNVanalysis-hg18:1:127043|CNVanalysis-hg19:1:137180
9|cnvi0130349|CNVanalysis-hg18:1:459618|CNVanalysis-hg19:1:469755
9|cnvi0147523|CNVanalysis-hg18:1:90485|CNVanalysis-hg19:1:100622
9|cnvi0147303|CNVanalysis-hg18:1:398387|CNVanalysis-hg19:1:408524
9|cnvi0146627|CNVanalysis-hg18:1:218168|CNVanalysis-hg19:1:228305
9|cnvi0072659|CNVanalysis-hg18:1:127419|CNVanalysis-hg19:1:137556
9|cnvi0158801|CNVanalysis-hg18:1:81401|CNVanalysis-hg19:1:91538
9|cnvi0087834|CNVanalysis-hg18:1:439179|CNVanalysis-hg19:1:449316
9|cnvi0146908|CNVanalysis-hg18:1:429278|CNVanalysis-hg19:1:439415
9|cnvi0060967|CNVanalysis-hg18:1:438533|CNVanalysis-hg19:1:448670
9|cnvi0147553|CNVanalysis-hg18:1:398787|CNVanalysis-hg19:1:408924
9|rs2103136|CNVanalysis-hg18:1:78079|CNVanalysis-hg19:1:88216
9|cnvi0077471|CNVanalysis-hg18:1:399373|CNVanalysis-hg19:1:409510
9|cnvi0090876|CNVanalysis-hg18:1:246453|CNVanalysis-hg19:1:256590
9|cnvi0127428|CNVanalysis-hg18:1:459722|CNVanalysis-hg19:1:469859
9|cnvi0119892|CNVanalysis-hg18:1:78009|CNVanalysis-hg19:1:88146
9|cnvi0087835|CNVanalysis-hg18:1:439233|CNVanalysis-hg19:1:449370
9|cnvi0121812|CNVanalysis-hg18:1:438312|CNVanalysis-hg19:1:448449
12|rs16825336|CNVanalysis-hg18::|CNVanalysis-hg19:1:1745726
12|kgp9473004|CNVanalysis-hg18::|CNVanalysis-hg19:1:1229538
12|kgp15756715|CNVanalysis-hg18::|CNVanalysis-hg19:1:1483350
12|kgp1267260|CNVanalysis-hg18::|CNVanalysis-hg19:1:1859131
12|kgp8975187|CNVanalysis-hg18::|CNVanalysis-hg19:1:809876
12|kgp15450883|CNVanalysis-hg18::|CNVanalysis-hg19:1:937778
12|rs873927|CNVanalysis-hg18::|CNVanalysis-hg19:1:1366830
12|rs6687776|CNVanalysis-hg18::|CNVanalysis-hg19:1:1030565
12|kgp9858127|CNVanalysis-hg18::|CNVanalysis-hg19:1:1039817
12|kgp1106575|CNVanalysis-hg18::|CNVanalysis-hg19:1:1709119
12|kgp4923444|CNVanalysis-hg18::|CNVanalysis-hg19:1:1238492
12|kgp9199572|CNVanalysis-hg18::|CNVanalysis-hg19:1:959169
12|kgp15275285|CNVanalysis-hg18::|CNVanalysis-hg19:1:774047
12|kgp8242538|CNVanalysis-hg18::|CNVanalysis-hg19:1:992819
12|kgp15425301|CNVanalysis-hg18::|CNVanalysis-hg19:1:1234591
12|kgp522569|CNVanalysis-hg18::|CNVanalysis-hg19:1:858801
12|kgp2183287|CNVanalysis-hg18::|CNVanalysis-hg19:1:1148445
12|kgp22771131|CNVanalysis-hg18::|CNVanalysis-hg19:1:1215960
12|kgp51974|CNVanalysis-hg18::|CNVanalysis-hg19:1:1174282
12|kgp15402470|CNVanalysis-hg18::|CNVanalysis-hg19:1:1178453
12|kgp7946084|CNVanalysis-hg18::|CNVanalysis-hg19:1:1104584
12|kgp10656018|CNVanalysis-hg18::|CNVanalysis-hg19:1:1323078
12|kgp5474551|CNVanalysis-hg18::|CNVanalysis-hg19:1:809700
12|kgp1095360|CNVanalysis-hg18::|CNVanalysis-hg19:1:1333436
12|kgp22810300|CNVanalysis-hg18::|CNVanalysis-hg19:1:1881510
12|kgp11531255|CNVanalysis-hg18::|CNVanalysis-hg19:1:910409
12|rs2474460|CNVanalysis-hg18::|CNVanalysis-hg19:1:1844046
12|kgp5631838|CNVanalysis-hg18::|CNVanalysis-hg19:1:974494
12|kgp15822790|CNVanalysis-hg18::|CNVanalysis-hg19:1:1067396
12|rs12748433|CNVanalysis-hg18::|CNVanalysis-hg19:1:1559971
12|kgp15451761|CNVanalysis-hg18::|CNVanalysis-hg19:1:1892043
12|kgp15343501|CNVanalysis-hg18::|CNVanalysis-hg19:1:1549326
12|kgp11819293|CNVanalysis-hg18::|CNVanalysis-hg19:1:1610539
12|kgp7076376|CNVanalysis-hg18::|CNVanalysis-hg19:1:990533
12|rs6604983|CNVanalysis-hg18::|CNVanalysis-hg19:1:1521595
12|kgp5211451|CNVanalysis-hg18::|CNVanalysis-hg19:1:1878628
12|kgp15336230|CNVanalysis-hg18::|CNVanalysis-hg19:1:1425147
12|rs4442317|CNVanalysis-hg18::|CNVanalysis-hg19:1:1106784
12|kgp15571597|CNVanalysis-hg18::|CNVanalysis-hg19:1:928969
12|kgp1260016|CNVanalysis-hg18::|CNVanalysis-hg19:1:1047028
12|kgp950188|CNVanalysis-hg18::|CNVanalysis-hg19:1:891021
12|kgp5995859|CNVanalysis-hg18::|CNVanalysis-hg19:1:1190207
12|kgp2763348|CNVanalysis-hg18::|CNVanalysis-hg19:1:1555989
12|kgp1785685|CNVanalysis-hg18::|CNVanalysis-hg19:1:1767565
12|kgp4414862|CNVanalysis-hg18::|CNVanalysis-hg19:1:990280
12|kgp8587443|CNVanalysis-hg18::|CNVanalysis-hg19:1:1110225
12|kgp8416131|CNVanalysis-hg18::|CNVanalysis-hg19:1:1425700
12|kgp7100289|CNVanalysis-hg18::|CNVanalysis-hg19:1:1738150
12|kgp15889936|CNVanalysis-hg18::|CNVanalysis-hg19:1:949889
12|kgp11911122|CNVanalysis-hg18::|CNVanalysis-hg19:1:1509034
12|kgp10405877|CNVanalysis-hg18::|CNVanalysis-hg19:1:1079191
12|rs28635343|CNVanalysis-hg18::|CNVanalysis-hg19:1:1560103
12|kgp15496907|CNVanalysis-hg18::|CNVanalysis-hg19:1:945944
12|kgp10974743|CNVanalysis-hg18::|CNVanalysis-hg19:1:1501097
12|rs7407|CNVanalysis-hg18::|CNVanalysis-hg19:1:1684472
12|kgp15274811|CNVanalysis-hg18::|CNVanalysis-hg19:1:1738984
12|rs6687029|CNVanalysis-hg18::|CNVanalysis-hg19:1:1519068
12|kgp10919182|CNVanalysis-hg18::|CNVanalysis-hg19:1:984302
12|rs28487995|CNVanalysis-hg18::|CNVanalysis-hg19:1:1619541
12|kgp12037783|CNVanalysis-hg18::|CNVanalysis-hg19:1:1263144
12|kgp1556763|CNVanalysis-hg18::|CNVanalysis-hg19:1:886206
12|rs6671356|CNVanalysis-hg18::|CNVanalysis-hg19:1:1040026
12|kgp1066315|CNVanalysis-hg18::|CNVanalysis-hg19:1:1099437
12|rs2748987|CNVanalysis-hg18::|CNVanalysis-hg19:1:1846582
12|rs1153103|CNVanalysis-hg18::|CNVanalysis-hg19:1:1415012
12|kgp2658832|CNVanalysis-hg18::|CNVanalysis-hg19:1:1596500
12|kgp1023800|CNVanalysis-hg18::|CNVanalysis-hg19:1:1723031
12|kgp11279536|CNVanalysis-hg18::|CNVanalysis-hg19:1:1151232
12|kgp10862750|CNVanalysis-hg18::|CNVanalysis-hg19:1:940096
12|kgp1487366|CNVanalysis-hg18::|CNVanalysis-hg19:1:1155804
12|kgp15286661|CNVanalysis-hg18::|CNVanalysis-hg19:1:761764
12|kgp15147831|CNVanalysis-hg18::|CNVanalysis-hg19:1:1234585
12|kgp8516143|CNVanalysis-hg18::|CNVanalysis-hg19:1:1453373
12|kgp12112772|CNVanalysis-hg18::|CNVanalysis-hg19:1:759036
12|kgp15670333|CNVanalysis-hg18::|CNVanalysis-hg19:1:1596588
12|rs10907178|CNVanalysis-hg18::|CNVanalysis-hg19:1:1021583
12|kgp15516378|CNVanalysis-hg18::|CNVanalysis-hg19:1:1086617
12|kgp9058517|CNVanalysis-hg18::|CNVanalysis-hg19:1:1183397
12|rs1014988|CNVanalysis-hg18::|CNVanalysis-hg19:1:1680219
12|kgp8804355|CNVanalysis-hg18::|CNVanalysis-hg19:1:1891263
12|kgp22818646|CNVanalysis-hg18::|CNVanalysis-hg19:1:820806
12|kgp15532973|CNVanalysis-hg18::|CNVanalysis-hg19:1:1881019
12|kgp10498391|CNVanalysis-hg18::|CNVanalysis-hg19:1:870873
12|kgp15236529|CNVanalysis-hg18::|CNVanalysis-hg19:1:850528
12|kgp2918679|CNVanalysis-hg18::|CNVanalysis-hg19:1:835242
12|kgp22790832|CNVanalysis-hg18::|CNVanalysis-hg19:1:811797
12|kgp9329607|CNVanalysis-hg18::|CNVanalysis-hg19:1:1725626
12|rs13302982|CNVanalysis-hg18::|CNVanalysis-hg19:1:861808
12|kgp9191878|CNVanalysis-hg18::|CNVanalysis-hg19:1:1159517
12|kgp8547464|CNVanalysis-hg18::|CNVanalysis-hg19:1:1663861
12|kgp5225889|CNVanalysis-hg18::|CNVanalysis-hg19:1:779322
12|kgp3631841|CNVanalysis-hg18::|CNVanalysis-hg19:1:1449746
12|kgp7731027|CNVanalysis-hg18::|CNVanalysis-hg19:1:1612111
12|kgp11812596|CNVanalysis-hg18::|CNVanalysis-hg19:1:1683900
12|rs28710181|CNVanalysis-hg18::|CNVanalysis-hg19:1:1847531
12|kgp9382575|CNVanalysis-hg18::|CNVanalysis-hg19:1:880238
12|kgp15599173|CNVanalysis-hg18::|CNVanalysis-hg19:1:1778181
12|rs34389364|CNVanalysis-hg18::|CNVanalysis-hg19:1:1295323
12|rs12077700|CNVanalysis-hg18::|CNVanalysis-hg19:1:1219775
12|kgp10812815|CNVanalysis-hg18::|CNVanalysis-hg19:1:1275229
11|rs16825336|CNVanalysis-hg18:1:1735586|CNVanalysis-hg19:1:1745726
11|rs4648426|CNVanalysis-hg18:1:3762948|CNVanalysis-hg19:1:3773089
11|rs873927|CNVanalysis-hg18:1:1356693|CNVanalysis-hg19:1:1366830
11|rs3107153|CNVanalysis-hg18:1:2046594|CNVanalysis-hg19:1:2056735
11|rs12032272|CNVanalysis-hg18:1:3605015|CNVanalysis-hg19:1:3615156
11|rs6675979|CNVanalysis-hg18:1:3967912|CNVanalysis-hg19:1:4068052
11|rs4648432|CNVanalysis-hg18:1:2829617|CNVanalysis-hg19:1:2839757
11|rs2494641|CNVanalysis-hg18:1:2352687|CNVanalysis-hg19:1:2362827
11|rs2171985|CNVanalysis-hg18:1:4281113|CNVanalysis-hg19:1:4381253
11|rs6687776|CNVanalysis-hg18:1:1020428|CNVanalysis-hg19:1:1030565
11|rs947344|CNVanalysis-hg18:1:3413327|CNVanalysis-hg19:1:3423467
11|rs17448695|CNVanalysis-hg18:1:4267670|CNVanalysis-hg19:1:4367810
11|rs3795272|CNVanalysis-hg18:1:2274055|CNVanalysis-hg19:1:2284195
11|rs1181888|CNVanalysis-hg18:1:3661651|CNVanalysis-hg19:1:3671791
11|rs10799202|CNVanalysis-hg18:1:3913478|CNVanalysis-hg19:1:4013618
11|rs884080|CNVanalysis-hg18:1:2016608|CNVanalysis-hg19:1:2026749
11|rs4648807|CNVanalysis-hg18:1:2030757|CNVanalysis-hg19:1:2040898
11|rs1817914|CNVanalysis-hg18:1:4267782|CNVanalysis-hg19:1:4367922
11|rs2474460|CNVanalysis-hg18:1:1833906|CNVanalysis-hg19:1:1844046
11|rs16823103|CNVanalysis-hg18:1:2782661|CNVanalysis-hg19:1:2792801
11|rs6695131|CNVanalysis-hg18:1:2990784|CNVanalysis-hg19:1:3000924
11|rs4310388|CNVanalysis-hg18:1:2497275|CNVanalysis-hg19:1:2507415
11|rs12032575|CNVanalysis-hg18:1:4070038|CNVanalysis-hg19:1:4170178
11|rs12748433|CNVanalysis-hg18:1:1549834|CNVanalysis-hg19:1:1559971
11|rs35701577|CNVanalysis-hg18:1:3512421|CNVanalysis-hg19:1:3522561
11|rs2235176|CNVanalysis-hg18:1:3043966|CNVanalysis-hg19:1:3054106
11|rs2842909|CNVanalysis-hg18:1:2849584|CNVanalysis-hg19:1:2859724
11|rs11573991|CNVanalysis-hg18:1:2480807|CNVanalysis-hg19:1:2493611
11|rs10909852|CNVanalysis-hg18:1:2895465|CNVanalysis-hg19:1:2905605
11|rs12031275|CNVanalysis-hg18:1:3925928|CNVanalysis-hg19:1:4026068
11|rs1181867|CNVanalysis-hg18:1:3641178|CNVanalysis-hg19:1:3651318
11|rs2651902|CNVanalysis-hg18:1:3064166|CNVanalysis-hg19:1:3074306
11|rs6604983|CNVanalysis-hg18:1:1511458|CNVanalysis-hg19:1:1521595
11|rs6672877|CNVanalysis-hg18:1:3961230|CNVanalysis-hg19:1:4061370
11|rs4442317|CNVanalysis-hg18:1:1096647|CNVanalysis-hg19:1:1106784
11|rs2651935|CNVanalysis-hg18:1:3076356|CNVanalysis-hg19:1:3086496
11|rs28437090|CNVanalysis-hg18:1:1948881|CNVanalysis-hg19:1:1959022
11|rs7513053|CNVanalysis-hg18:1:3699347|CNVanalysis-hg19:1:3709487
11|rs12132422|CNVanalysis-hg18:1:4195164|CNVanalysis-hg19:1:4295304
11|rs28635343|CNVanalysis-hg18:1:1549966|CNVanalysis-hg19:1:1560103
11|rs7407|CNVanalysis-hg18:1:1674332|CNVanalysis-hg19:1:1684472
11|rs1129332|CNVanalysis-hg18:1:2326070|CNVanalysis-hg19:1:2336210
11|rs10797430|CNVanalysis-hg18:1:2470197|CNVanalysis-hg19:1:2480337
11|rs10909820|CNVanalysis-hg18:1:3797310|CNVanalysis-hg19:1:3807450
11|rs10915445|CNVanalysis-hg18:1:4097502|CNVanalysis-hg19:1:4197642
11|rs16841022|CNVanalysis-hg18:1:4214037|CNVanalysis-hg19:1:4314177
11|rs3128291|CNVanalysis-hg18:1:2047882|CNVanalysis-hg19:1:2058023
11|rs2477707|CNVanalysis-hg18:1:2420916|CNVanalysis-hg19:1:2431057
11|rs6687029|CNVanalysis-hg18:1:1508931|CNVanalysis-hg19:1:1519068
11|rs2803310|CNVanalysis-hg18:1:2007156|CNVanalysis-hg19:1:2017297
11|rs28487995|CNVanalysis-hg18:1:1609404|CNVanalysis-hg19:1:1619541
11|rs10909968|CNVanalysis-hg18:1:3469602|CNVanalysis-hg19:1:3479742
11|rs2298223|CNVanalysis-hg18:1:3649602|CNVanalysis-hg19:1:3659742
11|rs6671356|CNVanalysis-hg18:1:1029888|CNVanalysis-hg19:1:1040026
11|rs12042165|CNVanalysis-hg18:1:2877879|CNVanalysis-hg19:1:2888019
11|rs2748987|CNVanalysis-hg18:1:1836442|CNVanalysis-hg19:1:1846582
11|rs880725|CNVanalysis-hg18:1:2814849|CNVanalysis-hg19:1:2824989
11|rs1333189|CNVanalysis-hg18:1:3279831|CNVanalysis-hg19:1:3289971
11|rs1153103|CNVanalysis-hg18:1:1404875|CNVanalysis-hg19:1:1415012
11|rs12562637|CNVanalysis-hg18:1:2914526|CNVanalysis-hg19:1:2924666
11|rs16838561|CNVanalysis-hg18:1:4252570|CNVanalysis-hg19:1:4352710
11|rs903916|CNVanalysis-hg18:1:2221323|CNVanalysis-hg19:1:2231463
11|rs12085231|CNVanalysis-hg18:1:3287498|CNVanalysis-hg19:1:3297638
11|rs6670920|CNVanalysis-hg18:1:4075966|CNVanalysis-hg19:1:4176106
11|rs12024847|CNVanalysis-hg18:1:3310659|CNVanalysis-hg19:1:3320799
11|rs6424058|CNVanalysis-hg18:1:3737440|CNVanalysis-hg19:1:3747580
11|rs903919|CNVanalysis-hg18:1:2212443|CNVanalysis-hg19:1:2222583
11|rs12073797|CNVanalysis-hg18:1:4065058|CNVanalysis-hg19:1:4165198
11|rs1745813|CNVanalysis-hg18:1:3637821|CNVanalysis-hg19:1:3647962
11|rs1333190|CNVanalysis-hg18:1:3279589|CNVanalysis-hg19:1:3289729
11|rs747827|CNVanalysis-hg18:1:3626206|CNVanalysis-hg19:1:3636347
11|rs16838591|CNVanalysis-hg18:1:4267249|CNVanalysis-hg19:1:4367389
11|rs4648553|CNVanalysis-hg18:1:3638738|CNVanalysis-hg19:1:3648879
11|rs10915509|CNVanalysis-hg18:1:4275719|CNVanalysis-hg19:1:4375859
11|rs12119470|CNVanalysis-hg18:1:2207960|CNVanalysis-hg19:1:2218100
11|rs10907178|CNVanalysis-hg18:1:1011446|CNVanalysis-hg19:1:1021583
11|rs903914|CNVanalysis-hg18:1:2279181|CNVanalysis-hg19:1:2289321
11|rs16823228|CNVanalysis-hg18:1:2843619|CNVanalysis-hg19:1:2853759
11|rs1014988|CNVanalysis-hg18:1:1670079|CNVanalysis-hg19:1:1680219
11|rs6683974|CNVanalysis-hg18:1:2775531|CNVanalysis-hg19:1:2785671
11|rs10910025|CNVanalysis-hg18:1:3674045|CNVanalysis-hg19:1:3684185
11|rs2483266|CNVanalysis-hg18:1:3225900|CNVanalysis-hg19:1:3236041
11|rs2651899|CNVanalysis-hg18:1:3073572|CNVanalysis-hg19:1:3083712
11|rs4274008|CNVanalysis-hg18:1:3797452|CNVanalysis-hg19:1:3807593
11|rs2493314|CNVanalysis-hg18:1:3390154|CNVanalysis-hg19:1:3400294
11|rs870465|CNVanalysis-hg18:1:3230059|CNVanalysis-hg19:1:3240199
11|rs13302982|CNVanalysis-hg18:1:851671|CNVanalysis-hg19:1:861808
11|rs905135|CNVanalysis-hg18:1:3189344|CNVanalysis-hg19:1:3199484
11|rs10799236|CNVanalysis-hg18:1:3952816|CNVanalysis-hg19:1:4052956
11|rs28710181|CNVanalysis-hg18:1:1837391|CNVanalysis-hg19:1:1847531
11|rs2803309|CNVanalysis-hg18:1:1977662|CNVanalysis-hg19:1:1987803
11|rs9424284|CNVanalysis-hg18:1:3696398|CNVanalysis-hg19:1:3706538
11|rs4648390|CNVanalysis-hg18:1:2690232|CNVanalysis-hg19:1:2700372
11|rs34389364|CNVanalysis-hg18:1:1285186|CNVanalysis-hg19:1:1295323
11|rs12094678|CNVanalysis-hg18:1:3101529|CNVanalysis-hg19:1:3111669
11|rs12077700|CNVanalysis-hg18:1:1209638|CNVanalysis-hg19:1:1219775
11|rs2651927|CNVanalysis-hg18:1:3091622|CNVanalysis-hg19:1:3101762
11|rs7544357|CNVanalysis-hg18:1:3501155|CNVanalysis-hg19:1:3511295
11|rs4468133|CNVanalysis-hg18:1:4127494|CNVanalysis-hg19:1:4227634
11|rs2934983|CNVanalysis-hg18:1:4267840|CNVanalysis-hg19:1:4367980
