rs6692115
cnvi23177506
cnvi23177516
cnvi23177549
cnvi23177611
cnvi23177621
cnvi23177631
cnvi23177651
rs1153105
rs3737714
rs3737622
rs2179382
rs909823
rs1014988
rs28696944
cnvi0117616
rs1181867
rs4654435
cnvi0111279
rs2353174
rs10492947
rs12738895
rs17410217
rs17034716
rs284316
rs2817580
rs3010887
rs9308457
rs848433
rs12135103
rs12129723
rs11584660
rs10489452
rs4661598
rs1635571
rs12730240
rs10489858
cnvi0117645
cnvi0117406
rs2301472
rs10489437
cnvi0117705
rs12098045
rs10903086
rs11249163
rs2257611
rs3093631
rs6598922
rs17162040
rs2486674
rs559058
rs28392552
rs7532525
rs12726740
rs12124774
rs10798962
rs11585727
rs655709
rs1764392
rs4653112
rs2138086
cnvi0117547
cnvi23909721
cnvi23909742
cnvi23909747
cnvi23909752
cnvi23909762
rs6600333
rs12026014
rs6690382
rs11811369
rs12083349
rs344185
rs12135483
rs37464
rs12077687
rs272565
rs263958
rs6692958
rs11211422
cnvi0117458
cnvi0111336
cnvi0111219
cnvi0111321
cnvi0111359
cnvi24097155
cnvi24097183
cnvi24097186
cnvi24097189
rs12742768
rs12070926
rs1305489
rs3887651
rs12091679
rs4926616
rs11206266
rs12077589
rs7542637
rs6588553
rs11206583
cnvi0117367
rs17113991
rs3131755
rs6587794
cnvi0117694
rs17122212
rs6682088
rs11801995
rs17123151
rs11579934
cnvi24415298
cnvi24415301
rs28553389
cnvi24415308
cnvi24415312
cnvi24415314
cnvi24415318
rs2269240
rs12410782
rs7552724
rs2375523
rs3790426
rs17495916
rs4633262
rs11209181
rs1367446
rs4620474
rs11209643
rs2258880
rs4649988
rs2185695
rs12745456
rs199714
rs2602948
rs12144794
rs1981071
rs2148689
rs12124429
rs12118252
rs7532890
rs7512262
rs4471288
rs6690591
rs1970607
cnvi0117414
rs7516752
rs1760206
rs12141568
cnvi0117342
rs1772905
rs841344
rs7522944
rs12025248
rs10875147
rs1146714
rs12044991
rs11185345
rs6700638
rs10158153
rs6671103
rs2215794
rs1881822
rs6583021
rs633869
rs10881495
rs11185274
rs10857968
rs7513731
rs1113523
rs12026930
rs7513294
rs17034230
rs2051060
rs4659063
rs2244501
rs1342738
rs7554348
rs2153979
rs4025966
rs11590559
rs2361026
rs1338442
rs3765949
rs732623
rs10802113
rs6428833
rs11804969
rs6694902
rs17350662
rs4413996
rs599643
rs28668525
rs12048844
rs2762735
rs2590106
rs1778738
rs1778772
rs2793969
rs3863710
rs12143320
rs2261251
rs12048269
rs7554921
rs4494194
rs1969869
rs2353974
rs6688154
rs903786
rs4480413
rs6679917
rs477260
rs2473068
rs4950247
rs2655585
rs6688901
rs638265
rs3010988
rs12094997
rs9285832
rs12239797
rs9438280
rs1827843
rs4466703
rs11579261
rs17161949
rs6673776
rs12731310
rs2319167
rs1398339
rs6593881
rs11577190
rs12730799
rs11587304
rs828514
rs12042176
rs3853524
rs828503
rs7534300
rs12073091
rs11581756
rs7518729
rs1809689
rs12409037
rs1766447
rs1707011
rs2774385
rs2774399
rs28416965
rs828285
rs5001205
rs3936952
rs10888382
rs11204951
rs310098
rs821408
rs4845605
rs12567393
cnvi0117421
rs2297649
cnvi0117442
rs4265446
rs2099684
rs878180
rs12030083
rs203848
rs7527071
rs2268548
rs3765377
rs3946168
cnvi0117324
rs16853243
rs16853281
rs10798648
rs6425569
rs2383658
rs6666578
rs7554297
rs12081603
rs1340202
rs12563435
rs12736318
rs1933709
rs7551855
rs524329
rs10921671
rs10801579
cnvi0117508
cnvi26689105
cnvi26689124
cnvi26689131
cnvi26689151
rs1325311
rs10920155
rs4573564
rs11801589
rs2153903
cnvi0117407
rs2095965
rs1166907
rs11119439
rs6540652
rs6694190
rs2666838
rs11811243
rs1032601
rs2815251
rs4445537
rs1764704
rs6691097
rs7416798
rs10863493
rs2807863
rs6667902
rs3890716
rs11590781
rs17163046
rs3008604
rs510032
rs3811492
rs1474926
rs11122563
rs16853927
rs12096753
rs1294319
rs592627
rs669582
rs11589672
rs1252135
rs12131645
rs6429178
rs6667904
rs1934346
rs6429226
rs1915872
rs12184326
rs2840613
rs10754760
rs12023682
rs10926688
rs6697552
cnvi0111243
cnvi0111224
cnvi0111261
cnvi0111272
cnvi0111309
cnvi27557913
cnvi0111244
cnvi27557976
rs12059907
rs665392
rs10737772
rs12121903
rs10924216
rs1621632
rs12411198
rs6670478
rs4607841
rs2333995
rs2387038
rs28891730
rs4539172
rs4372938
rs4474916
rs4854288
rs7570506
rs9677346
rs13389796
rs2602754
rs7601188
rs1594316
rs872877
rs4443011
rs4849938
rs1175854
cnvi0111290
rs10495502
rs12623182
rs826009
rs825930
rs10803691
rs10188973
cnvi0111369
cnvi0111233
cnvi0111370
cnvi0111205
cnvi0111296
cnvi0111289
cnvi0111377
cnvi0111266
cnvi0111259
cnvi0117335
rs6732445
rs6722570
rs16865056
rs12373800
rs16865923
cnvi47053632
rs3845751
cnvi47053652
cnvi47053664
cnvi0117586
rs7598144
rs12611894
rs750872
rs1868584
cnvi0117390
rs779376
rs10206100
rs10929904
rs2056150
rs2675899
rs1897912
rs793827
rs6748658
rs12465117
rs6757623
rs11884936
cnvi0117596
rs6746364
rs1515968
rs2732936
rs2710017
rs1427538
rs11899126
rs16987155
rs10191266
rs12619737
rs312951
rs13424136
rs7585241
rs12614422
rs1731240
rs2940803
rs11682523
rs12714289
rs4952025
rs2887087
rs7608031
rs7574426
rs280715
rs280771
rs1686103
rs17018690
rs711252
rs11691767
rs6715108
rs6737169
rs6749057
rs2024420
rs4446101
rs12994565
rs12475881
rs7589532
rs17634234
cnvi0117702
rs1920509
rs13398657
rs10153686
rs4416268
rs921071
rs11904703
rs11124975
rs13415733
cnvi0117700
rs13024907
rs6713990
rs4618102
rs13411633
cnvi0117453
rs6732149
rs12613133
rs7424350
rs10184263
rs6545221
rs4513332
rs895475
rs1521937
rs759718
rs868699
rs2972087
cnvi0117475
rs13033220
rs2865289
rs820965
rs763694
rs1344459
rs2058586
rs10201685
rs4387777
rs2305154
rs6713620
rs4468797
rs840952
rs1477054
rs4671143
rs7567378
rs2418891
rs6725113
rs6546962
rs13429274
rs12616488
rs436000
rs9973760
rs7561189
rs1516248
rs1239102
rs1023825
rs13407679
rs1434216
rs1567529
rs671772
rs216616
rs216627
rs11889709
rs1866245
rs1914760
rs7602041
rs4971998
rs1710456
rs12467791
rs2970906
rs10865489
rs13431169
rs2848412
rs2556048
rs660625
rs2195078
rs1808517
rs2693240
rs859743
rs859745
rs2848274
rs2556012
rs859739
rs4004204
rs17653677
rs842164
rs13003799
cnvi0117608
rs4907280
rs6756986
rs6740424
rs4851122
rs13402819
rs7420866
rs13404055
rs4851509
rs2582962
rs2252423
rs1372101
rs13390052
cnvi48890796
rs7557916
rs732081
rs17020988
rs11123663
cnvi0117640
rs4676258
rs3829701
rs12617450
rs10496436
rs6753785
rs10758
rs13386452
rs6542174
rs3105491
rs12996109
rs718062
rs319858
rs2615828
rs12475536
rs979387
rs12613332
rs2707551
rs1875785
rs314710
rs1584750
rs1823746
rs6737222
rs1143407
rs6722353
rs4662784
rs1446653
rs2123518
rs2464786
rs13013015
rs17521866
rs4502426
rs11689695
rs4493321
rs3963058
rs2677646
rs2459658
rs3109148
rs13422893
rs7606775
rs543944
rs1550087
rs12467399
rs1518805
rs1401312
rs7585927
rs1160251
rs3768853
rs10803491
rs6430043
cnvi0117415
rs1852687
rs4662422
rs10196996
rs4667345
rs3815851
rs4664066
rs1356732
rs13429172
rs4664597
rs6745205
rs1874064
rs7574848
rs17716892
cnvi0117620
cnvi0117704
cnvi0117380
rs1834223
rs4668423
rs4146580
rs1439992
rs10497310
rs6759363
cnvi0117460
cnvi0117535
rs4668128
rs13007341
rs6742220
rs13395506
rs13013988
cnvi0117338
rs4972588
rs12472540
rs10930692
rs6761604
rs711822
cnvi0111335
cnvi0111247
cnvi0111280
cnvi50318444
cnvi50318447
cnvi0111264
cnvi0111186
cnvi0111189
rs2969341
rs753346
rs2573083
rs4530328
rs16866773
rs4666815
rs7355517
rs4380187
rs10196671
rs10931523
rs13022065
rs6712905
rs11901946
rs6706197
rs34283305
rs12622674
rs7561950
rs6735214
rs4850447
rs11679410
cnvi0117560
rs4497857
rs10197833
rs10190482
rs13430786
rs13385636
rs35212307
rs12613305
rs7587284
rs10204710
rs10490297
rs7564637
rs3770976
rs13391359
rs1521550
rs10191167
rs1356438
rs3770536
rs10932706
rs1008835
rs1008563
rs11694802
rs13424875
rs2395926
rs6732142
rs10181857
rs12468846
rs2629043
rs6717227
rs1560251
rs7604823
rs7581134
rs6754280
rs6436944
rs1797388
rs6431655
rs28630478
rs11676712
rs1469597
rs4599058
cnvi0117396
cnvi0111323
cnvi51517568
cnvi51517580
cnvi51517599
cnvi0111212
cnvi0111381
rs10196774
rs6758057
rs7606263
rs10183301
rs4358148
rs10181293
rs7592097
rs4676369
rs4675965
rs13432136
rs6712567
rs7423746
rs10189267
rs5024851
rs4303857
rs9312040
rs17444084
rs17039420
rs9817135
rs6808990
rs13084318
rs17005253
rs6810220
rs2729306
rs1685514
rs1948796
rs17018270
rs9813981
rs1583957
rs6442831
rs9869888
rs2859808
rs7649517
rs2323238
rs1430005
rs4685995
rs7625781
rs1504031
rs17288561
rs9870680
rs162782
cnvi29764784
cnvi29764799
cnvi29764808
rs7619410
cnvi29764901
cnvi29764910
cnvi29764918
cnvi29764934
cnvi29764961
rs299648
rs455932
rs13070928
rs1033195
rs9990230
rs296168
rs17016187
rs6784301
rs7626769
rs13082041
rs1478556
rs9815806
rs28853269
rs2199411
rs1353926
rs4334600
rs9822289
rs35902
rs17025096
rs9825365
rs1494741
rs9826061
rs667181
cnvi0117401
cnvi0111193
rs7639353
rs11917489
rs9837352
rs7648951
rs1714412
rs2742409
rs6441989
rs9817508
rs12496585
rs6442029
rs2564919
rs3774425
rs3821846
rs7630738
rs13080107
rs1718471
rs7633596
rs2630207
rs12493462
rs13100376
rs2734350
rs9827591
rs6765028
rs11130857
rs6781363
rs2367315
rs13090570
rs4688139
rs557993
rs2971927
rs9846545
rs3796383
rs17071395
rs9852846
rs17044499
rs9881490
rs11920675
rs17005384
rs11128198
rs9845218
rs11917612
cnvi0117540
rs6549415
rs7642104
cnvi0111231
rs301547
rs12486903
rs2046215
rs546048
rs9861321
rs6765200
rs11707608
rs1471994
rs6798071
rs17016341
rs7612833
rs2372735
rs9823976
rs17465956
rs2048291
rs9842126
rs2063589
rs17801001
rs870898
rs17199512
rs7650184
rs1909550
rs17027082
rs4857338
rs6768434
rs1352460
rs11917907
rs9812542
rs9855158
rs13314698
rs34308813
rs4857258
rs2139700
rs4438664
rs9859768
rs2921263
rs326334
rs7616341
rs6770923
rs12630707
rs9868243
rs7650201
rs9859842
rs3772933
rs6778912
rs7644537
rs4470556
rs11914676
rs13086387
cnvi0117375
rs12496410
rs2141607
rs16837018
rs3773155
rs4328782
rs1564186
cnvi32251851
cnvi32251853
cnvi32251855
cnvi32251857
cnvi32251860
cnvi32251862
cnvi32251864
rs9851887
rs6439885
rs9289594
rs2044078
rs11923612
rs6778966
rs7612265
cnvi0117659
rs7642361
rs4839633
rs11927652
rs4681363
rs6783187
rs12492960
rs12494868
rs1355791
rs6762748
rs6786556
rs28821246
cnvi0117668
cnvi32444844
rs28544926
rs9844628
rs10513373
rs10513425
rs2203686
rs1400612
rs1517250
rs6781424
rs11918263
rs13324120
rs1490547
rs12490796
rs13080773
rs10936110
rs340271
rs16847208
rs7651855
rs4298056
rs12636840
rs6441503
rs4855217
rs4680608
rs13072902
rs499543
rs16852499
rs1612605
rs1499814
rs7638716
rs1903444
rs4894703
rs11916879
rs6794095
rs552305
rs13088555
rs7642222
rs2300769
rs9872192
rs7618051
rs3860513
rs1518933
cnvi33130781
cnvi33130789
cnvi33130793
cnvi33130801
cnvi33130813
cnvi33130818
rs4638958
rs865809
rs4687046
rs6788108
rs7632934
rs1042445
rs12637831
rs11922608
rs2378274
rs17753354
cnvi0117634
rs9830275
rs9810495
rs13085813
rs7614992
rs838689
rs13075089
rs9290995
rs34481755
rs6777745
rs11717023
rs1879548
rs7614240
rs11915891
rs6788164
rs1388100
rs1490752
rs4613405
rs7649259
rs12496855
rs36104383
rs2641366
rs28454687
rs6782006
rs34729751
rs35025057
rs9325409
rs9680912
rs6832313
rs4970292
rs7699689
rs9328737
rs7666926
cnvi0117430
rs16843169
cnvi0111287
cnvi0117701
rs6789
cnvi0111347
rs13111481
rs3116580
rs4593079
rs13123245
rs739965
rs11730653
rs899688
rs10937669
rs11723228
rs2240492
rs6446517
rs4637403
rs17382358
rs11735274
rs13127001
rs6827467
rs7676442
rs6835730
rs6814902
rs16873076
cnvi0117317
rs2029799
rs6828619
rs16886509
rs16886607
rs10470840
rs13119573
cnvi0117327
cnvi13942140
cnvi13942152
cnvi13942164
cnvi13942170
cnvi13942182
rs7698803
rs13109476
rs492959
rs744731
rs2320289
rs10489055
rs7675477
rs6848722
rs10805232
rs11728319
rs216108
rs17581877
rs3109848
rs2075093
rs2309558
rs16879958
rs17616508
rs1497716
rs6815271
rs16882167
rs7657134
rs7681502
rs1377892
rs13102653
rs6823854
rs1567482
rs1479765
rs7437855
rs6841592
rs794009
cnvi0117654
cnvi0111353
cnvi0111318
cnvi0111255
cnvi0111199
rs4608840
cnvi0111230
rs2575548
cnvi0117618
rs2354314
rs9631924
cnvi0117623
rs4864522
rs7699343
rs17086773
rs10015799
rs4865140
rs4865141
rs6554399
rs1990405
rs13123762
rs6843830
rs17089747
rs1511124
rs1505659
rs2345049
rs12509742
rs10023425
rs10030005
rs778572
rs6843214
rs1877516
rs4694733
rs17149002
rs6840693
rs924149
rs2168813
rs10516659
cnvi15318687
rs1545332
rs6827228
rs7656367
rs7698655
rs13119598
rs17016696
rs9991550
rs10010423
rs6833239
rs17248761
rs1607075
rs11097368
rs4699565
rs12504979
rs4699770
rs6843675
rs1388845
rs1021420
rs1812590
rs2347132
rs12640600
rs11726880
rs1394001
rs922212
rs11725084
rs11722162
rs13150807
rs2631108
rs12506322
rs17261423
rs11726005
rs4283687
rs4833779
rs10011590
rs908822
rs4279227
rs12647338
rs17014505
rs10007855
rs2009283
rs6839762
rs963645
rs6535115
rs6828338
rs6823023
rs1901173
rs13109751
rs2874907
rs9799404
rs9308176
cnvi0117315
cnvi16561592
cnvi16561598
cnvi16561626
rs6848237
rs11099666
rs952260
cnvi16640445
cnvi16640453
cnvi16640457
cnvi16640465
cnvi16640469
cnvi16640477
cnvi16640482
rs7687844
rs2033880
rs17031090
rs4547780
rs4690871
rs4146954
rs1882684
rs13127767
rs1439408
rs17039957
rs10517728
rs2597503
rs13119671
rs6536694
rs10517780
rs11100576
rs1562143
rs9994795
rs304351
rs6817742
rs11132000
rs11132008
rs6853665
rs2723708
rs7692357
rs17263395
rs2029569
rs1390343
rs11133161
rs8180172
rs6828262
rs11727812
rs28866180
rs4862298
rs6827840
rs10003413
rs6821153
rs322442
rs4861730
rs11132538
rs389363
rs6896163
rs436354
rs10040987
rs3134643
rs2962073
rs2172532
rs4975854
rs6893167
rs828341
rs10065876
cnvi0111254
rs10069119
cnvi0117587
cnvi0111285
rs272456
rs529524
rs274692
rs10512902
rs162275
rs1506127
rs4702624
rs16883500
rs13155431
rs267972
rs4391159
rs6859654
rs1446057
rs4702930
rs4702942
cnvi0117536
rs10038170
rs4702103
rs13170409
rs257769
rs28552791
rs258879
rs27452
rs6896380
rs12187665
rs1510960
rs2457755
rs10472228
rs6451281
rs13154138
rs11960755
rs1822399
rs7713161
rs782847
cnvi0117446
rs11745572
rs6876174
rs9687957
cnvi0117402
rs35649663
rs10059222
rs4327574
rs12519679
rs698898
rs4701323
rs924448
rs1896726
rs4259139
rs331280
cnvi0117440
rs2195418
rs12517600
rs6884536
rs35660407
rs2248868
rs6897092
rs1566612
rs7713449
rs10042703
rs11748217
rs6450778
rs10079401
rs12659054
rs7722591
rs7725120
rs6450920
rs2077312
rs696833
rs6872391
rs10521004
rs6451123
rs1971720
rs12523149
rs10461984
rs270553
rs17194068
rs540557
rs448997
rs10074991
rs662066
rs6864343
rs16871652
rs7731163
rs6865440
rs12656298
rs12522387
rs16879209
rs10056157
rs4576101
rs10512972
rs4865569
cnvi0117349
rs3843458
rs184004
rs168848
rs255231
rs1395336
rs10076568
rs247229
rs1309544
rs27588
rs6863429
rs937029
rs2372179
cnvi0111245
cnvi0111304
rs3098382
rs2081989
cnvi0117685
rs959179
rs2973569
rs611708
rs12233980
rs7445050
rs2432185
rs341917
rs13152961
rs4704655
rs2035256
rs2591455
rs7719527
rs10051690
rs4289589
rs10065575
cnvi0117600
rs13182804
rs12518592
rs25862
rs466366
rs10036886
rs10515332
rs1153987
rs4296777
rs10054105
rs6860627
rs11747396
rs1482370
rs6594927
rs2162754
rs6594961
rs449716
rs12332773
rs10071435
rs6896245
rs7700373
rs2405806
rs4895176
rs4616888
rs2546839
rs7712066
rs6862525
rs34572370
rs10045762
rs7716003
rs11745668
rs10063061
rs7721622
rs17618372
rs25736
rs10793820
rs10050713
rs2546357
rs1434627
rs251353
rs11750900
rs253447
rs17099156
rs4912913
rs315177
rs2163750
rs7443875
rs11167956
rs4705201
rs3843496
rs3792797
rs8177423
rs11960458
rs1422361
rs6897802
rs2311451
rs27341
rs2431686
rs13165191
rs11960210
rs3923156
rs6871616
rs10069531
rs12188479
rs10042881
rs2431176
rs248278
rs11134452
rs1895264
rs11750548
cnvi0117576
cnvi0117474
rs2617969
rs6876197
rs7341024
rs13185422
rs1109105
rs2338656
rs752596
rs12657530
rs919756
rs793228
rs7717040
rs12514199
rs7716340
rs6869749
rs267348
rs17065334
rs1560035
rs7721851
rs1978604
rs6556301
rs625882
rs163199
rs28584376
rs10060053
rs7735706
rs12653128
rs4358506
rs10464079
rs255025
rs13163745
rs4700812
rs3111537
rs2386861
rs10903273
rs10044031
rs2545083
rs12202060
rs7754106
rs2745636
rs234937
cnvi0117489
rs6937911
rs4959710
rs160679
rs318454
rs9328207
rs13197025
rs963499
rs1674067
rs1286024
rs13219016
rs4449671
rs2613853
rs496862
rs634103
rs6457458
rs794776
rs9476827
cnvi0117410
rs927629
rs6899431
rs10456214
rs6459644
rs9465467
rs9465498
rs1466340
cnvi0117516
cnvi0117612
cnvi1430507
cnvi1430523
cnvi1430531
cnvi1430545
cnvi1430559
cnvi1430567
cnvi1430581
rs9379421
rs1018401
rs4521580
rs2793434
rs9356943
rs1410688
rs302990
rs6936465
rs2744229
rs9467496
rs12529915
rs932316
rs10946813
rs3004047
rs2523774
rs7745413
rs2735085
rs2844792
rs2516714
rs2517441
rs7754903
rs13200571
rs10484556
rs2596477
rs9266514
rs2507980
rs1051794
rs2844588
rs3093553
rs6457452
rs3129951
rs2097432
rs4148882
rs383887
rs6914506
rs2645124
rs410066
rs4714375
rs9394740
cnvi0117693
rs9462720
rs1858584
cnvi0117633
rs6907771
rs3763236
rs12181267
cnvi0117454
rs16877682
rs243118
rs13194120
rs9369938
rs16880107
rs1327275
rs4576247
rs9474123
rs9370105
rs600291
rs2397107
rs9349651
rs13197674
rs3799696
rs9474776
rs6934405
rs4712105
rs16887121
rs2894830
rs2745749
rs7757985
cnvi0117614
rs4712149
rs9500755
rs9450180
rs9344794
rs7754455
rs2344114
rs10081100
rs9354302
rs9351695
rs13218497
rs9351111
rs9353980
rs475994
rs13211922
rs1398803
rs1455090
rs13218852
rs1020689
rs10806600
rs10498868
rs13194034
rs2697433
rs10943080
rs9341445
rs2251494
rs2951953
rs2148261
rs6453873
rs1462476
rs9359253
rs9443411
rs9341683
rs7770376
rs818296
rs818269
rs12193017
rs9343883
rs9343946
rs9344040
rs540814
rs1555171
rs10944217
rs9450458
rs564066
rs9450537
rs12528768
rs4141550
rs11756310
rs10944575
rs10944597
rs4707762
rs7774264
rs220949
rs6931706
rs2505081
cnvi0117523
cnvi2917243
cnvi2917294
cnvi2917301
cnvi2917308
rs910034
rs12175103
rs7739574
rs1325060
rs10457941
rs9373705
rs9499550
rs9486103
rs11152943
rs3127640
rs9486513
rs1728109
rs847015
rs4946861
cnvi0117501
rs3823447
rs1378699
rs2499618
rs9488642
rs12210556
rs6901720
rs1607369
rs9489904
rs11154022
rs11154032
rs17653941
rs4946570
rs12189576
rs9490795
rs6902462
rs1478804
rs10457556
rs9493105
rs9373002
rs4895927
rs9493174
rs2636611
rs17833451
rs6929404
rs9494341
rs7770469
rs276511
cnvi3686551
cnvi3686557
cnvi3686561
cnvi3686564
cnvi3686570
cnvi3686576
cnvi3686583
cnvi0111371
cnvi0111242
cnvi0111284
cnvi0111308
rs9494794
rs6913139
rs9495557
rs1415808
rs10223507
rs259401
cnvi0117647
rs4896932
rs678691
rs12214672
rs6940972
rs9498177
rs979429
rs2486420
rs505765
rs1890522
rs9384509
rs275351
rs7746854
rs637572
rs4870310
rs7766864
rs12525341
rs2181190
cnvi0117344
rs9346833
rs10945764
rs10806750
rs1893556
rs7748665
rs9295203
rs3099256
rs12213619
rs2295089
rs6934395
rs4708759
rs2050062
rs7762363
rs883488
rs3012372
rs4916944
rs3814454
rs28613779
rs6960928
rs4725234
rs11974051
rs10265027
rs1968924
rs9691979
rs6947525
rs12667184
rs1554502
rs6462059
rs11971511
rs6952184
cnvi0111195
cnvi0111293
rs1405476
rs1636412
rs10281107
rs4723626
rs10251001
rs10274869
rs13247208
rs7788456
rs10266306
rs4724358
rs7456000
rs627222
rs12536508
rs28373555
rs4457236
rs4602795
rs10261824
rs3807809
rs12533185
rs6463875
rs11514814
rs395158
rs4720913
rs12537365
cnvi0117632
rs2355125
rs7778887
rs2568637
rs6953736
rs10248417
rs4415218
rs6968164
rs10247772
rs11771285
rs697509
rs1859022
rs4721601
rs723724
rs877250
rs2240279
cnvi0117309
rs2390117
cnvi8723075
cnvi8723091
cnvi8723132
cnvi8723140
cnvi8723149
cnvi0117383
rs6461521
rs10248618
rs17146851
rs274029
rs16166
rs10241609
rs16478
rs10267583
rs2391175
rs10215963
cnvi0117569
rs17465309
rs4722793
rs42714
rs184273
rs2284218
cnvi8934219
rs13231451
cnvi8934234
rs218137
rs30562
rs30593
rs16881929
rs6462559
rs10235648
rs2160430
rs2718044
rs2240839
rs2736964
rs4551242
cnvi0117405
rs10085715
rs2196755
rs2075070
rs13226164
rs6951912
cnvi0117565
rs12155095
rs12702255
rs4724511
rs2107698
rs11238131
rs2329371
rs801139
rs7802503
rs13226989
rs1357961
rs7792567
rs6946803
rs2330668
rs10275022
rs7791426
rs495641
rs2709317
rs11506105
rs6957545
rs3110939
rs28670923
cnvi0117548
rs9642601
rs11767629
rs13226516
rs12532752
rs1849659
rs7383974
rs4451192
rs10950039
rs2119445
rs7293668
rs7786464
rs10280113
rs10225784
rs6960979
rs13229781
rs2900628
rs10250544
rs2659906
rs35508430
rs28817095
rs2110004
rs10279017
cnvi0117598
rs10270627
rs6953054
rs17144373
rs799217
cnvi9694497
cnvi9694565
cnvi9695162
cnvi9695180
cnvi9695190
cnvi9695220
cnvi9695228
cnvi9695289
rs13223593
rs1091811
rs28413849
rs12668140
rs735956
rs10272110
rs6953665
rs10232435
rs10224066
rs1638127
rs7801693
rs38653
rs7798157
rs2868248
rs2539499
rs2245368
rs3748131
rs2052200
rs3114317
rs2097892
rs3807745
rs7786447
rs2024254
rs7798423
rs12535987
rs1293087
rs304774
rs31672
rs9886345
rs10267374
rs929192
rs803262
rs2158044
rs2528542
rs9641125
rs10245760
rs983894
rs12539224
rs6465502
rs7785299
cnvi0117336
cnvi10167462
cnvi10167519
rs7788159
rs13242894
rs4236552
rs2074686
rs35761702
rs10233701
cnvi0117382
rs201432
rs2529106
rs10238421
rs4342524
rs5004058
rs11979474
rs17137434
rs4282494
rs37646
rs886775
rs2522217
rs1548395
cnvi0117692
rs2396812
rs13246549
rs10264545
rs4395818
rs9649394
rs6955734
rs664062
rs6957121
rs1997046
rs727594
rs6976095
rs1557646
rs11563766
rs892707
rs1559019
rs6959190
rs6948786
rs10242784
rs6972399
rs2960771
rs929289
rs2527710
rs6968847
rs7809670
cnvi0111354
rs822546
rs2968853
rs1881647
rs10264143
rs10242296
rs1444461
rs12539154
rs10224365
rs1387195
rs1615832
rs930339
rs12532519
cnvi0111270
cnvi0111220
cnvi0111300
cnvi0111248
rs2886094
rs2530763
rs2302445
cnvi0117497
cnvi11363497
rs10272338
rs1124400
rs892729
rs3800863
rs7824333
rs10101376
rs7827285
rs4876160
rs4451330
rs11984719
rs1442401
rs13266825
rs7459738
rs12542951
rs17326685
rs10095924
rs2554583
rs7817129
rs2552171
rs1568332
rs10113741
rs3849842
rs13261335
rs7835487
rs6986423
rs4369008
rs10503282
rs6992998
rs7010443
rs2407596
rs1992205
rs4875396
rs6988310
rs9314546
rs7840747
rs11136786
rs6986644
rs13266795
rs13251949
rs2214688
rs1615810
rs12543145
rs17454451
rs17381669
rs12679827
rs2912031
rs6601709
rs6984248
rs777710
rs777709
cnvi0111288
cnvi0117667
rs12544727
rs7834351
rs6601483
rs4841434
rs2256241
rs11250168
rs12678154
rs643378
rs9650348
rs2410113
rs11991625
rs5012676
rs10100593
rs11782776
rs7813793
rs13248874
rs4831250
rs1983387
rs6988872
rs1510435
rs964337
rs2256560
rs2252460
rs2253225
rs6530806
rs10107666
cnvi0111286
cnvi0117353
rs12546671
rs7012038
rs12681103
rs13251088
rs6991950
rs12680588
rs13251961
rs13265356
rs17574959
rs17471917
rs13250784
rs268416
rs750895
rs1457223
rs268349
rs9325744
rs7840505
rs268335
rs6530848
rs11776929
rs12114950
rs11992115
rs4831699
rs2101809
rs2201476
rs12542950
rs7835718
rs11990887
rs1495083
rs12550443
rs352810
rs987926
rs2721230
rs1582403
rs13253786
rs2736012
rs2410305
rs4352853
rs12542835
rs13252649
cnvi0117433
rs6982084
rs4269558
rs4922197
rs896044
rs2430809
rs6982233
rs17782264
rs1705699
rs11786566
rs12155784
rs6557756
rs10503748
rs6998598
rs2720596
rs323362
rs4733347
rs2466051
rs10958700
rs9643842
rs6474156
rs2290301
rs11997619
rs10094981
rs11996523
rs10098898
cnvi0117499
rs16932110
rs7014393
rs3935536
rs13275955
rs1450136
rs2361116
rs7463107
rs682734
rs10958358
rs2169692
rs184319
rs2594817
cnvi0111206
cnvi0111218
cnvi0111202
cnvi0111338
cnvi0111356
cnvi5386834
cnvi5386839
cnvi5386844
cnvi5386849
cnvi5386859
cnvi0111297
cnvi0111319
cnvi0111228
cnvi0111384
cnvi0111208
rs7007618
rs16922425
rs2053899
rs1369775
rs4291256
rs7813241
rs1980238
rs1467300
rs6995588
rs11990117
cnvi0111192
rs7832140
rs2351655
rs10156375
rs13251387
cnvi0111358
cnvi0111379
cnvi0111232
cnvi0111239
cnvi0111349
cnvi0111188
cnvi0111226
cnvi0111246
rs11783633
rs2446430
rs1462030
cnvi0117487
rs12549065
rs4738141
rs2911761
rs6472619
rs1899077
rs2383886
rs4316144
rs13273502
rs4735793
rs16906865
rs10092876
rs10088394
rs1156770
rs10112772
rs6415649
rs7832818
rs13256575
rs13256194
rs7833080
rs821116
rs16894311
cnvi0117611
rs10504892
rs4645524
rs279955
rs1504684
rs279953
rs10504926
rs278536
rs372745
rs876324
cnvi0117303
rs10504938
rs877350
rs4060030
rs1873745
rs11779052
rs2444889
rs11996948
rs10808374
rs7007251
rs10505085
rs6469084
rs10088861
cnvi0117350
cnvi0117328
rs11993594
rs10102855
cnvi0111339
rs10955806
rs7818143
rs3115769
rs11562709
rs16891361
rs12677367
rs2326193
rs13269842
rs6996149
rs13257834
rs6994284
rs11782642
rs10112939
rs10956241
rs6982011
rs1373325
rs1491485
rs28459743
rs3763562
rs7839719
rs7815436
rs1021954
rs10099034
rs587948
rs28483266
rs1426511
rs4733828
rs1468935
rs9886419
rs7012587
rs4636162
rs4733776
rs4310223
rs4736641
rs964560
cnvi0117425
rs7460718
rs1329801
rs10956600
rs2597330
rs7005557
rs10106924
cnvi0111355
rs10088949
rs41376144
rs7842212
rs17650875
rs11166679
rs4465005
rs11997773
rs1033113
rs9657451
rs11997562
rs6988975
rs16910288
rs1473416
rs13438931
rs13261479
rs10105845
rs35896889
rs34257756
rs1336563
rs10813766
rs2641995
rs1532310
rs7850218
rs7046746
rs10975462
rs10975590
rs4742207
rs4584192
rs9408678
rs732119
rs7029407
rs10815561
rs2370220
rs10122927
rs611825
rs954980
cnvi0111294
rs3780403
rs4740810
rs11999707
rs2578275
rs820501
rs10975765
rs1407858
rs7859003
rs7022427
rs7021243
rs324540
rs9299106
rs10511546
rs1885508
rs833416
rs1322280
rs7870863
rs10960376
rs4642743
rs871981
rs953049
rs10810049
rs6474801
rs2096366
rs10810368
rs7020594
rs1778170
rs1549988
rs2383089
rs7037813
rs4977780
rs4978107
rs2782434
rs1147819
rs10812732
rs2167643
rs7469495
rs4415403
rs10511835
rs2360192
rs12353109
rs1331234
rs1348255
rs7853360
rs16933812
rs10814651
cnvi18233546
cnvi18233842
cnvi18234092
cnvi18234310
cnvi18236496
rs2772596
cnvi0117639
cnvi0117713
cnvi0117625
cnvi0117698
cnvi0117699
cnvi0117483
rs2990390
rs3119788
cnvi0117532
cnvi0117658
cnvi18242850
cnvi18243008
cnvi0117361
cnvi0117373
cnvi0117498
cnvi0117551
cnvi18244421
cnvi0117403
cnvi0117630
cnvi0117366
cnvi18249073
cnvi18257367
cnvi0117677
cnvi0117656
cnvi0117684
cnvi18261775
cnvi18262017
cnvi18262108
rs28555595
rs28643287
rs28562088
cnvi0117372
rs28823694
cnvi0117359
cnvi0117665
cnvi0117330
cnvi0117455
cnvi0117393
cnvi0117546
rs7470071
cnvi18270622
rs7860826
rs398222
rs12338099
rs1929896
rs1410373
rs2871401
rs11791008
cnvi0117443
rs2451027
rs10869554
rs7032362
rs17062301
rs1547140
rs17197444
rs12005280
rs7870042
rs9792519
rs10116105
rs10780262
rs11138147
rs10120252
rs4877164
rs5002914
rs2809849
rs864179
rs7023749
rs609444
rs2279814
rs11999447
rs10780625
rs10868177
rs1212171
rs536869
rs2100099
rs184789
rs6559931
rs1411835
rs1887903
rs12337908
rs1881389
rs10992546
rs10125538
rs3118756
rs10512242
cnvi0117419
rs34551341
rs1020884
rs2808678
rs1167772
rs11788920
rs4989244
rs10512267
rs10819829
rs2786714
rs1411097
rs698465
rs7861530
rs2680195
rs12339850
rs7875633
rs1108832
rs984070
rs7027372
rs10759461
rs1631637
rs17230081
rs204168
rs6478277
rs4087490
rs11790829
rs1508377
rs11788273
rs7046030
rs10985563
rs1556191
cnvi0117567
rs1984001
rs7024493
rs10513458
cnvi0117491
rs1556246
rs12343663
rs7857431
rs7031307
rs10819601
rs3780711
rs10819628
rs6597674
cnvi0117456
rs943837
rs739442
rs1076160
rs2073927
rs2073815
rs10785874
rs543102
rs1475784
rs10776862
rs11790203
rs1815524
rs12684893
rs11145951
rs13283039
rs11137379
rs35198327
rs7093684
rs1769229
rs11250988
rs1413764
rs11251728
rs11251793
cnvi0111340
rs2088500
rs4881372
rs7913112
rs11253654
rs1410135
rs4748386
rs7898225
rs1758653
rs7076802
rs10508372
rs12258450
rs1058348
rs4367857
cnvi0117652
cnvi0117507
rs11258127
rs618640
rs2184401
rs12259015
rs1340149
rs359285
rs7077535
rs7907793
rs11012151
rs10732432
rs7916534
rs4748901
rs11013893
rs11816696
rs11015404
rs11015696
rs6481493
rs12256403
rs2689213
rs745453
rs7077990
rs10508768
rs7090872
rs2804545
rs773952
rs11010051
rs11597392
rs9804319
rs10764063
rs7073086
rs2505613
rs1780145
rs1255414
rs2505883
rs11239788
rs9422546
rs12413246
rs1572378
rs12253404
rs4948803
rs4948971
rs1011388
rs9422661
rs10751386
rs7904070
rs9423040
rs1048156
rs1870519
rs5019325
rs3013811
rs12775238
rs7475977
rs4500424
rs7070361
cnvi0111343
cnvi0111337
cnvi0111198
cnvi0111211
cnvi0111373
rs10508908
rs10857475
rs10826167
rs1917179
rs7085226
rs11812486
rs1900416
rs7907692
rs11812237
rs12572355
rs9416634
rs2263272
rs10761660
rs4414112
rs13376881
rs2394111
rs10430510
rs12415619
rs1900005
rs4746834
rs2616139
rs4747079
rs4746076
rs4747217
rs1668154
cnvi0117431
rs3814638
rs7085352
cnvi0117669
rs287184
rs2673401
rs873827
rs11002902
rs7919775
rs1819578
rs4341481
rs10885987
rs662270
rs11813775
rs10887364
rs1912321
rs34929197
rs6585991
cnvi0117683
rs10788484
rs4934439
rs7902290
rs10788637
rs12244233
rs3802650
cnvi0117541
cnvi43443850
rs1889931
rs2181324
rs1023742
rs2636803
rs563296
rs7922362
rs4919423
cnvi43625375
cnvi43625390
cnvi43625398
cnvi43625437
cnvi43625451
rs10786666
rs7089422
rs12264034
rs35108621
rs17236391
rs161020
rs11195438
rs12770980
rs10509957
rs7093477
rs1638626
rs1537577
rs10788144
rs7914065
cnvi0117577
rs10886994
rs28695965
rs2001516
rs11245243
cnvi0117690
rs12256805
rs7905689
rs7900045
rs12259027
rs392638
rs7899888
rs4751264
rs11017728
rs7900951
rs45455496
rs12277611
rs28650290
rs4623937
rs12272328
rs2137320
rs11828604
cnvi44297387
cnvi44297404
cnvi44297412
cnvi44297424
rs6223
cnvi0111251
rs3741206
rs10831551
cnvi44311421
cnvi44311423
rs231899
cnvi44315160
cnvi44315178
cnvi44315181
cnvi44315187
cnvi0111342
cnvi0117307
rs4910625
rs11033410
rs2647551
rs11038118
rs6578685
rs2947029
rs4421737
rs878859
rs12289513
rs1528125
rs4237769
rs1992756
rs7121013
rs10831566
rs16911799
rs7103853
rs6256
rs7107947
rs2071411
rs11023444
rs7127795
rs2119377
cnvi0117585
rs12419230
rs1015896
rs10128711
rs3802798
rs2729878
rs34404025
rs12286318
rs10500896
rs4576820
rs10500898
rs12575552
rs1791845
rs1454006
rs1945453
rs1945424
cnvi0117619
rs4343020
rs10833635
rs2156796
rs11026277
rs1995841
rs7927431
rs2042680
rs11028634
rs10767383
rs7113321
rs7938796
rs7121838
rs590201
rs11823503
rs612888
rs11031538
rs7928458
rs2231454
rs742635
rs7106007
rs3886899
cnvi0117481
rs11033542
rs1365120
rs11033931
rs11034365
rs7105398
rs10837435
rs7947115
rs11037175
cnvi0117680
rs7927029
rs17093
rs11605047
rs11038565
rs588700
rs36025711
rs2851526
rs7939300
rs7929543
rs11040390
rs10839335
rs11040480
rs11040482
rs4076322
rs7482173
rs7926023
rs7294245
rs12420650
rs34281354
rs35578673
rs482534
rs1023921
rs4939008
rs11231695
rs10896612
rs4939173
rs7105331
rs11229259
rs566084
rs4556553
rs7947985
rs528285
rs1792876
rs11231328
rs9971407
rs801733
rs10896171
rs10791923
rs7935486
rs7118561
cnvi0117610
cnvi0111352
rs34673378
rs1792278
rs4121489
rs4245456
rs1892855
rs7123298
rs643064
rs12290339
rs2282576
rs7951578
rs4944211
rs577342
rs10897610
rs10897677
rs2085557
rs7118643
rs11232679
rs17142769
rs12577477
rs4944353
rs11232900
rs7113242
rs10501529
rs6592015
rs12797197
rs664961
rs11232962
rs658612
rs4944429
rs7932986
rs10501568
rs657580
rs7122928
rs498059
rs11235335
rs666128
rs302665
rs4753505
rs7930256
rs7115903
rs1943381
rs12226373
rs12280718
rs12286316
rs16912471
rs7122140
rs1506657
rs7946312
rs1255529
rs1597631
rs1866537
rs611843
rs10892026
rs2435568
rs10790841
rs7111467
rs517736
rs562441
rs7112242
rs7941660
rs12793200
cnvi0117571
rs609708
rs12289199
rs3996912
rs11216137
rs4938471
rs598373
rs11827471
rs12800734
cnvi0117457
rs12577788
rs10892841
rs4489754
rs10893040
rs1939911
rs1476202
rs645986
rs4936958
rs560640
rs7121794
rs10790878
rs1815782
rs11221653
rs7106971
rs10894113
rs6590449
rs10894200
rs7123641
rs35042821
rs7115863
rs12271299
rs4936205
rs7947975
rs10791399
rs10774021
rs6489282
rs11061716
rs4766381
rs2470408
rs2041142
rs10848951
rs28714286
cnvi0117613
cnvi0111241
cnvi0117463
rs549862
rs2159953
rs12322731
rs7978177
rs11064342
rs7965203
rs500221
rs2607894
rs1896549
rs34092747
rs7954816
rs17818016
rs1894306
rs7971136
rs6488519
rs4763825
rs4763959
rs4764038
rs16909808
cnvi0111197
cnvi0117662
rs7294773
rs4343078
rs4423240
rs7958445
rs3924765
rs10841049
rs11834116
rs11044474
rs1444642
rs12184495
rs10770888
rs11046708
rs11046816
rs10842162
rs10771001
rs11047215
rs4594085
rs923488
rs1183253
rs693241
rs2293042
rs1981790
rs1122177
rs7955629
rs12826280
rs12308416
rs10843566
rs4930870
rs7959152
rs11050642
rs11050644
rs12811865
rs2164497
rs4272863
rs10771867
rs1797733
rs1900664
rs11051834
rs11052378
rs7358760
rs9705952
rs7315047
rs4142847
rs2201144
rs4767970
rs9668854
rs398503
cnvi0117391
rs1688884
rs7979122
rs11833990
rs34808068
rs2521979
rs7973286
rs1235146
rs12721380
rs10783235
rs2705163
cnvi39944235
cnvi39944279
rs2090852
rs3852551
cnvi0117660
rs12313705
rs11170807
rs7296402
rs2555036
rs11613082
rs11172973
rs12302503
rs1842352
rs7311377
rs7302505
rs11175471
rs4540868
rs4344533
rs10784570
rs10878601
rs12146811
rs2730549
rs1899688
rs7953457
rs17045401
rs11113612
rs11114439
rs17007452
rs7980625
rs7967747
rs17009297
rs7296996
rs3993401
rs10862984
rs11103919
rs11836240
rs759482
rs7971383
rs1873982
rs2365736
rs734307
rs10860431
rs4764776
rs10778155
rs939330
rs1196795
rs2116675
rs11113882
cnvi0117512
rs2541886
rs2241209
rs12580300
rs648997
rs7970397
rs16942173
rs3825204
rs10850132
rs7316919
rs6490069
rs4766789
rs2017021
rs871257
rs2592297
rs10849653
rs11064831
rs10774502
rs11613214
rs6489782
rs10847839
rs10846684
rs12817611
rs4765424
rs10219498
rs11058991
rs3741638
rs865689
rs1406620
rs1849851
rs7315614
rs155688
rs11060444
rs264498
rs1105520
rs11061311
rs7954820
rs11061441
rs12303398
rs11061501
rs1246346
rs941155
rs3741524
rs10773901
rs6421992
rs7137092
rs3825109
rs9510802
rs1854787
rs9508933
rs4770021
rs570061
rs2763900
rs12021056
rs17456768
rs9507299
rs3979307
rs2497587
rs3002213
rs6491016
rs2117930
cnvi27842184
cnvi27842188
cnvi27842190
rs12864419
rs9578047
rs7981637
rs7984345
rs7984339
rs4941562
rs8002033
rs453774
rs703220
rs1408892
rs7998352
rs2321744
cnvi0117370
cnvi0111351
cnvi0111317
cnvi27995811
cnvi27995830
cnvi27995834
cnvi27995842
cnvi0111330
cnvi0111235
rs1538148
rs7992745
rs11620043
rs1041210
rs9525527
rs11616757
rs4941442
rs9315960
rs2248414
rs9590981
rs6311
cnvi0117629
rs9596344
rs17089152
rs9527639
rs9563551
rs9538215
rs9527905
rs2323006
rs10507671
rs359400
rs2875480
rs17082547
rs7984841
rs9529329
rs9529406
rs9572111
rs9564583
rs9599667
rs1254086
rs7982719
rs9573383
rs7323689
cnvi0117593
rs28631502
rs4052459
cnvi0111229
cnvi0111273
cnvi0111348
cnvi0111213
cnvi28858309
cnvi28858325
cnvi28858364
rs4885589
rs2248413
rs7332904
rs7985511
rs12875461
rs4600363
rs6563245
rs9602147
rs1412851
rs4564467
rs8000094
rs4424809
rs4445766
rs7338302
rs2637475
rs171060
rs2031565
rs2389096
cnvi29179093
cnvi29179101
cnvi29179110
cnvi29179116
rs2992888
rs9554335
rs9556879
rs1571526
rs655653
rs12864890
rs4646217
rs4772149
rs1886032
cnvi0111185
cnvi0111234
cnvi0111252
cnvi29284584
cnvi29284592
cnvi0111260
cnvi0111268
cnvi0111214
cnvi0111325
rs2184970
rs3783171
rs11843314
rs4771378
rs9557699
rs9519057
rs2259614
rs9284214
rs3916971
rs2391295
rs7993272
rs16970584
rs9559181
rs9521601
rs694225
rs9521686
rs4771699
rs9301481
rs4386003
cnvi29523305
cnvi29523312
cnvi29523329
rs17120795
rs9324330
rs4243795
rs10484218
rs7147714
rs731897
rs6571400
rs10129176
rs10131167
rs871408
rs3790067
rs9322984
rs34645376
rs2319870
rs4417485
rs3811250
rs12882084
rs12890913
rs4982652
rs10145014
cnvi0117580
rs12881813
rs11158950
rs1956815
rs1952844
cnvi0111344
cnvi0111302
cnvi0111341
cnvi0111194
cnvi21594192
cnvi21594197
cnvi21594207
cnvi21594212
cnvi0111328
cnvi21594223
cnvi21594231
cnvi0111345
cnvi0111310
cnvi0111274
rs1953207
rs8022650
rs1950704
rs2300855
rs1958022
cnvi0117432
rs17102648
rs6571692
rs10146661
rs1169137
cnvi21750458
cnvi21750465
cnvi21750469
cnvi21750485
cnvi0117641
rs1950223
rs8011757
rs12432600
rs12434244
rs1955970
rs1955969
rs17309260
rs6572235
rs7492449
rs10142526
cnvi0117363
rs10047960
rs10144954
rs1956580
rs1956267
rs17831700
rs1266469
cnvi0117592
cnvi0117345
rs8010415
rs9285581
rs35567819
rs241547
rs1383395
rs1152562
rs17773129
rs12884933
cnvi0117449
cnvi0117530
rs7158969
rs219320
rs28840241
rs216507
rs3742636
rs1091679
rs10151267
cnvi0117510
rs964955
rs2987976
rs11621159
rs1383595
rs28637004
rs11628035
rs194741
rs227428
rs12431557
rs149676
rs994759
rs10220279
rs10133043
rs740505
rs31395
rs221503
rs7143192
rs7151699
rs7145447
rs10130812
rs1911223
rs4899811
rs11848052
rs1462355
rs2746996
rs1954097
cnvi0117364
rs10139817
rs242763
rs17127751
rs28613190
rs3825680
rs11622958
cnvi0117642
rs941490
rs179164
rs1743495
rs1889377
rs2295133
rs234439
rs8010215
rs1959997
rs4905904
rs7144866
rs12880811
rs11626438
rs11624216
rs11626849
rs11851852
rs11850206
rs12100994
rs8022234
rs7154767
rs12894686
rs2040464
rs8018554
rs4372594
rs28576321
rs2338136
rs7157681
rs11849693
rs4774155
rs2516930
rs11624734
rs7140203
rs4932072
rs28619231
rs4931953
rs1827250
rs2626176
rs13380139
rs1303908
rs1816284
rs3817271
rs8040996
rs35948303
rs17797924
rs11486384
rs765763
rs8029320
rs7171197
rs8032564
rs7167658
rs8028440
rs7171787
rs11633285
rs2289824
rs2289823
rs4778298
rs2289817
rs2289819
rs11263677
rs6606813
rs1009153
rs7179251
rs11263683
rs6606825
rs11635703
rs11263687
rs4778307
rs9744401
rs2087756
rs10152580
rs11263693
rs35929815
rs12910918
rs4778318
cnvi55904322
cnvi55904326
cnvi55904328
cnvi55904339
cnvi55904344
cnvi55904348
cnvi55904350
cnvi55904355
cnvi55904359
cnvi55904363
cnvi55904367
cnvi55904375
cnvi55904379
cnvi55906723
cnvi55906725
cnvi55906727
cnvi55906729
cnvi55906731
cnvi55906734
cnvi55906735
cnvi55906742
cnvi55906744
cnvi55906746
cnvi55906747
cnvi55906749
rs1117688
rs824175
rs4450355
rs8033181
rs1524845
rs11161360
rs11634453
rs8026512
rs8038240
rs12442070
rs1850477
rs12914657
rs2173432
rs12911815
rs8023324
rs11161140
rs4028400
rs12906707
cnvi0117637
rs9806169
rs8025092
rs10873624
rs8042941
rs486535
rs12440234
rs2014059
rs881203
rs737051
rs2525988
rs2525980
rs7167697
rs12442637
rs2671048
rs2671088
rs484101
cnvi0117627
rs12442532
rs12914428
rs1514254
rs9672615
rs2946542
rs11637116
rs11636374
rs1258768
rs16969986
rs8035184
cnvi0117594
rs3894644
rs17817878
rs7176653
rs11073046
rs7176678
rs12916413
rs4272997
rs10444869
rs7167349
rs2411236
cnvi0117492
cnvi0117533
rs6493119
rs17627219
rs13329472
rs11854416
rs17355260
rs4359384
cnvi0117525
rs12442679
rs8035829
rs12906900
rs11070743
rs3751601
rs11070884
rs2651520
rs16974342
rs2414342
rs491014
rs2718930
rs7171591
cnvi56631861
cnvi56631865
cnvi56631870
cnvi56631875
cnvi56631881
cnvi56631884
cnvi56631887
rs9920962
rs7163165
rs17205603
rs2292933
rs2456015
rs4470098
rs2271015
rs1013888
cnvi0117664
rs4073105
rs4459504
cnvi0117675
cnvi0117341
rs7182221
rs16968809
rs4779045
rs11852590
rs8043254
rs4778810
rs11636298
rs4778963
rs4778686
rs17841169
rs8028130
rs11855726
rs4632086
rs10852073
rs12900523
rs2262692
rs7172845
rs7176520
rs11855314
rs8033436
rs4644835
rs1158683
rs992838
rs8026561
rs3784785
cnvi0117517
rs28647534
cnvi0117408
rs4777937
rs28579540
rs1424701
rs17492912
rs2639197
rs7162534
rs12440174
rs7163578
rs12903358
rs12912444
rs2654974
rs956212
rs2016395
rs2685129
cnvi11412906
rs2541677
cnvi11413137
cnvi11413139
cnvi11413141
cnvi11413144
cnvi11413149
rs2362744
rs2854120
rs4021969
rs11639532
rs2858942
cnvi11413361
rs35994191
cnvi11413426
cnvi11413430
cnvi11413433
cnvi11413438
rs9925848
rs13339636
rs35262813
rs7192116
rs11641077
rs35232355
cnvi0111200
cnvi0111267
cnvi0117503
cnvi0111271
rs11648316
rs2043630
rs8058875
rs12162044
rs17671037
rs2192347
rs12102431
rs8063058
rs4786201
rs17145150
rs7200286
rs13332173
rs2040
rs4129933
rs4781173
rs4781263
rs6498334
cnvi0117352
rs222133
rs2239319
rs8061692
rs1155876
rs16970280
rs13334699
rs11649134
rs294256
rs7196199
rs154522
rs7184859
rs10492789
rs1016586
rs2112807
rs2112812
rs996418
rs7197258
rs12149938
rs7186225
rs4787393
rs7189762
rs151228
rs7204265
rs11644806
rs2432432
rs2549945
rs12935431
rs7190185
cnvi0117520
rs8051096
rs4889653
cnvi0117308
rs1971707
rs28569285
rs7197958
rs2658205
rs4045664
rs1847956
rs28765115
rs36043949
rs3907731
rs28890819
rs1505120
rs28850918
rs11859939
rs450923
rs1825312
rs28549298
rs1985776
rs28851861
rs492688
rs28609261
rs7404052
rs7198015
rs4043821
rs28788898
rs4635354
rs7500004
cnvi0117590
rs9925772
rs11076572
rs11076455
rs11646857
rs1965024
rs8044749
rs13336597
rs1420312
rs2540774
cnvi12269164
rs12920871
rs1211435
rs4297673
cnvi0117476
cnvi12282148
cnvi12282160
cnvi12282166
rs1552426
rs17247999
rs4783914
rs17343266
rs8058795
rs8058985
rs9925011
rs1436038
rs2407910
cnvi0117524
rs7498886
rs4354964
rs2106885
rs17474196
rs9922145
cnvi0117417
rs1549287
rs1055255
rs2456141
rs7190905
rs1876275
rs12447656
rs4888773
rs9928997
rs2077576
rs4074541
rs9927068
rs1877281
rs4435265
rs16949286
rs454120
rs406783
rs4477718
rs2287114
rs17242561
rs11642824
rs254347
rs11149661
rs882716
rs6419427
rs305095
rs7499527
rs4843910
rs10863210
cnvi0111320
cnvi0111204
cnvi0111256
cnvi12914847
cnvi12914851
cnvi12914858
cnvi0111253
cnvi0111326
cnvi0111366
rs4843654
rs6540132
rs11865740
rs899735
rs11076699
rs11076713
rs463938
rs4785742
rs2241039
rs10521107
rs8065685
rs11868634
rs2277669
rs7216491
cnvi19862298
cnvi19862307
cnvi19862452
cnvi19862470
cnvi19862483
cnvi19862503
cnvi19862506
cnvi19862512
cnvi19862515
cnvi19862526
cnvi19862539
rs4790804
rs7208352
rs9941365
rs35271093
rs7225434
rs7209989
cnvi0117388
cnvi0111281
rs684690
rs402514
cnvi19981190
cnvi19981207
cnvi19981211
cnvi19981221
cnvi0117416
rs1476161
rs8079384
rs8081873
rs9893664
rs2520161
rs9914770
rs4792103
cnvi0117716
rs8065277
rs11078169
rs1006566
rs9902455
rs16950769
rs758486
rs7218737
rs16951285
rs7222483
rs12944998
rs4470201
rs2605144
rs7406759
rs1969051
rs12602546
rs8078268
rs7216938
rs2012843
rs8079648
rs8078442
rs2694192
rs7210075
rs3752032
rs6587153
rs4985894
rs12600754
rs11657497
cnvi0117502
rs11654191
rs34881086
cnvi0117313
rs6505113
rs8069673
rs379123
cnvi0117311
cnvi0117427
rs4796030
rs12602864
rs12449981
cnvi0111385
cnvi0111249
cnvi0111207
cnvi0111362
cnvi0111368
cnvi0111201
cnvi0111227
cnvi0111187
cnvi0111386
cnvi0111275
cnvi0111306
cnvi0111283
cnvi0111240
cnvi0111350
cnvi0111225
rs3744451
rs2471630
cnvi0111222
rs11557467
rs7219230
rs677960
rs12602084
rs8176257
rs3809752
rs9898065
rs2271957
rs4793011
rs2700830
rs4792941
rs11870695
rs919463
rs2023861
rs2141299
rs2532228
rs8077375
rs2525096
rs4793871
cnvi20701788
cnvi20701790
rs3760449
rs8065900
cnvi0117343
cnvi20727991
cnvi20728027
cnvi20728067
rs3786005
rs8077298
rs16950722
rs740570
cnvi0117466
rs12939236
cnvi0111303
cnvi0111217
rs4080075
cnvi0111315
rs3744287
rs6173
cnvi0111311
rs1420803
cnvi0117550
rs9302893
rs11649991
rs4793293
rs11077627
rs34115221
cnvi0117318
rs4789081
rs2305214
rs4788880
rs3935718
rs2665984
rs12941494
rs1473312
rs4790069
rs1663187
rs12937211
rs899286
rs11077981
rs11869956
rs10853286
rs543459
rs2741173
rs9646481
rs8091041
rs1940646
rs16943136
rs4606805
cnvi0117495
cnvi0111203
cnvi0111322
rs1026652
rs2577098
cnvi0117398
cnvi0117320
cnvi0111380
rs10853328
rs16949298
rs4539680
rs2040195
rs7351012
rs11875152
rs6506593
rs7241117
rs1189852
rs2030041
rs4630619
rs12959318
rs2002212
rs7234356
rs11662125
rs4493131
rs9963833
rs8087891
rs2159940
rs1828055
rs2822012
rs34786265
rs13381445
rs12454500
rs6417001
rs9748320
rs35591265
rs12607042
rs6565737
rs4294900
rs3878725
rs10460005
rs11874816
rs8084232
rs7239190
cnvi0111334
cnvi0111299
cnvi0111215
rs12958298
rs16940610
rs4800587
rs1011669
rs9952296
rs8084934
rs12458331
cnvi0117697
rs12606391
cnvi0117504
rs11564346
rs4480884
rs11083357
rs2949514
rs2111655
rs13381681
rs9304131
rs1546564
rs7229111
rs1212167
rs1949034
rs11660926
rs12607847
rs673439
rs583582
rs2578189
rs3826588
cnvi0117648
rs1228469
rs1583950
rs11151977
cnvi0117605
rs1970748
rs1792744
rs4998040
rs7236588
rs1452606
rs9957420
rs8083921
rs11662608
rs17061875
rs7237695
rs1943024
rs7236376
rs309226
rs4597421
rs9949535
rs17080549
rs10871644
rs2581704
rs3884522
cnvi0117511
rs8090235
rs9947850
rs8083370
rs8087255
rs2007105
rs12162215
rs11665148
rs3826567
rs12463385
rs10419948
rs4806839
rs4993100
rs10164335
rs12608478
rs197142
cnvi0111372
cnvi0117644
cnvi0111298
rs2602728
rs2240743
rs7258250
rs2913960
rs12460083
rs28370965
rs12460069
cnvi7371135
cnvi7371137
cnvi7371139
cnvi7371141
cnvi7371144
cnvi0117445
rs12981916
rs7257452
rs7256212
rs10421933
rs13822
rs10410885
rs34095
rs12972855
rs10425915
rs8106546
rs7255105
rs12461897
rs2396225
rs8111918
cnvi0117671
rs17277692
rs10405210
rs4808631
rs4808377
rs8109218
rs10409801
rs10415451
rs12459395
rs35244568
rs7254186
rs7251145
rs8106213
rs11669293
rs2545918
rs4809060
rs33947
rs8102956
rs2081051
rs7248302
rs7258660
rs7246424
rs6511384
rs7252623
rs290586
rs7248969
rs35187886
rs2569604
rs699651
rs6511467
rs7253247
rs8110554
rs4932944
rs10401848
rs4892316
rs10422196
rs10411996
rs7258199
rs2192130
rs2219356
rs7359876
rs10409248
rs34265079
rs7258048
rs7245994
rs4293501
rs2159130
rs7252491
rs1423706
rs12610670
rs8101026
rs12608899
rs10518276
rs17545436
rs276764
rs276747
rs529064
rs1119745
rs13344454
rs826965
rs650027
rs8102683
rs8109818
rs6508980
rs7246092
rs7247881
rs10426895
rs10410062
rs11083692
rs12462846
rs2722650
rs11880598
rs4802279
rs12462695
rs2910393
rs1366444
rs2544785
rs10418141
rs3745496
rs648298
rs9304726
rs12460101
rs8105117
rs16984291
rs10425110
rs10411642
rs7249604
rs4806680
rs12971502
rs392308
rs11881993
rs17841902
rs798887
rs8100319
rs2886310
rs4806538
rs581623
rs687844
rs6509992
rs4801183
rs4801194
rs10518271
rs11880378
rs6110474
rs4239717
cnvi0111277
cnvi0111374
cnvi0111258
cnvi0111263
rs6037300
rs6053148
rs2180465
rs4813845
rs518281
rs6033330
rs17174
rs12480094
rs1217356
rs6139379
rs16990312
rs6076954
rs654433
rs2423154
rs6077047
rs6117565
rs993417
rs6055198
rs6140828
cnvi0117622
cnvi0117672
rs6041099
rs11698353
rs16990104
rs6042940
rs368380
rs7352992
rs8121124
rs4814419
rs6044150
rs6075078
rs6044234
rs852075
rs1592016
rs6081648
rs6035378
rs8192563
cnvi0117537
cnvi0111383
cnvi0111376
cnvi0111209
cnvi52086092
rs2179856
rs6106615
rs2424598
rs6114816
rs6083703
rs2281558
rs4815411
rs6057630
cnvi0117423
rs6088091
rs1482885
rs6073885
rs4511778
rs4812565
rs1884029
rs6130052
rs6102985
cnvi0117371
rs16985328
rs3091805
rs6094558
rs4810670
rs6094848
rs4810720
rs6018960
cnvi0117575
rs6066835
rs6125457
rs2075678
rs4499479
rs17726944
cnvi0117557
rs4811158
rs628672
rs1013466
rs11086407
rs6022652
rs8120953
rs463288
rs6069124
rs1337241
rs6099160
rs13042613
rs6070380
rs6026515
rs194869
rs6027328
cnvi0117599
rs1201981
rs2282017
rs2207541
rs4809558
rs8120195
rs4809250
rs816948
rs3959326
rs17239865
rs8184908
rs445828
rs2822394
cnvi0117441
rs2823035
rs1449524
rs1900938
rs1489735
rs1786427
rs1786434
rs2826259
rs1786368
rs2826487
rs7275412
rs2826694
rs2827389
rs8132448
rs4816995
rs4642025
rs2092541
rs16982417
rs12482524
rs2832219
rs2832348
rs459474
cnvi0117493
rs473561
rs2832813
rs13339977
rs2070384
rs2040121
rs6517205
rs1040362
cnvi0117609
cnvi0111236
rs7281847
cnvi0117559
rs14407
rs2835666
rs1892564
rs2835831
rs1709835
cnvi0111301
rs1014995
cnvi0117377
rs9984425
rs2836992
rs1000373
cnvi0111269
rs4920086
rs228094
rs11909895
rs2838380
rs11089102
cnvi0117459
rs2039273
rs2838733
rs13047590
rs13049248
rs13047971
rs4819119
rs6010455
rs8190160
rs13053962
rs7291500
rs5748892
rs12628163
rs12159248
cnvi0117386
cnvi0117715
rs5746445
rs8137591
rs2542334
rs5747492
rs3859817
rs2540657
rs41289055
rs13057428
rs1043235
rs5997305
rs2543398
rs762470
rs16983131
rs5756895
rs11704841
rs12159423
rs5757512
rs5757627
rs5750807
rs11702992
rs5757939
rs4821948
rs738881
rs5995959
rs4355209
rs2051489
rs9607862
rs6002359
rs1894242
rs16988712
rs12168212
rs3827306
rs6002818
rs441120
rs6003245
rs5759903
rs131422
rs12167140
rs738810
rs9608299
rs5760575
rs139684
rs726133
cnvi0117357
rs138564
cnvi0117635
rs5761018
rs5996921
rs133198
rs6004609
rs11704398
rs8139495
rs476532
rs574946
rs681478
rs487272
rs5752173
rs13056441
rs4239917
rs5752457
rs7288394
rs4820833
cnvi0117381
rs138280
rs926308
cnvi0111305
rs5750025
rs133398
rs6000120
rs132675
rs12157288
rs140005
rs3827351
rs4821652
rs3747169
rs17000581
rs4821849
rs6001353
rs35949382
rs2071771
rs5758098
rs5758107
rs6002215
rs738499
rs12167621
rs28670611
rs2413685
rs6006460
rs5764045
rs12484749
rs132413
rs5765951
rs9615066
rs6007542
rs2071871
rs9627641
rs131919
rs11704333
rs5768682
rs12329946
rs8136643
rs708451
rs4824034
rs4823938
rs138872
rs4892892
rs7892084
rs5982878
rs1268
rs5982920
rs1637776
rs7062235
rs5983130
rs1726178
rs7063821
rs11152514
rs2041954
rs1076483
rs5916482
rs16980109
rs28360853
rs28857586
cnvi52947987
rs5978250
rs1987078
rs7876886
cnvi52974161
rs16985004
rs809446
rs12848693
rs12834148
rs7887052
rs741500
cnvi53039624
rs11796271
rs857533
rs17216204
rs10521650
rs16980278
rs7054416
rs7876241
rs5955540
rs7055181
rs1002793
rs7063687
rs1386633
rs1824569
rs2445644
rs12011757
rs2205512
rs2316180
rs6610148
rs1006750
rs6610444
rs7053997
rs5918255
rs5952799
rs7889561
rs7064102
rs6611330
rs3005655
rs5906442
rs3855719
rs5953098
rs17147837
rs7054574
rs11796202
rs5953212
rs3014658
rs5906646
rs12847234
rs7054464
cnvi53788829
cnvi53788839
cnvi53788868
cnvi53788888
cnvi53788894
cnvi53788921
cnvi53788927
cnvi53788939
cnvi53788963
cnvi53788973
rs12009184
rs6520396
rs2064027
rs5905720
rs4824787
rs5905768
cnvi53843695
cnvi53843703
cnvi53843707
cnvi53843715
cnvi53843723
cnvi53843730
rs12558554
rs7057452
rs12862997
rs2855090
rs41305409
cnvi54285248
cnvi54285371
cnvi54285538
cnvi54285839
cnvi54286040
cnvi54286381
cnvi54286547
cnvi54286725
cnvi54287050
cnvi54287240
cnvi54287425
cnvi54287679
cnvi54287846
cnvi54288032
cnvi54288125
cnvi54288293
cnvi54288467
cnvi54288566
cnvi54288740
cnvi54289073
cnvi54289253
cnvi54289446
cnvi54289620
cnvi54289720
cnvi54289900
cnvi54290069
cnvi54290192
cnvi54290368
cnvi54290538
rs5968003
cnvi54405221
cnvi54405231
cnvi54405238
cnvi54405244
rs7054964
rs6522191
rs2534039
rs2455512
cnvi54533503
rs5940764
rs6618274
rs6618293
rs5940807
rs17004240
rs4893247
rs4468081
cnvi54563766
cnvi54563772
cnvi54563778
cnvi54563788
cnvi54563800
cnvi54563806
rs5941989
rs12557934
rs4304500
rs2364526
rs1157112
rs12837136
rs5944890
rs5944935
cnvi54780542
cnvi54780883
cnvi54781334
rs6616393
rs12007897
rs34529738
rs5945790
rs1285561
rs11798375
rs34053928
rs17847225
rs4893506
rs6642942
rs5974081
rs17174202
rs7055827
rs4537474
rs34307386
cnvi55150611
cnvi55150615
cnvi55150620
cnvi55150643
rs1600718
rs5909917
rs9698139
rs11796624
rs5975217
cnvi55479948
rs10856541
cnvi55480006
cnvi55480030
rs12847183
rs6634126
rs5955478
cnvi55538683
cnvi55538689
cnvi55538693
cnvi55538700
cnvi55538711
rs4062187
rs6636477
rs1004353
rs10284068
rs5945514
rs16995302
rs9782770
rs7061596
rs1151968
rs11094388
rs3865774
rs236031
rs35884642
rs1889058
rs5969802
rs7887377
rs4898386
rs2315123
rs2315127
rs6642287
cnvi37061460
cnvi37061461
cnvi37061462
cnvi37061463
cnvi37061464
cnvi37061465
cnvi37061467
cnvi37061468
cnvi37061470
cnvi37061471
cnvi37061472
cnvi37061473
cnvi37061476
rs4539072
rs4437815
rs9786285
rs2336922
rs34471179
rs2555854
rs34984526
rs35456374
rs35281088
rs35874960
rs2555877
rs13305091
rs3876219
rs9786259
rs2594624
rs2008924
rs9786218
rs13304434
rs9786581
rs17307252
rs9786587
rs2631276
rs34008734
rs13304589
rs11799183
rs980893
rs13304962
rs13305198
rs13304885
rs35650795
rs2608329
rs35057459
rs2608359
rs34351531
rs34230392
rs13304988
cnvi37486671
cnvi37493673
cnvi37503576
cnvi37510819
cnvi37510894
cnvi37511944
cnvi37513317
cnvi37513788
cnvi37514090
cnvi37514449
rs1968716
cnvi37515721
cnvi37516747
cnvi37517006
cnvi37517080
rs28410390
rs28396319
rs2738319
rs5987279
rs5950677
rs5950726
rs4986463
rs5991291
rs28451299
rs2895544
rs28633249
rs28634395
rs5946747
rs28528244
rs6644256
rs17537524
rs5946519
rs5988442
rs6644427
rs7050425
rs7063257
rs28551551
rs28493360
rs28582235
rs28621730
rs5949075
rs28654343
rs5948828
rs5948967
rs28477469
rs7889729
rs7474231
rs5989720
rs28671316
rs7883640
rs7884653
rs34756157
rs34751302
rs28390312
rs9803215
rs34905995
rs5939473
rs5939089
rs6641989
rs34997197
rs311077
rs6642001
rs306941
rs3899157
rs28859886
rs28841681
rs6642379
rs5983845
rs4893062
rs3093515
