Name
cnvi0111185
cnvi0111186
cnvi0111187
cnvi0111188
cnvi0111189
cnvi0111190
cnvi0111191
cnvi0111192
cnvi0111193
cnvi0111194
cnvi0111195
cnvi0111196
cnvi0111197
cnvi0111198
cnvi0111199
cnvi0111200
cnvi0111201
cnvi0111202
cnvi0111203
cnvi0111204
cnvi0111205
cnvi0111206
cnvi0111207
cnvi0111208
cnvi0111209
cnvi0111211
cnvi0111212
cnvi0111213
cnvi0111214
cnvi0111215
cnvi0111217
cnvi0111218
cnvi0111219
cnvi0111220
cnvi0111222
cnvi0111223
cnvi0111224
cnvi0111225
cnvi0111226
cnvi0111227
cnvi0111228
cnvi0111229
cnvi0111230
cnvi0111231
cnvi0111232
cnvi0111233
cnvi0111234
cnvi0111235
cnvi0111236
cnvi0111237
cnvi0111239
cnvi0111240
cnvi0111241
cnvi0111242
cnvi0111243
cnvi0111244
cnvi0111245
cnvi0111246
cnvi0111247
cnvi0111248
cnvi0111249
cnvi0111250
cnvi0111251
cnvi0111252
cnvi0111253
cnvi0111254
cnvi0111255
cnvi0111256
cnvi0111258
cnvi0111259
cnvi0111260
cnvi0111261
cnvi0111262
cnvi0111263
cnvi0111264
cnvi0111265
cnvi0111266
cnvi0111267
cnvi0111268
cnvi0111269
cnvi0111270
cnvi0111271
cnvi0111272
cnvi0111273
cnvi0111274
cnvi0111275
cnvi0111276
cnvi0111277
cnvi0111278
cnvi0111279
cnvi0111280
cnvi0111281
cnvi0111282
cnvi0111283
cnvi0111284
cnvi0111285
cnvi0111286
cnvi0111287
cnvi0111288
cnvi0111289
cnvi0111290
cnvi0111291
cnvi0111293
cnvi0111294
cnvi0111296
cnvi0111297
cnvi0111298
cnvi0111299
cnvi0111300
cnvi0111301
cnvi0111302
cnvi0111303
cnvi0111304
cnvi0111305
cnvi0111306
cnvi0111308
cnvi0111309
cnvi0111310
cnvi0111311
cnvi0111312
cnvi0111314
cnvi0111315
cnvi0111317
cnvi0111318
cnvi0111319
cnvi0111320
cnvi0111321
cnvi0111322
cnvi0111323
cnvi0111324
cnvi0111325
cnvi0111326
cnvi0111328
cnvi0111330
cnvi0111332
cnvi0111333
cnvi0111334
cnvi0111335
cnvi0111336
cnvi0111337
cnvi0111338
cnvi0111339
cnvi0111340
cnvi0111341
cnvi0111342
cnvi0111343
cnvi0111344
cnvi0111345
cnvi0111346
cnvi0111347
cnvi0111348
cnvi0111349
cnvi0111350
cnvi0111351
cnvi0111352
cnvi0111353
cnvi0111354
cnvi0111355
cnvi0111356
cnvi0111357
cnvi0111358
cnvi0111359
cnvi0111360
cnvi0111362
cnvi0111363
cnvi0111364
cnvi0111366
cnvi0111368
cnvi0111369
cnvi0111370
cnvi0111371
cnvi0111372
cnvi0111373
cnvi0111374
cnvi0111375
cnvi0111376
cnvi0111377
cnvi0111378
cnvi0111379
cnvi0111380
cnvi0111381
cnvi0111382
cnvi0111383
cnvi0111384
cnvi0111385
cnvi0111386
cnvi0117300
cnvi0117301
cnvi0117303
cnvi0117307
cnvi0117308
cnvi0117309
cnvi0117311
cnvi0117313
cnvi0117315
cnvi0117317
cnvi0117318
cnvi0117320
cnvi0117324
cnvi0117325
cnvi0117326
cnvi0117327
cnvi0117328
cnvi0117329
cnvi0117330
cnvi0117333
cnvi0117334
cnvi0117335
cnvi0117336
cnvi0117338
cnvi0117339
cnvi0117340
cnvi0117341
cnvi0117342
cnvi0117343
cnvi0117344
cnvi0117345
cnvi0117346
cnvi0117349
cnvi0117350
cnvi0117352
cnvi0117353
cnvi0117357
cnvi0117358
cnvi0117359
cnvi0117361
cnvi0117362
cnvi0117363
cnvi0117364
cnvi0117366
cnvi0117367
cnvi0117368
cnvi0117369
cnvi0117370
cnvi0117371
cnvi0117372
cnvi0117373
cnvi0117375
cnvi0117376
cnvi0117377
cnvi0117378
cnvi0117379
cnvi0117380
cnvi0117381
cnvi0117382
cnvi0117383
cnvi0117386
cnvi0117388
cnvi0117389
cnvi0117390
cnvi0117391
cnvi0117393
cnvi0117394
cnvi0117395
cnvi0117396
cnvi0117398
cnvi0117401
cnvi0117402
cnvi0117403
cnvi0117404
cnvi0117405
cnvi0117406
cnvi0117407
cnvi0117408
cnvi0117410
cnvi0117413
cnvi0117414
cnvi0117415
cnvi0117416
cnvi0117417
cnvi0117419
cnvi0117421
cnvi0117422
cnvi0117423
cnvi0117424
cnvi0117425
cnvi0117427
cnvi0117429
cnvi0117430
cnvi0117431
cnvi0117432
cnvi0117433
cnvi0117439
cnvi0117440
cnvi0117441
cnvi0117442
cnvi0117443
cnvi0117445
cnvi0117446
cnvi0117447
cnvi0117449
cnvi0117450
cnvi0117451
cnvi0117452
cnvi0117453
cnvi0117454
cnvi0117455
cnvi0117456
cnvi0117457
cnvi0117458
cnvi0117459
cnvi0117460
cnvi0117462
cnvi0117463
cnvi0117466
cnvi0117467
cnvi0117472
cnvi0117473
cnvi0117474
cnvi0117475
cnvi0117476
cnvi0117477
cnvi0117478
cnvi0117480
cnvi0117481
cnvi0117482
cnvi0117483
cnvi0117484
cnvi0117485
cnvi0117486
cnvi0117487
cnvi0117489
cnvi0117491
cnvi0117492
cnvi0117493
cnvi0117494
cnvi0117495
cnvi0117496
cnvi0117497
cnvi0117498
cnvi0117499
cnvi0117501
cnvi0117502
cnvi0117503
cnvi0117504
cnvi0117506
cnvi0117507
cnvi0117508
cnvi0117509
cnvi0117510
cnvi0117511
cnvi0117512
cnvi0117516
cnvi0117517
cnvi0117518
cnvi0117520
cnvi0117523
cnvi0117524
cnvi0117525
cnvi0117526
cnvi0117527
cnvi0117528
cnvi0117529
cnvi0117530
cnvi0117531
cnvi0117532
cnvi0117533
cnvi0117535
cnvi0117536
cnvi0117537
cnvi0117539
cnvi0117540
cnvi0117541
cnvi0117542
cnvi0117546
cnvi0117547
cnvi0117548
cnvi0117549
cnvi0117550
cnvi0117551
cnvi0117552
cnvi0117553
cnvi0117554
cnvi0117556
cnvi0117557
cnvi0117559
cnvi0117560
cnvi0117562
cnvi0117563
cnvi0117565
cnvi0117567
cnvi0117569
cnvi0117570
cnvi0117571
cnvi0117575
cnvi0117576
cnvi0117577
cnvi0117580
cnvi0117581
cnvi0117584
cnvi0117585
cnvi0117586
cnvi0117587
cnvi0117588
cnvi0117590
cnvi0117591
cnvi0117592
cnvi0117593
cnvi0117594
cnvi0117595
cnvi0117596
cnvi0117597
cnvi0117598
cnvi0117599
cnvi0117600
cnvi0117602
cnvi0117603
cnvi0117605
cnvi0117606
cnvi0117607
cnvi0117608
cnvi0117609
cnvi0117610
cnvi0117611
cnvi0117612
cnvi0117613
cnvi0117614
cnvi0117616
cnvi0117617
cnvi0117618
cnvi0117619
cnvi0117620
cnvi0117622
cnvi0117623
cnvi0117624
cnvi0117625
cnvi0117626
cnvi0117627
cnvi0117628
cnvi0117629
cnvi0117630
cnvi0117632
cnvi0117633
cnvi0117634
cnvi0117635
cnvi0117637
cnvi0117638
cnvi0117639
cnvi0117640
cnvi0117641
cnvi0117642
cnvi0117644
cnvi0117645
cnvi0117647
cnvi0117648
cnvi0117649
cnvi0117652
cnvi0117654
cnvi0117655
cnvi0117656
cnvi0117658
cnvi0117659
cnvi0117660
cnvi0117662
cnvi0117664
cnvi0117665
cnvi0117666
cnvi0117667
cnvi0117668
cnvi0117669
cnvi0117670
cnvi0117671
cnvi0117672
cnvi0117674
cnvi0117675
cnvi0117677
cnvi0117678
cnvi0117679
cnvi0117680
cnvi0117682
cnvi0117683
cnvi0117684
cnvi0117685
cnvi0117686
cnvi0117687
cnvi0117690
cnvi0117692
cnvi0117693
cnvi0117694
cnvi0117695
cnvi0117696
cnvi0117697
cnvi0117698
cnvi0117699
cnvi0117700
cnvi0117701
cnvi0117702
cnvi0117703
cnvi0117704
cnvi0117705
cnvi0117706
cnvi0117709
cnvi0117711
cnvi0117712
cnvi0117713
cnvi0117714
cnvi0117715
cnvi0117716
rs10003413
rs1000373
rs10007855
rs10010423
rs10011590
rs10015799
rs10023425
rs1002793
rs10030005
rs10036886
rs10038170
rs10042703
rs10042881
rs1004353
rs10044031
rs10045762
rs10047960
rs10050713
rs10051690
rs10054105
rs10059222
rs10063061
rs10065876
rs10069119
rs10069531
rs10071435
rs10074911
rs10079401
rs1008563
rs1008835
rs10088394
rs10088861
rs10088949
rs1009128
rs1009153
rs10092807
rs10092876
rs10094941
rs10094981
rs10095924
rs10099034
rs10100593
rs10102855
rs10105845
rs10106924
rs10107666
rs10112772
rs10112939
rs10113741
rs10116105
rs1011669
rs10120252
rs10122927
rs10125538
rs10128711
rs10129176
rs10130812
rs10131167
rs10132268
rs10133043
rs10136804
rs1013888
rs10139817
rs10142526
rs10144954
rs10145014
rs10146661
rs1014988
rs1014995
rs10151267
rs10152580
rs10153686
rs10153955
rs10156375
rs10158153
rs10158570
rs1015896
rs10164335
rs1016586
rs10166677
rs10181293
rs10181857
rs10183301
rs10184263
rs10188973
rs10189267
rs10190743
rs10191266
rs10196671
rs10196774
rs10197833
rs10204710
rs10206100
rs1020689
rs1020884
rs1021420
rs10215963
rs10218297
rs10219498
rs10220279
rs10224365
rs10233701
rs10235648
rs1023742
rs10238421
rs1023921
rs10241609
rs10242296
rs1024350
rs10245760
rs10247269
rs10247772
rs10248417
rs10248618
rs10250544
rs10264143
rs10265027
rs10266306
rs1026652
rs10267374
rs10267583
rs10270627
rs10272110
rs10272338
rs10274869
rs10275022
rs10281107
rs10281361
rs1031436
rs1032601
rs1033113
rs1033195
rs1039282
rs10401848
rs1040362
rs10405210
rs10405376
rs10409248
rs10409801
rs10410062
rs10411642
rs10411996
rs1041210
rs10415451
rs10418141
rs10419486
rs10419948
rs10421933
rs10422196
rs1042445
rs10425110
rs10425915
rs10426895
rs10426971
rs10430510
rs1043235
rs10436791
rs10436792
rs1044467
rs10444869
rs10446738
rs10449119
rs10453796
rs10456214
rs10457556
rs10458479
rs10460005
rs10461984
rs10464079
rs10465457
rs10470840
rs10484218
rs10484556
rs10489055
rs10489452
rs10489858
rs10490297
rs10492789
rs10495502
rs10500896
rs10500898
rs10501529
rs10503282
rs10503748
rs10504892
rs10504926
rs10504938
rs10508768
rs10508908
rs10509957
rs10511546
rs10511835
rs10512242
rs10512267
rs10512902
rs10512972
rs10513425
rs10513458
rs10515332
rs10516659
rs10517780
rs10518276
rs10521004
rs10521650
rs1058254
rs1058348
rs1065479
rs10732432
rs10737772
rs10751386
rs10754760
rs10754789
rs10759461
rs1076160
rs10764063
rs1076483
rs10767383
rs10770888
rs10771001
rs10771867
rs10773901
rs10774021
rs10774502
rs10776862
rs10778155
rs10780262
rs10780625
rs10784570
rs10785874
rs10786666
rs10788144
rs10788484
rs10788637
rs10790841
rs10791399
rs10791923
rs10792230
rs10798648
rs10805232
rs10806750
rs10808374
rs10810049
rs10810368
rs10812732
rs10813766
rs10814651
rs10815561
rs10819601
rs10819628
rs10822202
rs10826167
rs10829764
rs10831551
rs10833635
rs10837435
rs10839335
rs10839401
rs10841049
rs10842162
rs10843566
rs10844824
rs10846684
rs10847839
rs10848351
rs10849653
rs10850132
rs10852073
rs10853286
rs10857475
rs10860431
rs10862984
rs10863210
rs10863493
rs10865489
rs10868177
rs10869554
rs10881495
rs10885987
rs10886994
rs10887364
rs10888382
rs10888807
rs10892026
rs10892841
rs10893040
rs10894113
rs10894200
rs10896171
rs10896612
rs10897610
rs10903086
rs10903273
rs1091679
rs1091811
rs10919033
rs10920155
rs10921671
rs10923939
rs10924216
rs10926688
rs10929904
rs10930692
rs10931523
rs10932706
rs10936110
rs10937669
rs10943080
rs10944217
rs10944575
rs10944597
rs10945764
rs10946813
rs10950039
rs10953513
rs10956241
rs10956600
rs10958358
rs10960376
rs10975462
rs10975590
rs10975765
rs10985563
rs10992546
rs11007614
rs11011514
rs11012151
rs11013893
rs11015404
rs11015696
rs11017728
rs11017759
rs11023444
rs11024151
rs11026277
rs11028634
rs11031538
rs11033410
rs11033542
rs11033931
rs11034365
rs11037175
rs11038118
rs11038565
rs11040390
rs11040480
rs11040482
rs11044474
rs11046708
rs11046816
rs11047215
rs11050642
rs11050644
rs11051834
rs1105520
rs11058991
rs11060444
rs11061441
rs11061501
rs11064342
rs11070743
rs11070884
rs11073046
rs11076572
rs11076699
rs11076713
rs11077627
rs11077981
rs11078360
rs11080759
rs11083357
rs11083692
rs11086407
rs11089102
rs1109105
rs11096438
rs11097368
rs11099666
rs11100576
rs11113612
rs11119085
rs11120755
rs11122563
rs11122654
rs11123663
rs11124975
rs11128198
rs11130857
rs11132000
rs11132008
rs11132538
rs11133161
rs11134452
rs1113523
rs11136786
rs11137379
rs11145951
rs11149661
rs11154022
rs11154032
rs1116016
rs11161360
rs11166679
rs11167956
rs11170807
rs11172973
rs1117688
rs1118472
rs1118474
rs11185274
rs11185345
rs1119745
rs11204951
rs11206266
rs11206583
rs11209181
rs11209643
rs11211422
rs11216137
rs11221653
rs11229259
rs11231328
rs11232900
rs11232962
rs11238131
rs11245243
rs11250168
rs11251728
rs11251793
rs11263677
rs11263683
rs11263693
rs1143407
rs1146714
rs11486384
rs11506105
rs11514814
rs1152562
rs1153105
rs1153987
rs1154533
rs11557467
rs1155876
rs11562709
rs11563766
rs11564346
rs1156534
rs1156770
rs11577190
rs11579934
rs11580465
rs11582105
rs11584660
rs11585727
rs1158683
rs11587779
rs11589672
rs11590559
rs11590781
rs11595308
rs11597392
rs11602192
rs1160251
rs11605047
rs11613082
rs11613214
rs11616757
rs11620043
rs11621159
rs11622958
rs11624216
rs11624734
rs11626438
rs11626849
rs11627740
rs11628035
rs11633285
rs11635703
rs11636298
rs11636374
rs11637116
rs11638297
rs11638579
rs11639532
rs11641077
rs11646857
rs11648316
rs11649134
rs11653385
rs11654191
rs11657497
rs11660926
rs11662125
rs11665148
rs11668640
rs1166907
rs11669293
rs11676712
rs1167772
rs11679410
rs11679463
rs11682523
rs11686630
rs11689695
rs11691767
rs11694802
rs11698353
rs11702992
rs11704333
rs11704398
rs11704841
rs11715118
rs11715386
rs11717023
rs11722162
rs11723228
rs11725084
rs11726005
rs11726880
rs11727812
rs11728319
rs11730653
rs11745572
rs11745668
rs11747396
rs11748217
rs11750900
rs11756310
rs1175854
rs11761500
rs11771285
rs11776929
rs11779052
rs11782642
rs11782776
rs11783633
rs11786566
rs11788273
rs11788920
rs11790203
rs11790829
rs11795294
rs11796271
rs11796624
rs11798375
rs11799083
rs11799099
rs11799128
rs11799142
rs11799154
rs11799247
rs11801589
rs11801995
rs11804969
rs11805750
rs11807606
rs11811243
rs11811369
rs11811440
rs11812237
rs11813775
rs11816696
rs11823503
rs11827471
rs1183253
rs11833990
rs11834116
rs11851852
rs11852590
rs11854416
rs11855314
rs11860090
rs11865740
rs11868128
rs11868634
rs11868787
rs11869956
rs11870695
rs11875152
rs11880378
rs11880598
rs1188142
rs11881993
rs11884936
rs11887903
rs11889709
rs1189443
rs1189852
rs11899126
rs11901946
rs11902930
rs11909895
rs11914676
rs11915891
rs11916879
rs11917489
rs11917612
rs11917907
rs11918263
rs11920675
rs11922608
rs11923612
rs11926768
rs1192691
rs11927652
rs11960210
rs11960755
rs11971358
rs11971511
rs11974051
rs11977829
rs11979474
rs11984719
rs11990117
rs11990887
rs11992115
rs11996523
rs11996948
rs11997562
rs11997619
rs11997773
rs11999447
rs11999707
rs12005280
rs12011757
rs1201981
rs12021056
rs12022610
rs12025797
rs12026014
rs12026930
rs12030083
rs12033862
rs12034186
rs12044991
rs12059907
rs12070926
rs12077589
rs12077687
rs12081603
rs12083349
rs12091679
rs12096753
rs12098045
rs12100994
rs12114950
rs12116389
rs12116395
rs12116399
rs12116403
rs12118252
rs1212167
rs12121903
rs12124429
rs12124774
rs12129723
rs12131645
rs12135103
rs12135375
rs12136206
rs12141568
rs12142528
rs12144794
rs12146811
rs12149938
rs12155095
rs12155784
rs12157056
rs12157288
rs12159248
rs12162044
rs12162215
rs12162290
rs12164452
rs12164453
rs12164459
rs12167621
rs12168212
rs1217356
rs12175103
rs12184326
rs12184495
rs12187665
rs12188479
rs12189576
rs12193017
rs12202060
rs12210556
rs12213619
rs12226373
rs12233980
rs12238959
rs12253404
rs12256403
rs12258450
rs12264034
rs12272328
rs12280718
rs12286316
rs12286318
rs12302503
rs12303398
rs12308416
rs12329946
rs12337908
rs12338099
rs12339850
rs12343663
rs1235146
rs12353109
rs1236844
rs12373800
rs12409037
rs12410782
rs12411198
rs12413246
rs12419230
rs12420650
rs12431557
rs12432600
rs12434244
rs12440174
rs12440234
rs12442070
rs12442532
rs12442679
rs12447656
rs12449981
rs12458331
rs12459395
rs12460069
rs12460101
rs12461897
rs12462695
rs12463385
rs1246346
rs12467399
rs12467791
rs12472540
rs12475536
rs12475881
rs12477771
rs12479176
rs12480094
rs12482524
rs12486903
rs12490796
rs12492057
rs12492960
rs12493462
rs12494868
rs12496585
rs12496855
rs12504979
rs12506322
rs12509742
rs12514199
rs12517600
rs12518592
rs12519679
rs12523149
rs12525341
rs12528768
rs12529915
rs12532519
rs12533185
rs12535987
rs12536508
rs12537365
rs12539224
rs1254086
rs12542835
rs12542950
rs12542951
rs12543145
rs12544727
rs12546671
rs12549065
rs12550443
rs12572355
rs12575552
rs12577477
rs12577788
rs12580300
rs1258768
rs12600754
rs12602084
rs12602546
rs12602864
rs12606391
rs12607847
rs12608478
rs12608899
rs12610670
rs12611894
rs12613133
rs12613305
rs12613332
rs12614422
rs12618647
rs12619737
rs12622674
rs12623182
rs12627168
rs12628163
rs12630707
rs12637831
rs1264040
rs12640600
rs12647338
rs12653128
rs12657530
rs12659054
rs1266469
rs12667184
rs12668140
rs12679827
rs12680588
rs12681103
rs12684893
rs12690432
rs12702255
rs12704096
rs12714289
rs12736318
rs12738895
rs12742768
rs12745456
rs12775238
rs12784986
rs1278610
rs12793200
rs12797197
rs12800734
rs12811865
rs12817611
rs12826280
rs12838100
rs1285561
rs12864419
rs12864890
rs12875461
rs12881813
rs12882084
rs12883810
rs12900523
rs12906707
rs12910918
rs12911815
rs12912444
rs12914428
rs12914657
rs12920871
rs1293087
rs12933008
rs12937211
rs12939173
rs12941494
rs1294319
rs12944998
rs12958298
rs12971502
rs12974988
rs12981916
rs12994565
rs12996109
rs13000417
rs13007341
rs13013988
rs13018654
rs13022065
rs13024907
rs13042613
rs13047971
rs13049248
rs13053885
rs13053962
rs13056441
rs13070928
rs13072902
rs13075089
rs13080107
rs13080773
rs13082041
rs13085813
rs13086387
rs13088555
rs13090570
rs1309544
rs13102653
rs13109476
rs13109751
rs13112750
rs13119573
rs13119598
rs13123245
rs13123762
rs13127001
rs13127767
rs13128882
rs13150807
rs13152961
rs13154138
rs13165191
rs13182804
rs13185422
rs131919
rs13194034
rs13194120
rs13197025
rs13200571
rs13206199
rs13211922
rs13218852
rs13219016
rs1322280
rs13223593
rs13226164
rs13226516
rs13226989
rs13228725
rs13229781
rs132413
rs13242894
rs13247208
rs13248874
rs1325060
rs13250784
rs13251088
rs13251387
rs13251949
rs13251961
rs13252649
rs1325311
rs13253786
rs13256194
rs13256575
rs13261335
rs13264750
rs13265356
rs13266795
rs13266825
rs132675
rs13269842
rs1327275
rs13275955
rs13283039
rs1329801
rs13303389
rs13303390
rs13303397
rs13303410
rs13303464
rs13303466
rs13303517
rs13303606
rs13303634
rs13303656
rs13303673
rs13303680
rs13303701
rs13303708
rs13303738
rs13303748
rs13303753
rs13303763
rs13303799
rs13303879
rs13303884
rs13303905
rs13303925
rs13303932
rs13303972
rs13303977
rs13303979
rs13304000
rs13304071
rs13304118
rs13304168
rs13304228
rs13304230
rs13304246
rs13304249
rs13304252
rs13304278
rs13304289
rs13304321
rs13304333
rs13304338
rs13304377
rs13304434
rs13304440
rs13304453
rs13304460
rs13304503
rs13304505
rs13304584
rs13304588
rs13304589
rs13304590
rs13304612
rs13304613
rs13304697
rs13304713
rs13304714
rs13304727
rs13304742
rs13304772
rs13304775
rs13304776
rs13304780
rs13304812
rs13304823
rs13304856
rs13304875
rs13304878
rs13304885
rs13304889
rs13304921
rs13304940
rs13304962
rs13304964
rs13304977
rs13304983
rs13305036
rs13305041
rs13305070
rs13305091
rs13305121
rs13305128
rs13305133
rs13305177
rs13305185
rs13305192
rs13305198
rs13305211
rs13305229
rs13305230
rs13305236
rs13305253
rs13305257
rs13305265
rs13305266
rs13305273
rs13305311
rs13305317
rs13305324
rs13305345
rs13305348
rs13305356
rs13305400
rs13305420
rs13305450
rs13305453
rs13305464
rs13305472
rs13305522
rs13305559
rs13305634
rs13305649
rs13305735
rs13305752
rs13305767
rs13305772
rs13305835
rs13305858
rs13305861
rs13305872
rs13305883
rs13305902
rs13305908
rs13305912
rs13305940
rs13305952
rs13305953
rs13305962
rs13306861
rs13309515
rs1331234
rs13314698
rs133198
rs13324120
rs13329472
rs13331353
rs13336597
rs133398
rs13339977
rs1337241
rs13376881
rs13380139
rs13381022
rs13381445
rs13381681
rs1338442
rs13385636
rs13386452
rs13386910
rs13389796
rs13390052
rs13391359
rs13398657
rs13404055
rs13407679
rs13411633
rs13415733
rs13424136
rs13424875
rs1342738
rs13429172
rs13430786
rs13431169
rs13432136
rs13438931
rs1344459
rs1348255
rs1352460
rs1356438
rs1356732
rs1357088
rs1357961
rs1366444
rs1367446
rs1369716
rs1369775
rs1372101
rs1373325
rs1378699
rs13822
rs138280
rs1383395
rs1383595
rs138564
rs1387195
rs1388100
rs138872
rs1388845
rs1390343
rs1395336
rs1396696
rs1398339
rs140005
rs1400612
rs1401312
rs1406620
rs1408892
rs1410135
rs1410688
rs1411097
rs1411835
rs1412851
rs1415808
rs1420312
rs1420803
rs1422361
rs1423706
rs1424701
rs1426511
rs1427538
rs1428550
rs1430005
rs1434216
rs1435906
rs1436038
rs1439408
rs1439992
rs14407
rs1442401
rs1444461
rs1444642
rs1446044
rs1446057
rs1446653
rs1449524
rs1450136
rs1452606
rs1455090
rs1462030
rs1462355
rs1462476
rs1468935
rs1469597
rs1473312
rs1473416
rs1474926
rs1475784
rs1477054
rs1478556
rs1478804
rs1479765
rs1482370
rs1489735
rs1490547
rs1491485
rs1495083
rs149676
rs1497716
rs1498957
rs1504031
rs1505659
rs1508377
rs1510435
rs1510960
rs1511124
rs151228
rs1515968
rs1517250
rs1518805
rs1518933
rs1521550
rs1521937
rs1524845
rs1532310
rs1537577
rs154522
rs1546564
rs1547140
rs1548395
rs1549287
rs1549988
rs1550087
rs1552426
rs1555171
rs1556191
rs1556246
rs155688
rs1557646
rs1559019
rs1560251
rs1562143
rs1564186
rs1567482
rs1567529
rs1568332
rs1571526
rs1582403
rs1583950
rs1584750
rs1587180
rs1592016
rs1594316
rs1596134
rs1596773
rs1597644
rs1600718
rs160679
rs1607075
rs1612605
rs1615810
rs1615832
rs16166
rs1621632
rs1631637
rs163199
rs163369
rs1635571
rs163642
rs1638127
rs1638626
rs1646430
rs16478
rs164913
rs1663187
rs1668154
rs1674067
rs16837018
rs16843169
rs16847208
rs16852499
rs16853243
rs16853281
rs16853927
rs1685514
rs16860896
rs1686103
rs16865056
rs16866773
rs16871652
rs16873076
rs16875047
rs16877682
rs16879209
rs16879958
rs16881929
rs16882167
rs16883500
rs168848
rs16886509
rs16886607
rs1688884
rs16891361
rs16894311
rs16906865
rs16909808
rs16910288
rs16911799
rs16912471
rs16922425
rs16932110
rs16933812
rs16940610
rs16943136
rs16949286
rs16949298
rs16950769
rs16951285
rs16968809
rs16969986
rs16974342
rs16980109
rs16980278
rs16980401
rs16980467
rs16980551
rs16980589
rs16980711
rs16982275
rs16984291
rs16988208
rs16988712
rs16990104
rs16990312
rs16995302
rs17000581
rs17005253
rs17005384
rs17007452
rs17014505
rs17016187
rs17016341
rs17016696
rs17018270
rs17018690
rs17020988
rs17025096
rs17031090
rs17034230
rs17034716
rs17044499
rs17051284
rs17056275
rs1705699
rs17061875
rs17065334
rs17071395
rs17080549
rs17082547
rs17086773
rs17089747
rs17093
rs1709835
rs1710456
rs171060
rs17120795
rs17122212
rs17123151
rs17144373
rs17145150
rs17146851
rs17149002
rs17161492
rs17162040
rs17162074
rs1718471
rs17194068
rs17197444
rs17205603
rs17216204
rs17222573
rs17230081
rs17236391
rs17239865
rs17247999
rs17248761
rs17249974
rs1726178
rs17263395
rs17277692
rs1728109
rs17282011
rs17288561
rs17306649
rs17306692
rs17306699
rs17307252
rs17307294
rs17315835
rs17316031
rs17326685
rs17343266
rs17355260
rs1737567
rs17381669
rs17382358
rs17410217
rs17444084
rs17454451
rs17465956
rs17466747
rs17471917
rs17474196
rs17492422
rs17495916
rs1754164
rs17549313
rs1756076
rs17574959
rs1758653
rs17616508
rs17618372
rs1762574
rs17627219
rs17630266
rs17634234
rs1764392
rs17653677
rs17671037
rs1768562
rs1769229
rs17716892
rs17727484
rs1772905
rs17753354
rs17764652
rs17773129
rs1778170
rs17801001
rs1780145
rs17817878
rs17818016
rs17833451
rs17841902
rs17842635
rs17860804
rs17862811
rs1786368
rs1786427
rs1786434
rs179164
rs1791845
rs1792278
rs1792876
rs1797733
rs1808318
rs1812590
rs1813771
rs1815524
rs1815782
rs1816284
rs1819578
rs1820552
rs1821539
rs1822399
rs1823616
rs1823746
rs1824569
rs1825312
rs1825741
rs1826795
rs1828055
rs1829021
rs1833407
rs1834223
rs1838676
rs184004
rs184273
rs184789
rs1849659
rs1849851
rs1850477
rs1852687
rs1854716
rs1854717
rs1854725
rs1854787
rs1859022
rs1859369
rs1865697
rs1866245
rs1866537
rs1868584
rs1870519
rs1873745
rs1873982
rs1874064
rs1875785
rs1876275
rs1877281
rs1881647
rs1881822
rs1882214
rs1882684
rs1884029
rs1885508
rs1886032
rs1889058
rs1889377
rs1893556
rs1894242
rs1894306
rs1895264
rs1896549
rs1896726
rs1897912
rs1898142
rs1899077
rs1899688
rs1900005
rs1900416
rs1900664
rs1900938
rs1902300
rs1902452
rs1905776
rs1908158
rs1909550
rs1911223
rs1912321
rs1912721
rs1913832
rs1914760
rs1915872
rs1916105
rs1917179
rs1920509
rs1921519
rs1921658
rs1929728
rs1929896
rs1933709
rs1934346
rs1939911
rs1940646
rs1943381
rs1945424
rs194566
rs194741
rs194869
rs1948796
rs1949034
rs1950223
rs1950704
rs1953207
rs1954097
rs1955970
rs1956815
rs1958022
rs1958925
rs1959997
rs1968924
rs1969051
rs1970607
rs1970748
rs197142
rs1971707
rs1971720
rs1975979
rs1976403
rs1978604
rs1978786
rs1981790
rs1983387
rs1984001
rs1985840
rs1987078
rs1987290
rs1990405
rs1992039
rs1992205
rs1992756
rs1995841
rs1997046
rs199714
rs2000995
rs2001516
rs2002212
rs2009283
rs2014059
rs201432
rs2016395
rs2017021
rs2018349
rs2018562
rs2022167
rs2024254
rs2024420
rs2029569
rs2030041
rs2031565
rs20319
rs2032599
rs2032602
rs2032633
rs2035256
rs203848
rs2039273
rs2040
rs2040195
rs2040464
rs204168
rs2041954
rs2043630
rs2044078
rs2045046
rs2048291
rs2050062
rs2051060
rs2051489
rs2052200
rs2053899
rs2056150
rs2058586
rs2060260
rs2060920
rs2062220
rs2063589
rs2063848
rs2070384
rs2073670
rs2073815
rs2073927
rs2074924
rs2075070
rs2075093
rs2075182
rs2075678
rs2077576
rs2080261
rs2081051
rs2081989
rs2082033
rs2082891
rs2083098
rs2085287
rs2087108
rs2088500
rs2090852
rs2092541
rs2096366
rs2097432
rs2097892
rs2099005
rs2099684
rs2100099
rs2101809
rs2104774
rs2104933
rs2106885
rs2107698
rs2111725
rs2112807
rs2112812
rs2116675
rs2117844
rs2117930
rs2118033
rs2119377
rs2119445
rs2123518
rs2124426
rs2124427
rs2138086
rs2139700
rs2141607
rs2148261
rs2153903
rs2154589
rs2156796
rs2157337
rs2158044
rs2159130
rs2159940
rs2159953
rs2160430
rs216108
rs2162754
rs2163209
rs2163750
rs2164497
rs216507
rs216616
rs2167643
rs2168813
rs2169692
rs2173432
rs2178500
rs2179382
rs2181324
rs218137
rs2184401
rs2184970
rs2192130
rs2192347
rs219457
rs2195078
rs2195167
rs2195418
rs2196755
rs2199411
rs2201144
rs2201476
rs2203686
rs2205512
rs2207541
rs220949
rs2214688
rs221503
rs2215794
rs2218226
rs2222605
rs2224828
rs2231454
rs2235275
rs2239319
rs2240279
rs2240492
rs2240743
rs2240839
rs2241039
rs2241625
rs2245368
rs2251494
rs2251901
rs2252423
rs2252460
rs2253225
rs2254400
rs2254715
rs2256241
rs2256560
rs2257611
rs2258726
rs2258880
rs2259614
rs2260407
rs2261059
rs2261251
rs2263272
rs2268548
rs2269240
rs2280798
rs228094
rs2282017
rs2282576
rs2285085
rs2287114
rs2289817
rs2289819
rs2289823
rs2289824
rs2292933
rs2293042
rs2295089
rs2295133
rs2300855
rs2301472
rs2305154
rs2306837
rs2311174
rs2311237
rs2311451
rs2311653
rs2311659
rs2311660
rs2311686
rs2311691
rs2312129
rs2316180
rs2318495
rs231899
rs2319167
rs2319537
rs2319870
rs2320289
rs2321744
rs2323006
rs2323830
rs2323857
rs2323944
rs2329371
rs2330040
rs2330668
rs2336919
rs2336922
rs2336954
rs2337303
rs2337306
rs2337308
rs2337309
rs233734
rs2337345
rs2337353
rs2337635
rs2338136
rs2338656
rs2338696
rs2344114
rs234439
rs2345049
rs2347132
rs2349826
rs2349829
rs2350215
rs2350216
rs2351655
rs2351988
rs2351996
rs2352023
rs2352338
rs2352363
rs2352675
rs2352689
rs2352698
rs2352705
rs2353174
rs2353974
rs2354314
rs2355125
rs2356112
rs2356115
rs2360192
rs2360247
rs2360250
rs2361026
rs2361116
rs2365736
rs2367315
rs2369217
rs2369634
rs2370220
rs2372179
rs2372735
rs2375523
rs2378274
rs2381233
rs2381234
rs2381241
rs2381250
rs2381252
rs2381273
rs2381340
rs2383089
rs2383658
rs2383886
rs2386861
rs2387038
rs2387356
rs2391175
rs2391295
rs2395926
rs2396225
rs2396812
rs2396947
rs2405806
rs2407596
rs2407910
rs2410113
rs2410377
rs2413685
rs2414342
rs241547
rs2418891
rs2424598
rs242763
rs2429700
rs2429715
rs2430809
rs243118
rs2431686
rs2432185
rs2432898
rs2433783
rs2433932
rs2433972
rs2435103
rs2435397
rs2435402
rs2435414
rs2435568
rs2435669
rs2435738
rs2435746
rs2435805
rs2435816
rs2436264
rs2436284
rs2437446
rs2437539
rs2437563
rs2441307
rs2444484
rs2444535
rs2444889
rs2445644
rs2446070
rs2446072
rs2448643
rs2450615
rs2450697
rs2452042
rs2452406
rs2456015
rs2457755
rs2459658
rs2466051
rs2470408
rs2471630
rs2477779
rs248278
rs2482789
rs2496827
rs2496983
rs2497587
rs2498756
rs2499279
rs2499618
rs2500841
rs2500862
rs2500889
rs2500901
rs2500927
rs2505081
rs2505613
rs2505883
rs2506251
rs2507980
rs251353
rs2516714
rs2517441
rs2520161
rs2521059
rs2521070
rs2521979
rs2522217
rs2524627
rs2524696
rs2524798
rs2527710
rs2528542
rs2529106
rs2530606
rs2530763
rs2532228
rs2532348
rs2533952
rs2534037
rs2534054
rs2534058
rs2534077
rs2534083
rs2534086
rs2534087
rs2534091
rs2534105
rs2534107
rs2534110
rs2534113
rs2534120
rs2534123
rs2534127
rs2534129
rs2534131
rs2534139
rs2534170
rs2534172
rs2534184
rs2534193
rs2534202
rs2534204
rs2534215
rs2534216
rs2534219
rs2534221
rs2534231
rs2534234
rs2534249
rs2534250
rs2534251
rs2534258
rs2534263
rs2534265
rs2534266
rs2534267
rs2534269
rs2534273
rs2534277
rs2534349
rs2534351
rs2534352
rs2534356
rs2534378
rs2534379
rs2534380
rs2534415
rs2534425
rs2534434
rs2534436
rs2534460
rs2534463
rs253447
rs2534470
rs2534472
rs2534498
rs2534508
rs2534541
rs2534875
rs2534879
rs2534881
rs2534885
rs2534886
rs2534889
rs2534894
rs2534904
rs2534907
rs2534912
rs2534921
rs2534933
rs2534934
rs2534940
rs2534953
rs2534994
rs2535071
rs2535075
rs2535077
rs2535084
rs2535086
rs2535089
rs2535099
rs2535110
rs2535111
rs2535112
rs2535127
rs2535130
rs2535132
rs2535152
rs2535185
rs2535188
rs2535189
rs2535198
rs2535201
rs2535833
rs2538851
rs2538883
rs2539499
rs2539652
rs2540265
rs2540269
rs2540375
rs2540395
rs2540774
rs2541176
rs2541886
rs2543398
rs254347
rs2545083
rs2545918
rs2546839
rs255025
rs2552565
rs2552594
rs2552612
rs2552643
rs2552656
rs2552679
rs2552787
rs2552847
rs2552893
rs2552910
rs2552931
rs2552933
rs2552943
rs2554583
rs2555036
rs2555797
rs2555849
rs2555850
rs2555852
rs2555854
rs2555857
rs2555866
rs2555867
rs2555870
rs2555873
rs2555874
rs2555875
rs2555876
rs2555877
rs2555884
rs2555888
rs2555889
rs2555891
rs2555900
rs2555902
rs2555905
rs2555908
rs2555915
rs2556012
rs2556048
rs2556647
rs2556648
rs2556650
rs2556655
rs2556662
rs2556763
rs2556782
rs2556866
rs2556934
rs2557022
rs2557097
rs2557161
rs2557287
rs2557384
rs2557460
rs2557489
rs2557512
rs2557546
rs2557607
rs2557673
rs2557743
rs2557753
rs2557815
rs2557826
rs2557887
rs2558217
rs2558253
rs2558311
rs2558349
rs2558396
rs2558400
rs2558449
rs2558496
rs2558500
rs2558511
rs2558554
rs2558607
rs2558609
rs2558617
rs2558702
rs2558796
rs2558810
rs2558854
rs2558889
rs2558923
rs2558944
rs2558965
rs2559020
rs2559041
rs2559116
rs2559180
rs2559269
rs2559362
rs2559391
rs2559450
rs2559468
rs2559479
rs2559490
rs2562976
rs2562982
rs2563006
rs2563046
rs2563056
rs2563085
rs2563121
rs2563143
rs2563160
rs2563189
rs2563195
rs2563347
rs2563458
rs2563551
rs2563610
rs2563647
rs2563677
rs2563719
rs2563756
rs2564151
rs2564178
rs2564190
rs2564247
rs2564290
rs2564356
rs2564919
rs2565228
rs2565254
rs2565264
rs2565281
rs2565439
rs2565560
rs2565600
rs2565737
rs2565777
rs2565857
rs2565895
rs2565943
rs2565963
rs2566040
rs2566081
rs2566584
rs2566603
rs2566661
rs2568637
rs2568785
rs2568800
rs2568807
rs2568810
rs2568814
rs2571668
rs2571680
rs2571704
rs2571726
rs2571731
rs2571811
rs2571934
rs2571959
rs2571981
rs2573083
rs2573743
rs2573754
rs2573770
rs2573791
rs2573804
rs2573829
rs2573846
rs2573901
rs2573936
rs2573959
rs2574223
rs2574252
rs2574276
rs2574308
rs2574360
rs2574413
rs2574431
rs2574498
rs2574514
rs2574619
rs2574647
rs2575548
rs2577098
rs257769
rs2578189
rs2578275
rs2578721
rs2578746
rs2578770
rs2578887
rs2578902
rs2578912
rs2578978
rs2580612
rs2580639
rs2580701
rs2581704
rs258879
rs2591455
rs2592297
rs259401
rs2594569
rs2594572
rs2594573
rs2594575
rs2594598
rs2594603
rs2594624
rs2594630
rs2594643
rs2596477
rs2597330
rs2597503
rs2602323
rs2602728
rs2602948
rs2605144
rs2608329
rs2608332
rs2608337
rs2608339
rs2608345
rs2608353
rs2608357
rs2608359
rs2608367
rs2608370
rs2608371
rs2608381
rs2608382
rs2608391
rs2615828
rs2616139
rs2624
rs2628515
rs2628554
rs2629043
rs2630207
rs2631108
rs2631613
rs2632872
rs2632889
rs2632899
rs2632958
rs2636611
rs2636803
rs2637475
rs2639197
rs2641366
rs2641995
rs264498
rs2645124
rs2645166
rs2645185
rs2645191
rs2647551
rs2651520
rs2652925
rs2652926
rs2653040
rs2653053
rs2653068
rs2653123
rs2653125
rs2653135
rs2666838
rs2673401
rs267348
rs2675899
rs267972
rs268335
rs268349
rs268416
rs2689213
rs2690775
rs2690790
rs2690811
rs2700830
rs2701693
rs2701746
rs2704681
rs2704737
rs2704839
rs2705163
rs270553
rs2707551
rs2709317
rs2710017
rs2713251
rs2718930
rs2719020
rs2720596
rs2721230
rs2722650
rs2723708
rs272565
rs2729878
rs2730373
rs2730377
rs2730386
rs2730389
rs2730402
rs2730549
rs2732936
rs27341
rs2734350
rs2736012
rs274029
rs2741173
rs2744229
rs2745749
rs274692
rs2747329
rs2750380
rs2750877
rs2750891
rs2751532
rs2751547
rs2751793
rs2752056
rs2752082
rs2752086
rs2752109
rs275351
rs275499
rs2755371
rs2756747
rs2756870
rs2757168
rs2757192
rs2757230
rs2757363
rs2757450
rs2757838
rs2759044
rs2759771
rs2759967
rs2760035
rs2760626
rs2763900
rs276511
rs276747
rs2774399
rs2782434
rs278536
rs2786714
rs2792379
rs2793434
rs279953
rs279955
rs2804545
rs280715
rs280771
rs2807863
rs2808678
rs2809849
rs2815251
rs2822012
rs2822394
rs2823035
rs2826259
rs2826487
rs2826694
rs2827389
rs2829790
rs2831375
rs2832348
rs2832813
rs2835666
rs2835831
rs28360853
rs2836992
rs28373555
rs2838733
rs28392552
rs2840613
rs28413130
rs28413849
rs28416965
rs284316
rs2844588
rs2844792
rs28477899
rs28479387
rs28483266
rs2848412
rs28488221
rs28540767
rs28542474
rs28544926
rs28549298
rs28552791
rs2855286
rs28567721
rs28576321
rs28579540
rs28584376
rs2859808
rs28609261
rs28613190
rs28613306
rs28613779
rs28619231
rs28627534
rs28630478
rs28643418
rs28647534
rs28650290
rs2865289
rs28670611
rs2868248
rs28695965
rs28696944
rs2871401
rs2871833
rs287184
rs2872415
rs28729319
rs28738690
rs2874016
rs2874907
rs2875480
rs28756171
rs28765115
rs28780433
rs2880687
rs28809479
rs28817095
rs28819996
rs28821246
rs2883296
rs2883712
rs28845942
rs28850918
rs28852530
rs28854870
rs28857586
rs28866180
rs2887087
rs28874677
rs28891730
rs2890633
rs2890635
rs2890643
rs2890645
rs2890669
rs2890671
rs2890673
rs2890679
rs2894830
rs2897735
rs2900628
rs290586
rs2907832
rs2907839
rs2907849
rs2907879
rs2907890
rs2910393
rs2912031
rs2912648
rs2912651
rs2912654
rs2912657
rs2913094
rs2914281
rs2915010
rs2915711
rs2915729
rs2915730
rs2915743
rs2915744
rs2917229
rs2917383
rs2921263
rs2921685
rs2924418
rs2924424
rs2932021
rs2940803
rs294256
rs2946542
rs2947029
rs2949514
rs2951953
rs2959665
rs2959668
rs2959677
rs2959684
rs2959689
rs2959690
rs2959696
rs2959720
rs2959738
rs2959740
rs2959746
rs2959754
rs2959755
rs2959756
rs2959758
rs2959760
rs2960771
rs296168
rs2962073
rs2967758
rs296854
rs2970906
rs2971927
rs2985152
rs2992888
rs299648
rs3002213
rs3002517
rs3002897
rs3004047
rs3008604
rs3011731
rs3012258
rs3012372
rs3013811
rs301547
rs302990
rs304351
rs305095
rs30562
rs30593
rs3091805
rs309226
rs3093553
rs3093631
rs3094969
rs3096789
rs3096827
rs3096916
rs3096948
rs3096989
rs3097009
rs3097026
rs3097037
rs3097055
rs3097092
rs3097763
rs3098160
rs3098382
rs3099256
rs3100268
rs3100301
rs3100306
rs3100331
rs3100353
rs3100406
rs3100437
rs3100451
rs3100539
rs3100565
rs310098
rs3102584
rs3102607
rs3102655
rs3108462
rs3109148
rs3110573
rs3111537
rs3112497
rs3115769
rs3116310
rs3116334
rs3116357
rs3127640
rs3129945
rs3129951
rs31395
rs314710
rs31672
rs318454
rs319858
rs322442
rs323362
rs324540
rs326334
rs331280
rs33947
rs34000712
rs34003230
rs34006042
rs34008734
rs340271
rs34036068
rs34038582
rs34038993
rs34043621
rs34062339
rs34070749
rs34078387
rs34092747
rs34096739
rs34103210
rs34104054
rs34106612
rs34106727
rs34109115
rs34115221
rs34118740
rs34130614
rs34141902
rs34154135
rs34166944
rs34176029
rs34187670
rs341917
rs34198196
rs34201141
rs34208210
rs34213431
rs34217806
rs34223674
rs34227719
rs34230246
rs34230392
rs34234734
rs34244465
rs34257756
rs34258923
rs34265079
rs34266027
rs34266951
rs34281287
rs34281354
rs34288749
rs34302947
rs34307386
rs34312311
rs34315559
rs34316586
rs34323380
rs34340210
rs34348604
rs34351531
rs34355186
rs34379287
rs34397697
rs34403344
rs34406704
rs34410974
rs34412047
rs34412316
rs34412581
rs344136
rs34417285
rs344178
rs344179
rs344185
rs34418811
rs34443894
rs34448931
rs34451148
rs34452636
rs34456846
rs34465526
rs34471179
rs34481755
rs34490875
rs34492637
rs34498373
rs34510557
rs34528573
rs34529738
rs34538439
rs34552023
rs34555185
rs34568426
rs34570580
rs34572370
rs34578406
rs34588918
rs34590090
rs34590542
rs34597775
rs34619299
rs34624241
rs34625533
rs34639389
rs34645376
rs34649013
rs34655756
rs34659869
rs34671667
rs34681360
rs34683662
rs34708391
rs34716839
rs34729751
rs34732208
rs34750246
rs34766397
rs34770710
rs34782250
rs34784561
rs34786265
rs34787193
rs34792291
rs34801740
rs34813600
rs34817542
rs34820858
rs34829208
rs34829883
rs34830532
rs34841150
rs34844771
rs34848198
rs34848536
rs34849160
rs34857188
rs34880075
rs34885756
rs34891315
rs34894088
rs34895353
rs34896726
rs34921617
rs34937026
rs34939719
rs34941499
rs34944767
rs34944942
rs34946798
rs34954800
rs34968796
rs34971967
rs34984526
rs34987551
rs34988157
rs34989423
rs34991041
rs35021296
rs35023495
rs35042821
rs35051117
rs35051810
rs35052121
rs35057459
rs35060174
rs35076816
rs35077821
rs35082653
rs35088263
rs35094952
rs35096002
rs35098752
rs35100380
rs35101249
rs35106160
rs35118134
rs35140395
rs35144989
rs35156462
rs35156814
rs35159687
rs35171994
rs35179109
rs35181252
rs35186000
rs35187886
rs35221725
rs35222618
rs35222731
rs35232355
rs35244568
rs35245401
rs35246648
rs35262813
rs35271093
rs35276885
rs352810
rs35281088
rs35292426
rs35314739
rs35318546
rs35319251
rs35321921
rs35324435
rs35329820
rs35335782
rs35338492
rs35342598
rs35357133
rs35363707
rs35366495
rs35367741
rs35368481
rs35373387
rs35378279
rs35389848
rs35399129
rs35406077
rs35415757
rs35428794
rs35429819
rs35446201
rs35456374
rs35459856
rs35488403
rs35490628
rs35505736
rs35512970
rs35515420
rs35519160
rs35530072
rs35557642
rs35559747
rs35567819
rs35573930
rs35585714
rs35586
rs35599306
rs35614686
rs35617575
rs35617895
rs35632328
rs35645828
rs35649663
rs35650795
rs35660407
rs35679774
rs35687414
rs35695857
rs35698200
rs35706204
rs35708038
rs35711705
rs35720360
rs357331
rs35733966
rs35739255
rs35744469
rs35753566
rs35760950
rs35761702
rs35763346
rs35776033
rs35776485
rs35779181
rs35788081
rs35789350
rs35793252
rs35795588
rs35803004
rs35805521
rs35821851
rs35824283
rs35826973
rs35839841
rs35874960
rs35884642
rs35888591
rs35891712
rs35896889
rs35902
rs35917709
rs35923152
rs35929815
rs359400
rs35942668
rs35949382
rs35975584
rs35978841
rs35987996
rs35992967
rs35996528
rs35996995
rs360217
rs36025711
rs36036989
rs36042884
rs36043949
rs36049109
rs36052055
rs36053858
rs36062577
rs36066837
rs36074314
rs36082943
rs36083284
rs36088237
rs36098421
rs36101510
rs36102013
rs36104383
rs36104874
rs36106813
rs36110813
rs36110893
rs36135148
rs36201645
rs36674
rs368380
rs3729966
rs3737622
rs3741206
rs3741524
rs3741638
rs3742636
rs3745496
rs37464
rs374681
rs3747169
rs3748131
rs3751308
rs3751601
rs3752032
rs3760449
rs3763236
rs3763562
rs37646
rs3765377
rs3765949
rs3770536
rs3770976
rs3772933
rs3773155
rs3774425
rs3780403
rs3780711
rs3783171
rs3784785
rs3786005
rs3790067
rs379123
rs3792797
rs379397
rs3796383
rs3799696
rs3800863
rs3802650
rs3802798
rs3807745
rs3807809
rs3809752
rs3810804
rs3811250
rs3811492
rs3814454
rs3815851
rs3819764
rs3825109
rs3825204
rs3826567
rs3826588
rs3827306
rs383887
rs3843496
rs3848222
rs3852281
rs3852551
rs3853055
rs3853081
rs3853524
rs3855726
rs3859999
rs3860003
rs3860513
rs3864737
rs38653
rs3865774
rs3865831
rs3866012
rs3866146
rs3866147
rs3876219
rs3876342
rs3878725
rs3883623
rs3884522
rs3887651
rs3890716
rs389363
rs3894644
rs3901344
rs3906496
rs3907609
rs3908619
rs3910002
rs3911550
rs3912591
rs3912594
rs3918339
rs392308
rs3924765
rs392638
rs3931686
rs3935536
rs3935718
rs3937817
rs3950423
rs3950601
rs3950854
rs3951025
rs3951553
rs395158
rs3954369
rs3955025
rs3955026
rs3957788
rs3958709
rs3959326
rs3959835
rs3963010
rs3963014
rs3963058
rs3965134
rs3967001
rs3979307
rs398222
rs398503
rs3990371
rs3993401
rs399592
rs3996912
rs4008381
rs4008386
rs4008408
rs4008419
rs4008421
rs4014762
rs4014763
rs4014768
rs4014780
rs402514
rs4025966
rs4027004
rs4027641
rs4027942
rs4028051
rs4028059
rs4028890
rs4028903
rs4028930
rs4029076
rs4029098
rs4030061
rs4030415
rs4030630
rs4031652
rs4031892
rs4032163
rs4032172
rs4032224
rs4032875
rs4033161
rs4033193
rs4033196
rs4033197
rs4033198
rs4033214
rs4033684
rs4033699
rs4033705
rs4033711
rs4033714
rs4033734
rs4033737
rs4033739
rs4033740
rs4034138
rs4034139
rs4043751
rs4044088
rs4044090
rs4044162
rs4044218
rs4044235
rs4044236
rs4044238
rs4044296
rs4044297
rs4044298
rs4060030
rs4062187
rs4065678
rs406783
rs4068671
rs4068678
rs4069493
rs4074541
rs4078846
rs4080948
rs4081636
rs4081638
rs4081639
rs4081948
rs4087490
rs4088784
rs4093106
rs4099436
rs4099894
rs4100146
rs410066
rs4114291
rs4115245
rs4115246
rs4115248
rs4119087
rs4121489
rs4129933
rs4134449
rs4140775
rs4141550
rs4141927
rs4142847
rs4146580
rs4146954
rs4148882
rs41508145
rs422144
rs4232908
rs4236552
rs4237769
rs4239717
rs4239917
rs4245456
rs4247354
rs4247532
rs4256733
rs4259139
rs4265446
rs4266319
rs426673
rs4269558
rs42714
rs4272863
rs4272997
rs4279227
rs4282494
rs4283687
rs4289048
rs4289049
rs4291256
rs4293501
rs4294900
rs4296777
rs4297673
rs4298056
rs4303857
rs4304500
rs4307511
rs4316144
rs4327574
rs4328782
rs4335654
rs4341481
rs4342524
rs4343078
rs4344533
rs4352853
rs4354487
rs4354964
rs4355209
rs4359384
rs436000
rs436354
rs4369008
rs4372938
rs4381652
rs4386003
rs4391159
rs4403543
rs4409810
rs4411081
rs4412535
rs4414112
rs4415218
rs4415403
rs4416268
rs4421160
rs4421737
rs4422028
rs4423240
rs4430801
rs4435311
rs4437815
rs4438664
rs4441329
rs4443011
rs4445537
rs4445766
rs4446101
rs4449671
rs4450355
rs4451192
rs4457236
rs445828
rs4458974
rs4459504
rs4465005
rs4465571
rs4468797
rs4470098
rs4470201
rs4470556
rs4474916
rs4477718
rs4482346
rs4483348
rs4485103
rs4485104
rs4485105
rs4486388
rs448677
rs4489027
rs4489754
rs448997
rs449066
rs4493131
rs4493321
rs449568
rs449716
rs4497857
rs4499479
rs4500424
rs4502426
rs4508198
rs4510424
rs4511778
rs4513152
rs4521580
rs452494
rs4525552
rs4534318
rs4535945
rs4537474
rs453774
rs4539072
rs4539172
rs4539680
rs4540868
rs454223
rs4543735
rs4545335
rs4547780
rs4551242
rs4554660
rs4556553
rs4558466
rs4564467
rs4568762
rs4568775
rs4573564
rs4576247
rs4576820
rs4581226
rs4584192
rs4585088
rs4592670
rs4593079
rs459474
rs4595985
rs4597421
rs4599058
rs4600363
rs4606805
rs4607841
rs4607871
rs4609482
rs460976
rs4616888
rs4618102
rs4619140
rs4623937
rs4630605
rs4630619
rs4632086
rs463288
rs4633262
rs4635354
rs4636162
rs4637403
rs4638958
rs463938
rs4639696
rs4642743
rs4645524
rs4646217
rs464764
rs4649988
rs4654435
rs465938
rs4661598
rs4662422
rs4662784
rs466366
rs4664066
rs4664597
rs4666815
rs4667345
rs4668128
rs4668423
rs4675965
rs4676258
rs4676369
rs4680608
rs4681363
rs4685995
rs4688139
rs4690871
rs4694733
rs4699565
rs4699770
rs4700812
rs4701323
rs4702103
rs4702624
rs4702930
rs4702942
rs4705201
rs4707762
rs4712105
rs4712149
rs4714375
rs4717964
rs4718276
rs4722793
rs4723626
rs4724358
rs4724511
rs4725234
rs4727563
rs4728987
rs473089
rs4731457
rs4733347
rs4733776
rs4733828
rs473561
rs4735793
rs4736641
rs4738141
rs4740810
rs4742207
rs4742220
rs4746076
rs4746834
rs4747217
rs474781
rs4748901
rs4751264
rs4753505
rs475994
rs4763825
rs4763959
rs4764038
rs4764776
rs476532
rs4765424
rs4766381
rs4767970
rs4770021
rs4771699
rs4772149
rs4777937
rs4778298
rs4778307
rs4778318
rs4778686
rs4778963
rs4779045
rs4781173
rs4781263
rs4783914
rs4784228
rs4785369
rs4785742
rs4786201
rs4787393
rs4788880
rs4789081
rs4790069
rs4792103
rs4792841
rs4792941
rs4793011
rs4793293
rs4793871
rs4795002
rs4796030
rs4801183
rs4801194
rs4802279
rs4806538
rs4806680
rs4806839
rs4808377
rs4808631
rs4809060
rs4809558
rs4810670
rs4810720
rs4811158
rs4812565
rs4813845
rs4814419
rs4815411
rs4816995
rs4819119
rs4821652
rs4821849
rs4821948
rs4822138
rs4823938
rs4824034
rs482534
rs4828735
rs4831250
rs4831699
rs4833779
rs484101
rs4841434
rs4843654
rs4843910
rs4845605
rs4850447
rs4850546
rs4851122
rs4851509
rs4854288
rs4855217
rs4857258
rs4857338
rs4861730
rs4862298
rs4864522
rs4865140
rs4865141
rs486535
rs4865569
rs4870310
rs4872356
rs487272
rs4875396
rs4876160
rs4881372
rs4885589
rs4886543
rs4888773
rs4889555
rs4889653
rs4894703
rs4895176
rs4895927
rs4896932
rs4905904
rs4907280
rs491014
rs4912913
rs4916944
rs4919423
rs4919802
rs4921364
rs4922197
rs4926616
rs492959
rs4932944
rs4939008
rs4939173
rs4941442
rs4941562
rs4944353
rs4944429
rs4946570
rs4946861
rs4948803
rs4948971
rs4952025
rs495641
rs4959710
rs4966184
rs496862
rs4971998
rs4972588
rs4975854
rs4977780
rs4978107
rs498059
rs4985778
rs4985894
rs4986714
rs4986722
rs4993471
rs4993475
rs4993477
rs499543
rs4997541
rs4998040
rs5000639
rs5000643
rs5002914
rs5004058
rs5005398
rs500971
rs5012676
rs5014524
rs5014528
rs5019325
rs5023739
rs5024851
rs5025481
rs5025486
rs5028289
rs505765
rs506922
rs510032
rs512750
rs517736
rs518281
rs524329
rs528285
rs529064
rs529524
rs532210
rs536869
rs538223
rs540814
rs543102
rs543459
rs543944
rs546048
rs549862
rs552305
rs557993
rs559058
rs560640
rs563296
rs564066
rs566084
rs568780
rs570061
rs573827
rs5747492
rs574946
rs5750025
rs5750807
rs5752173
rs5752457
rs5756895
rs5757627
rs5757939
rs5758098
rs5758107
rs5758350
rs5760575
rs5761018
rs5764045
rs5768682
rs578298
rs581623
rs583582
rs587948
rs588700
rs590201
rs5909001
rs5915550
rs5916482
rs5918255
rs5939748
rs5939854
rs5940807
rs5942559
rs5942927
rs5944935
rs5945790
rs5949204
rs5952799
rs5955478
rs5955540
rs5969802
rs5975217
rs5976162
rs5982878
rs5982920
rs598373
rs5991944
rs5996921
rs5997305
rs6000120
rs6001353
rs6001892
rs6002026
rs6002359
rs6002818
rs600291
rs6003245
rs6004609
rs6006460
rs6007542
rs6010455
rs6011292
rs6022652
rs6026515
rs6027328
rs6033330
rs6035378
rs6041099
rs6042940
rs6044150
rs6044234
rs6053148
rs6066835
rs606877
rs6069124
rs6073885
rs6075078
rs6076954
rs6077047
rs6081648
rs6083703
rs6088091
rs6094294
rs6094558
rs6094848
rs609708
rs6099160
rs6102985
rs6106615
rs6110474
rs611708
rs611825
rs611843
rs6125457
rs612888
rs6130052
rs6134938
rs6139379
rs6140828
rs616602
rs620584
rs627222
rs628672
rs629586
rs6311
rs632849
rs633869
rs634103
rs637572
rs6415649
rs6419427
rs6419508
rs6423585
rs6428833
rs6429226
rs643064
rs6431655
rs643378
rs6436944
rs6438506
rs6441989
rs6442029
rs6442831
rs6446517
rs6450778
rs6450920
rs6451123
rs6451281
rs6453873
rs6457452
rs6457458
rs6459644
rs645986
rs6462059
rs6463875
rs6465502
rs6469084
rs6470747
rs6472619
rs6474801
rs6478277
rs6481493
rs648298
rs6485450
rs6488519
rs6489282
rs6489782
rs648997
rs6490069
rs6491016
rs6493119
rs6498334
rs650027
rs6502552
rs6506593
rs6508980
rs6509992
rs6511140
rs6511467
rs6528913
rs6530602
rs6530603
rs6530620
rs6530806
rs6530848
rs6536694
rs6540132
rs6540652
rs6541557
rs6542174
rs654433
rs6544868
rs6545221
rs6546962
rs6549415
rs6556301
rs655653
rs655709
rs6557756
rs6559931
rs656144
rs6563245
rs6571400
rs6571692
rs657580
rs6578685
rs6583021
rs658612
rs6587153
rs6587794
rs6588107
rs6588553
rs6590449
rs6592015
rs6594927
rs6594961
rs6597674
rs6598922
rs6600333
rs6601483
rs6601709
rs660625
rs6606813
rs6606825
rs6610148
rs6615121
rs6616393
rs6618274
rs662066
rs6622121
rs662270
rs6634126
rs6638954
rs6639231
rs664062
rs6642287
rs6642942
rs664961
rs665392
rs6655896
rs666128
rs6666578
rs6667902
rs6667904
rs6671103
rs667181
rs6673776
rs6679917
rs6682088
rs6688154
rs6689297
rs6690382
rs6691097
rs6692115
rs6692958
rs6694190
rs669582
rs6697552
rs6700638
rs6706197
rs6712567
rs6712905
rs6713620
rs6713990
rs6715108
rs6717227
rs671772
rs6722353
rs6722570
rs6725113
rs6732142
rs6732149
rs6732445
rs673439
rs6735214
rs6737169
rs6737222
rs6740424
rs6742220
rs6745205
rs6746364
rs6748658
rs6749057
rs6753785
rs6754280
rs6756986
rs6757623
rs6758057
rs6761604
rs6762748
rs6765028
rs6765200
rs6768434
rs6770923
rs6778912
rs6778966
rs677960
rs6781363
rs6781424
rs6782006
rs6784301
rs6786556
rs678691
rs6788108
rs6788164
rs6789
rs6794095
rs6798071
rs6808990
rs6810220
rs681478
rs6814902
rs6817742
rs6821153
rs6823023
rs6827228
rs682734
rs6827467
rs6827840
rs6828262
rs6828338
rs6828619
rs6832313
rs6835730
rs6840693
rs6841592
rs6843214
rs6843675
rs684690
rs6848175
rs6853665
rs685468
rs6859654
rs6860627
rs6862525
rs6863429
rs6865440
rs6869749
rs6871616
rs6872391
rs6876174
rs6876197
rs6878525
rs6884536
rs6893167
rs6896163
rs6896245
rs6896380
rs6897092
rs6897802
rs6899431
rs6901720
rs6902462
rs6907771
rs6913139
rs6914506
rs6929404
rs6930143
rs6931706
rs6931919
rs693241
rs6934395
rs6936465
rs6937911
rs6940972
rs694225
rs6946803
rs6947525
rs6948786
rs6951912
rs6952184
rs6955734
rs6957121
rs6959190
rs6960928
rs6960979
rs696319
rs6968164
rs696833
rs6968847
rs6970766
rs6972399
rs697509
rs6976095
rs6982011
rs6982084
rs6982233
rs6984248
rs698465
rs6986423
rs6986644
rs6988310
rs6988872
rs6988975
rs6991950
rs6992998
rs6994284
rs6996149
rs699651
rs6998598
rs7005557
rs7007251
rs7010443
rs7012038
rs7012587
rs7020594
rs7021243
rs7022427
rs7024493
rs7027372
rs7029407
rs7031307
rs703220
rs7032362
rs7037813
rs7046030
rs7046746
rs7050
rs7053997
rs7054964
rs7055181
rs7055827
rs7056009
rs7056346
rs7057452
rs7062235
rs7063821
rs7064102
rs7067250
rs7067311
rs7067328
rs7067342
rs7067390
rs7067398
rs7067444
rs7067493
rs7067495
rs7067496
rs7070073
rs7070361
rs7073086
rs7076802
rs7077535
rs7077990
rs708451
rs7089422
rs7090872
rs7093477
rs7103853
rs7105331
rs7105398
rs7106971
rs7107947
rs7111467
rs7112242
rs711252
rs7113242
rs7113321
rs7115863
rs7115903
rs711822
rs7118561
rs7118643
rs7121794
rs7121838
rs7122140
rs7122928
rs7123298
rs7123641
rs7127795
rs7134422
rs7137092
rs7143192
rs7144866
rs7145447
rs7147714
rs7151699
rs7154767
rs715549
rs7157681
rs7158969
rs7162534
rs7163165
rs7163578
rs7167349
rs7167658
rs7171197
rs7171787
rs7172845
rs7176520
rs7176653
rs7176678
rs7179251
rs718062
rs7182221
rs7184859
rs7186225
rs718936
rs7189762
rs7190185
rs7192116
rs7196199
rs7197258
rs7200286
rs7204265
rs7208352
rs7209989
rs7210075
rs7212559
rs7216938
rs7219230
rs7222483
rs7225434
rs7236975
rs723724
rs7237695
rs7241117
rs7245994
rs7246424
rs7247881
rs7248302
rs7248969
rs7251145
rs7252491
rs7253247
rs7254965
rs7255105
rs7256212
rs7258048
rs7258199
rs7258660
rs726133
rs7275412
rs7275719
rs727594
rs7281838
rs7288394
rs7291500
rs7293668
rs7294245
rs7294773
rs7296996
rs7311377
rs7315047
rs7315614
rs7316919
rs731897
rs732081
rs732119
rs7322568
rs7323689
rs732623
rs7332904
rs7338302
rs7341991
rs7341992
rs734307
rs7350381
rs7350382
rs7351012
rs7352992
rs7354921
rs7355517
rs7358760
rs7359115
rs735956
rs7359876
rs737051
rs7383974
rs738499
rs738810
rs738881
rs7392520
rs739965
rs7403441
rs740505
rs740570
rs7406759
rs7409230
rs7414876
rs741500
rs7415460
rs7416798
rs7416973
rs7417026
rs7417038
rs7420866
rs7423746
rs7424350
rs742635
rs7436074
rs7437855
rs7443875
rs7445050
rs745453
rs7456000
rs7459738
rs7469495
rs7472528
rs7474413
rs7474431
rs7474480
rs7475977
rs7482173
rs7492449
rs7498886
rs7499527
rs7500004
rs750872
rs750895
rs7511998
rs7512262
rs7513731
rs7516752
rs7518729
rs7522944
rs752596
rs7527071
rs7532693
rs7532890
rs753346
rs7542637
rs7546884
rs7552724
rs7554297
rs7554348
rs7557916
rs7561189
rs7561950
rs7564637
rs7567378
rs7570506
rs7574848
rs7581134
rs758486
rs7585241
rs7587284
rs7589532
rs759482
rs759718
rs7601188
rs7604823
rs7606263
rs7606775
rs7608031
rs7610103
rs7612265
rs7612833
rs7614992
rs7615325
rs7616341
rs7618051
rs7625781
rs7626769
rs7630738
rs7632934
rs7633596
rs763694
rs7639353
rs7641773
rs7642104
rs7642222
rs7644537
rs7648951
rs7649259
rs7649517
rs7650184
rs7650201
rs7651855
rs765557
rs7656367
rs765763
rs7675477
rs7676442
rs7681502
rs7687844
rs7692357
rs7697669
rs7698655
rs7698803
rs7699343
rs7699689
rs7700373
rs7712066
rs7713161
rs7713449
rs7716003
rs7716340
rs7717040
rs7719527
rs7721622
rs7721851
rs7722591
rs7725120
rs7731163
rs7736219
rs773952
rs7739574
rs7745413
rs7746854
rs7747078
rs7754903
rs7757985
rs7762363
rs7766864
rs7770376
rs7770469
rs7774264
rs777709
rs777710
rs7778887
rs7785299
rs7786447
rs7786464
rs7788159
rs7788456
rs7792567
rs7796889
rs7798157
rs7798423
rs7802496
rs7802503
rs7809670
rs7813241
rs7813793
rs7814393
rs7815436
rs7817129
rs7818143
rs7824333
rs7827285
rs7832818
rs7833080
rs7834351
rs7835487
rs7835718
rs7837354
rs7839719
rs7840505
rs7840747
rs7841597
rs7850218
rs7853360
rs7857431
rs7859003
rs7870042
rs7875633
rs7876886
rs7880002
rs7880548
rs7887052
rs7887377
rs7889561
rs7892847
rs7892854
rs7892855
rs7892913
rs7892920
rs7892931
rs7892964
rs7893011
rs7893041
rs7893070
rs7893071
rs7893091
rs7893102
rs7898225
rs7899888
rs7900045
rs7900951
rs7902290
rs7907692
rs7907793
rs7913112
rs7919775
rs7922362
rs7924782
rs7926023
rs7927029
rs7929543
rs7930256
rs793228
rs7932986
rs7935486
rs793827
rs7938796
rs7938799
rs7939300
rs794009
rs7941660
rs7946312
rs7947115
rs7947657
rs7947975
rs7947985
rs7951578
rs7953457
rs7954820
rs7958445
rs7959152
rs7965203
rs7966036
rs7967747
rs7970397
rs7971136
rs7971383
rs7973286
rs7979122
rs7980625
rs7981637
rs7984339
rs7984841
rs798887
rs7992745
rs799500
rs799661
rs7998352
rs8000094
rs8002033
rs8010809
rs801139
rs8011757
rs801733
rs8018554
rs8022234
rs8022650
rs8025092
rs8026512
rs8026561
rs8028130
rs8028440
rs8029320
rs8032564
rs803262
rs8033181
rs8033436
rs8035184
rs8035829
rs8038240
rs8038923
rs8042941
rs8043254
rs8044749
rs8051096
rs8058795
rs8058875
rs8058985
rs8061692
rs8063058
rs8064557
rs8065277
rs8065900
rs8069673
rs8077298
rs8077375
rs8078268
rs8078442
rs8079384
rs8079648
rs8083370
rs8084232
rs8084934
rs8087255
rs8087891
rs8090235
rs8091041
rs8101026
rs8102646
rs8102683
rs8105117
rs8106213
rs8106546
rs810810
rs810811
rs810812
rs8109218
rs8109818
rs8110554
rs8111918
rs8118265
rs8120195
rs8120953
rs8121124
rs8131897
rs8132448
rs8136643
rs8137591
rs8139495
rs816709
rs816948
rs8176257
rs8180172
rs818269
rs818296
rs8189785
rs820501
rs820965
rs821116
rs821408
rs822546
rs824175
rs825930
rs826009
rs826965
rs828514
rs833416
rs838689
rs840952
rs841344
rs842164
rs847015
rs848433
rs852075
rs857533
rs859739
rs859743
rs859745
rs864179
rs865689
rs865809
rs868699
rs870898
rs871408
rs871981
rs872877
rs876324
rs877250
rs877350
rs878859
rs881203
rs883488
rs886775
rs887833
rs892707
rs896044
rs899286
rs899735
rs903786
rs908822
rs909823
rs910034
rs913514
rs919463
rs919756
rs921071
rs922212
rs922279
rs923488
rs924149
rs924448
rs926308
rs9266514
rs927629
rs9284214
rs9285581
rs9286694
rs9289594
rs9290995
rs929192
rs929289
rs9295203
rs9301481
rs9302893
rs930339
rs9304131
rs9304726
rs9306850
rs9308176
rs9308457
rs9312040
rs9314546
rs9315960
rs932316
rs9324330
rs9325409
rs9325744
rs9328207
rs9328737
rs9329808
rs9329821
rs9331500
rs9341284
rs9341445
rs9341683
rs9343883
rs9344040
rs9344794
rs9346833
rs9349651
rs9351111
rs9351695
rs9353980
rs9354302
rs9356943
rs9370105
rs937029
rs9373705
rs9379421
rs9384509
rs939330
rs9399858
rs9408678
rs941155
rs9411585
rs9414524
rs941490
rs9422546
rs9422661
rs942698
rs942727
rs943837
rs9443411
rs9450180
rs9450537
rs9462720
rs946445
rs9471976
rs9474123
rs9474776
rs9476827
rs9486103
rs9486513
rs9488642
rs9489904
rs9490795
rs9493105
rs9493174
rs9494341
rs9494794
rs9499550
rs9500325
rs9500755
rs9507299
rs9508933
rs9510802
rs951553
rs9519057
rs9521601
rs9521686
rs952260
rs9527639
rs9527905
rs9529329
rs9529406
rs9538215
rs9554335
rs9556879
rs9557699
rs9559181
rs956212
rs9563551
rs9564583
rs9572111
rs9573383
rs9578047
rs9590981
rs959179
rs9596344
rs9604659
rs9608299
rs9615066
rs9617162
rs9627641
rs9633193
rs9633796
rs9633797
rs963499
rs963645
rs9641125
rs9642601
rs964337
rs9643842
rs964560
rs9646481
rs9646908
rs9649394
rs964955
rs9650348
rs9650861
rs9650864
rs9650883
rs9657451
rs9659944
rs9668854
rs9672615
rs9675133
rs9677346
rs9680912
rs9687957
rs9691979
rs9699377
rs9699391
rs9705952
rs9725873
rs9748260
rs9782770
rs9782843
rs9782993
rs9785652
rs9785754
rs9785794
rs9785815
rs9785831
rs9785855
rs9785869
rs9785891
rs9785895
rs9785914
rs9785921
rs9785922
rs9785937
rs9785966
rs9785974
rs9785977
rs9785986
rs9785991
rs9786000
rs9786023
rs9786037
rs9786041
rs9786055
rs9786086
rs9786124
rs9786131
rs9786218
rs9786259
rs9786285
rs9786295
rs9786307
rs9786345
rs9786361
rs9786362
rs9786367
rs9786403
rs9786431
rs9786445
rs9786465
rs9786477
rs9786508
rs9786510
rs9786523
rs9786554
rs9786578
rs9786593
rs9786599
rs9786613
rs9786630
rs9786640
rs9786649
rs9786661
rs9786693
rs9786701
rs9786810
rs9786830
rs9786839
rs9786853
rs9786857
rs9786880
rs9786904
rs9786908
rs9792519
rs9792837
rs979387
rs979429
rs9799404
rs9804319
rs9806169
rs9810495
rs9815806
rs9817508
rs9822289
rs9823976
rs9825365
rs9826061
rs9827591
rs9830275
rs9837352
rs983894
rs984070
rs9844628
rs9845218
rs9848054
rs9851887
rs9852846
rs9859768
rs9859842
rs9861321
rs9863939
rs9868243
rs9869888
rs9870680
rs9872192
rs9878617
rs987926
rs9881490
rs9893664
rs9898065
rs9902455
rs9914770
rs9919280
rs9919301
rs9920962
rs9921315
rs9922145
rs9925011
rs9925848
rs9927068
rs992838
rs9928997
rs993417
rs994759
rs9947850
rs9952296
rs9957420
rs9963833
rs996418
rs9970106
rs9970571
rs9970993
rs9971407
rs9972621
rs9973760
rs9983634
rs9984425
rs9990230
rs9991550
rs9994795
rs9998962
